{
    "@class": "com.kony.gen.viz.model.container.KVizHBox",
    "DNDConfig": null,
    "_margin_": [
        5,
        6,
        10,
        0
    ],
    "_orientation_": 1,
    "_padding_": [
        0,
        0,
        0,
        0
    ],
    "_percent_": true,
    "_position_": 3,
    "_skin_": "s3240d32b9a74cc78d1e0768cd2cdf1b",
    "allboxes": [],
    "canUpdateUI": true,
    "children": [
        "btnChangeEmailId",
        "btnVerityEmail"
    ],
    "containerweight": 100,
    "contextmenu": null,
    "id": "HBox0d943004c442a43",
    "info": null,
    "iscustomlayout": false,
    "isvisible": true,
    "kuid": "haf853ad76f348f3a59043a1a40ea8b8",
    "layouttype": 0,
    "margininpixel": false,
    "name": "kony.ui.Box",
    "paddinginpixel": false,
    "parent": "vboxConfirmEmail",
    "pf": "frmIBCustomerBasicInfo",
    "retaincontentalignment": false,
    "retainflexpositionproperties": false,
    "wType": "HBox",
    "widgetalignment": 1
}