{
    "DNDConfig": null,
    "_data_": [
        {
            "imageRightArrow": {
                "@class": "com.viz.ide.model.segment.ImageSegmentData",
                "src": "navarrow.png"
            },
            "lblPolicyName": {
                "@class": "com.viz.ide.model.segment.SimpleTextSegmentData",
                "text": ""
            },
            "lblPolicyNumber": {
                "@class": "com.viz.ide.model.segment.SimpleTextSegmentData",
                "text": ""
            },
            "lblSumInsured": {
                "@class": "com.viz.ide.model.segment.SimpleTextSegmentData",
                "text": ""
            },
            "lblSumInsuredValue": {
                "@class": "com.viz.ide.model.segment.SimpleTextSegmentData",
                "text": ""
            }
        },
        {
            "imageRightArrow": {
                "@class": "com.viz.ide.model.segment.ImageSegmentData",
                "src": "navarrow.png"
            },
            "lblPolicyName": {
                "@class": "com.viz.ide.model.segment.SimpleTextSegmentData",
                "text": ""
            },
            "lblPolicyNumber": {
                "@class": "com.viz.ide.model.segment.SimpleTextSegmentData",
                "text": ""
            },
            "lblSumInsured": {
                "@class": "com.viz.ide.model.segment.SimpleTextSegmentData",
                "text": ""
            },
            "lblSumInsuredValue": {
                "@class": "com.viz.ide.model.segment.SimpleTextSegmentData",
                "text": ""
            }
        },
        {
            "imageRightArrow": {
                "@class": "com.viz.ide.model.segment.ImageSegmentData",
                "src": "navarrow.png"
            },
            "lblPolicyName": {
                "@class": "com.viz.ide.model.segment.SimpleTextSegmentData",
                "text": ""
            },
            "lblPolicyNumber": {
                "@class": "com.viz.ide.model.segment.SimpleTextSegmentData",
                "text": ""
            },
            "lblSumInsured": {
                "@class": "com.viz.ide.model.segment.SimpleTextSegmentData",
                "text": ""
            },
            "lblSumInsuredValue": {
                "@class": "com.viz.ide.model.segment.SimpleTextSegmentData",
                "text": ""
            }
        }
    ],
    "_enabled_": false,
    "_indicator_": "none",
    "_margin_": [
        0,
        0,
        0,
        0
    ],
    "_orientation_": 2,
    "_padding_": [
        0,
        0,
        0,
        0
    ],
    "_skin_": "seg2Normal",
    "android": {
        "@class": "com.kony.gen.viz.model.container.property.segment2.AndroidSegment2Property",
        "psp": {
            "dockSectionHeaders": false
        },
        "render": true,
        "viewConfig": {
            "coverflowConfig": {
                "isCircular": true,
                "projectionAngle": 60
            }
        },
        "viewType": "tableview"
    },
    "canUpdateUI": true,
    "containerheightreference": 1,
    "containerweight": 100,
    "context": {
        "channel": "mobile",
        "formID": "AdvancedWidgetsSegements",
        "templateType": "segments",
        "topLevelBox": false
    },
    "counter": "02",
    "focusedindex": null,
    "focuseditem": null,
    "generatedtemplate": "",
    "groupcells": false,
    "hasSections": false,
    "hiddencolumns": {},
    "id": "segAccountDetails",
    "ide_onRowClick": "p2kwiet2012247630439_segAccountDetails_onRowClick_seq0",
    "info": null,
    "iphone": {
        "@class": "com.kony.gen.viz.model.container.property.segment2.IPhoneSegment2Property",
        "_margin_": [
            0,
            0,
            0,
            0
        ],
        "margin": [
            0,
            0,
            0,
            0
        ],
        "marginInPixel": false,
        "psp": {
            "bounces": false,
            "editStyle": "none",
            "enableDictionary": false,
            "indicator": "none",
            "progressIndicatorColor": "white",
            "searchCriteria": 1,
            "showProgressIndicator": true
        },
        "render": true,
        "viewConfig": {
            "coverflowConfig": {}
        },
        "viewType": "tableview"
    },
    "isvisible": true,
    "kuid": "p2kwiet2012247630432",
    "layoutalignment": 3,
    "margininpixel": false,
    "name": "kony.ui.SegmentedUI2",
    "needpageindicator": true,
    "paddinginpixel": false,
    "paginationconfig": {
        "position": "bottom"
    },
    "parent": "sboxRight",
    "pf": "frmMBBankAssuranceSummary",
    "retainselection": false,
    "rowTemplateId": "p2kwiet2012247651328",
    "rowcounter": 2,
    "rowfocusskin": "s95b453b58b14bb9b0213841c91e1f69",
    "rowskin": "s01e0182a4d14a4da5e4e707eafeea1b",
    "rowtemplate": "MBBAContent",
    "screenlevelwidget": false,
    "scrollingevents": false,
    "seccounter": 0,
    "sectionheaderskin": "s9bd6d2f2f8c4fce89dae24cc47abe06",
    "selectedRows": null,
    "selectedState": false,
    "selectedindex": null,
    "selectedindices": null,
    "selecteditems": null,
    "selectedsectionindex": null,
    "selectionbehavior": "default",
    "selectionbehaviorconfig": {},
    "separatorcolor": "bebebe00",
    "separatorrequired": true,
    "separatorthickness": 1,
    "showscrollbars": false,
    "spa": {
        "@class": "com.kony.gen.viz.model.container.property.segment2.SPASegment2Property"
    },
    "spaan": {
        "@class": "com.kony.gen.viz.model.container.property.segment2.SPAAndroidSegment2Property",
        "render": true
    },
    "spabb": {
        "@class": "com.kony.gen.viz.model.container.property.segment2.SPABBSegment2Property",
        "render": true
    },
    "spaip": {
        "@class": "com.kony.gen.viz.model.container.property.segment2.SPAIPhoneSegment2Property",
        "render": true
    },
    "spawinphone8": {
        "@class": "com.kony.gen.viz.model.container.property.segment2.SPAWinPhone8Segment2Property",
        "render": true
    },
    "viewtype": "tableview",
    "wType": "Segment",
    "widgetalignment": 1,
    "widgetdatamap": {
        "MBBAContent": "MBBAContent",
        "hbox3635859947246": "hbox3635859947246",
        "hbox967337254173878": "hbox967337254173878",
        "hbox967337254174903": "hbox967337254174903",
        "imageRightArrow": "imageRightArrow",
        "imgLogo": "imgLogo",
        "imgPayFlag": "imgPayFlag",
        "lblPolicyName": "lblPolicyName",
        "lblPolicyNumber": "lblPolicyNumber",
        "lblSumInsured": "lblSumInsured",
        "lblSumInsuredValue": "lblSumInsuredValue",
        "vbox3635859949527": "vbox3635859949527",
        "vbox447413534513780": "vbox447413534513780"
    },
    "winphone8": {
        "@class": "com.kony.gen.viz.model.container.property.segment2.WinPhone8Segment2Property",
        "_margin_": [
            0,
            0,
            0,
            0
        ],
        "margin": [
            0,
            0,
            0,
            0
        ],
        "marginInPixel": false,
        "psp": {
            "enableCache": false
        },
        "render": true
    }
}