{
    "@class": "com.kony.gen.viz.model.component.KVizLabel",
    "DNDConfig": null,
    "__parentReadjusting__": false,
    "_height_": {
        "type": "string",
        "value": "45%"
    },
    "_left_": {
        "type": "string",
        "value": "4%"
    },
    "_margin_": [
        1,
        1,
        1,
        1
    ],
    "_padding_": [
        0,
        0,
        0,
        0
    ],
    "_skin_": "s518c813e89747f3891eb3cb848f91c8",
    "_text_": "0 Years 0 months",
    "_top_": {
        "type": "string",
        "value": "47%"
    },
    "_width_": {
        "type": "string",
        "value": "94%"
    },
    "_wrapping_": 2,
    "android": {
        "textStyle": {
            "letterSpacing": 0,
            "strikeThrough": false
        }
    },
    "canUpdateUI": true,
    "containerweight": 100,
    "contentalignment": 4,
    "id": "lblLengthOfCurrentEmployee",
    "info": null,
    "ipad": {
        "psp": {
            "wrapping": 2
        }
    },
    "iphone": {
        "psp": {
            "wrapping": 2
        }
    },
    "isvisible": true,
    "kuid": "f410ac238d5542debf380beb9e59f05a",
    "name": "kony.ui.Label",
    "parent": "flxLenthOfEmployment",
    "pf": "frmLoanWorkInfo",
    "textstyle": {},
    "tooltip": "",
    "wType": "Label",
    "zindex": 1
}