{
    "@class": "com.kony.gen.viz.model.container.KVizHBox",
    "DNDConfig": null,
    "__markedForDelete__": true,
    "_margin_": [
        0,
        0,
        0,
        0
    ],
    "_orientation_": 1,
    "_padding_": [
        0,
        0,
        0,
        0
    ],
    "_percent_": true,
    "_position_": 3,
    "_skin_": "s3240d32b9a74cc78d1e0768cd2cdf1b",
    "allboxes": [],
    "canUpdateUI": true,
    "children": [
        "CopyVBox0c9c969085d2c4e"
    ],
    "containerweight": 100,
    "contextmenu": null,
    "id": "CopyHBox0jf86c9a4aa8141",
    "info": null,
    "isvisible": true,
    "kuid": "d79c8bcb5be54f22ba18e7fe5c0d9853",
    "layouttype": 0,
    "margininpixel": false,
    "name": "kony.ui.Box",
    "parent": "VBox0b1073bb8cf034e",
    "pf": "frmIBMFConfirm",
    "wType": "HBox",
    "widgetalignment": 1
}