{
    "DNDConfig": null,
    "_enabled_": false,
    "_margin_": [
        0,
        0,
        0,
        0
    ],
    "_padding_": [
        0,
        0,
        0,
        0
    ],
    "_skin_": "s23d1a073cad404db0fd95dbf29db07f",
    "_text_": "",
    "_thickness_": 1,
    "canUpdateUI": true,
    "containerweight": 1,
    "contentalignment": 5,
    "desktopweb": {
        "@class": "com.kony.gen.viz.model.component.property.line.DesktopWebLineProperty",
        "_margin_": [
            0,
            0,
            0,
            0
        ],
        "margin": [
            0,
            0,
            0,
            0
        ],
        "marginInPixel": false,
        "render": false
    },
    "hexpand": true,
    "id": "line47586967869881",
    "info": null,
    "isvisible": false,
    "kiosk": {
        "@class": "com.kony.gen.viz.model.component.property.line.KioskLineProperty",
        "_margin_": [
            0,
            0,
            0,
            0
        ],
        "margin": [
            0,
            0,
            0,
            0
        ],
        "marginInPixel": false,
        "render": false
    },
    "kuid": "p2kwiet2012247652300",
    "margininpixel": false,
    "name": "kony.ui.Line",
    "paddinginpixel": false,
    "parent": "hbox47586967871446",
    "pf": "SegNotificationTemplateIB",
    "spa": {
        "@class": "com.kony.gen.viz.model.component.property.line.SPALineProperty"
    },
    "vexpand": false,
    "wType": "Line",
    "widgetalignment": 5
}