{
    "DNDConfig": null,
    "_enabled_": false,
    "_skin_": "s5acbd7611124b5db2432a29feceb493",
    "_text_": "",
    "canUpdateUI": true,
    "containerweight": 31,
    "contentalignment": 5,
    "desktopweb": {
        "@class": "com.kony.gen.viz.model.component.property.button.DesktopWebButtonProperty",
        "_margin_": [
            3,
            0,
            0,
            0
        ],
        "_padding_": [
            0,
            0,
            0,
            0
        ],
        "displayText": true,
        "margin": [
            3,
            0,
            0,
            0
        ],
        "marginInPixel": false,
        "padding": [
            0,
            0,
            0,
            0
        ],
        "paddingInPixel": false,
        "render": true
    },
    "displaytext": true,
    "focusskin": "sfa8adc8f9d844e4ba21b93d33bed075",
    "hexpand": true,
    "id": "btnMore",
    "ide_onClick": "p2kwiet2012247646528_btnMore_onClick_seq0",
    "info": null,
    "isvisible": true,
    "kiosk": {
        "@class": "com.kony.gen.viz.model.component.property.button.KioskButtonProperty",
        "render": true
    },
    "kuid": "p2kwiet2012247646504",
    "name": "kony.ui.Button",
    "parent": "hbox866854059250344",
    "pf": "frmIBOpenNewTermDepositAccComplete",
    "spa": {
        "@class": "com.kony.gen.viz.model.component.property.button.SPAButtonProperty",
        "displayText": true
    },
    "texti18n": "keyopenmore",
    "vexpand": false,
    "wType": "Button",
    "widgetalignment": 5
}