{
    "@class": "com.kony.gen.viz.model.component.KVizLabel",
    "DNDConfig": null,
    "__parentReadjusting__": false,
    "_height_": {
        "type": "ref",
        "value": "preferred"
    },
    "_margin_": [
        1,
        1,
        1,
        1
    ],
    "_padding_": [
        0,
        0,
        0,
        0
    ],
    "_skin_": "s335d23678b446beb358124582b97d74",
    "_text_": "sdsdsdsdsdsdsdsdsdsdsd",
    "_width_": {
        "type": "string",
        "value": "50%"
    },
    "_wrapping_": 2,
    "android": {
        "textStyle": {
            "letterSpacing": 0,
            "strikeThrough": false
        }
    },
    "canUpdateUI": true,
    "containerweight": 100,
    "contentalignment": 4,
    "id": "Label0ee3b80ac9d0b4b",
    "info": null,
    "ipad": {
        "psp": {
            "wrapping": 2
        }
    },
    "iphone": {
        "psp": {
            "wrapping": 2
        }
    },
    "isvisible": true,
    "kuid": "1c075ab364074f259c9a3c2d51df5082",
    "name": "kony.ui.Label",
    "parent": "FlexContainer07b9a32623c534d",
    "pf": "frmMFEnterInfo",
    "tooltip": "",
    "wType": "Label",
    "zindex": 1
}