{
    "@class": "com.kony.gen.viz.model.container.KVizVBox",
    "DNDConfig": null,
    "_margin_": [
        0,
        0,
        0,
        0
    ],
    "_orientation_": 2,
    "_padding_": [
        0,
        0,
        0,
        0
    ],
    "_percent_": true,
    "_position_": 3,
    "_skin_": "s0e13ed4077f481ab090dae6b2e595ed",
    "allboxes": [],
    "canUpdateUI": true,
    "children": [
        "CopyHBox0hc1a6136e35f46",
        "CopyHBox0ccc6373d437b44"
    ],
    "containerweight": 100,
    "contextmenu": null,
    "id": "CopyVBox0fc0283101b2e4d",
    "info": null,
    "isvisible": true,
    "kuid": "d416a69312c243509f8edcab50615059",
    "layouttype": 0,
    "name": "kony.ui.Box",
    "paddInPixel": [
        0,
        0,
        0,
        0
    ],
    "parent": "hbxSecurity3",
    "pf": "frmIBMFTnC",
    "wType": "VBox",
    "widgetalignment": 1
}