{
    "@class": "com.kony.gen.viz.model.container.KVizHBox",
    "DNDConfig": null,
    "_margin_": [
        0,
        0,
        0,
        0
    ],
    "_orientation_": 1,
    "_padding_": [
        0,
        0,
        0,
        0
    ],
    "_percent_": true,
    "_position_": 3,
    "_skin_": "s3240d32b9a74cc78d1e0768cd2cdf1b",
    "allboxes": [],
    "canUpdateUI": true,
    "children": [
        "lblWarning3"
    ],
    "containerweight": 100,
    "contextmenu": null,
    "id": "CopyHBox0hc1a6136e35f46",
    "info": null,
    "isvisible": true,
    "kuid": "f591db79ae344780a6162c52cd141ae6",
    "layouttype": 0,
    "name": "kony.ui.Box",
    "parent": "CopyVBox0fc0283101b2e4d",
    "pf": "frmIBMFTnC",
    "wType": "HBox",
    "widgetalignment": 1
}