{
    "@class": "com.kony.gen.viz.model.container.KVizVBox",
    "DNDConfig": null,
    "__markedForDelete__": true,
    "_margin_": [
        0,
        0,
        0,
        0
    ],
    "_orientation_": 2,
    "_padding_": [
        0,
        0,
        0,
        0
    ],
    "_percent_": true,
    "_position_": 3,
    "_skin_": "s0e13ed4077f481ab090dae6b2e595ed",
    "allboxes": [],
    "canUpdateUI": true,
    "children": [
        "LabelInform",
        "LabelLinkFundFactSheet"
    ],
    "containerweight": 100,
    "contextmenu": null,
    "id": "VBox0d02e046437d541",
    "info": null,
    "isvisible": true,
    "kuid": "b67a9d4cca1340fd89572914f0701d3f",
    "layouttype": 0,
    "name": "kony.ui.Box",
    "parent": "HBoxFundFact",
    "pf": "frmIBMFTnC",
    "wType": "VBox",
    "widgetalignment": 1
}