{
    "@class": "com.kony.gen.viz.model.component.KVizTextBox2",
    "DNDConfig": null,
    "__parentReadjusting__": false,
    "_height_": {
        "type": "string",
        "value": "100%"
    },
    "_left_": {
        "type": "string",
        "value": "0dp"
    },
    "_margin_": [
        0,
        0,
        0,
        0
    ],
    "_padding_": [
        3,
        0,
        0,
        0
    ],
    "_placeholder_": "",
    "_skin_": "s5f69e77db6f424ebbc808fede198f2f",
    "_text_": "",
    "_top_": {
        "type": "string",
        "value": "0dp"
    },
    "_width_": {
        "type": "string",
        "value": "100%"
    },
    "autocapitalize": "none",
    "autocomplete": false,
    "autocorrect": false,
    "autofilter": false,
    "canUpdateUI": true,
    "containerheight": "",
    "containerheightmode": 1,
    "containerweight": 100,
    "contentalignment": 5,
    "focusskin": "s5f69e77db6f424ebbc808fede198f2f",
    "id": "txtPin2",
    "info": null,
    "iphone": {
        "psp": {
            "closeButtonText": "Done",
            "showClearButton": false,
            "showProgressIndicator": false
        }
    },
    "iscustomlayout": false,
    "isvisible": true,
    "keyboardstyle": "digitpad",
    "keyboardtype": "A",
    "kuid": "dc1afbf127b843af961fce9bb8a48a5b",
    "maxtextlength": 1,
    "mode": "N",
    "name": "kony.ui.TextBox2",
    "parent": "flexPin2",
    "pf": "frmMBVerifyEmail",
    "placeholderskin": "s51b8c719e1140259c3dfabd74e9ae7e",
    "retaincontentalignment": false,
    "retainflexpositionproperties": false,
    "securetextentry": false,
    "showclearbutton": false,
    "showoprogressindicator": false,
    "textinputmode": "N",
    "tooltip": "",
    "viewtype": "default",
    "wType": "TextField",
    "zindex": 1
}