{
    "DNDConfig": null,
    "_enabled_": false,
    "_margin_": [
        2,
        2,
        2,
        2
    ],
    "_padding_": [
        1,
        2,
        1,
        2
    ],
    "_skin_": "s060d2c7732e4ddc941e7342d3a67251",
    "_text_": "",
    "android": {
        "@class": "com.kony.gen.viz.model.component.property.button.AndroidButtonProperty",
        "_margin_": [
            2,
            2,
            2,
            2
        ],
        "_padding_": [
            1,
            1,
            1,
            1
        ],
        "displayText": true,
        "margin": [
            2,
            2,
            2,
            2
        ],
        "marginInPixel": false,
        "padding": [
            1,
            1,
            1,
            1
        ],
        "paddingInPixel": false,
        "render": true
    },
    "canUpdateUI": true,
    "containerweight": 100,
    "contentalignment": 5,
    "displaytext": true,
    "focusskin": "s060d2c7732e4ddc941e7342d3a67251",
    "hexpand": true,
    "id": "btnSend",
    "ide_onClick": "p2kwiet2012247628706_btnSend_onClick_seq0",
    "info": null,
    "iphone": {
        "@class": "com.kony.gen.viz.model.component.property.button.IPhoneButtonProperty",
        "_margin_": [
            2,
            2,
            2,
            2
        ],
        "_padding_": [
            1,
            1,
            1,
            1
        ],
        "displayText": true,
        "margin": [
            2,
            2,
            2,
            2
        ],
        "marginInPixel": false,
        "padding": [
            1,
            1,
            1,
            1
        ],
        "paddingInPixel": false,
        "psp": {
            "glowEffect": false,
            "showProgressIndicator": false
        },
        "render": true
    },
    "isvisible": true,
    "kuid": "p2kwiet2012247628686",
    "margininpixel": false,
    "name": "kony.ui.Button",
    "paddinginpixel": false,
    "parent": "hboxFeedBackSend",
    "pf": "frmContactUsMB",
    "showprogressindicator": false,
    "spa": {
        "@class": "com.kony.gen.viz.model.component.property.button.SPAButtonProperty",
        "displayText": true
    },
    "spaan": {
        "@class": "com.kony.gen.viz.model.component.property.button.SPAAndroidButtonProperty",
        "_margin_": [
            0,
            0,
            0,
            0
        ],
        "_padding_": [
            1,
            1,
            1,
            1
        ],
        "margin": [
            0,
            0,
            0,
            0
        ],
        "marginInPixel": false,
        "padding": [
            1,
            1,
            1,
            1
        ],
        "paddingInPixel": false,
        "render": true
    },
    "spabb": {
        "@class": "com.kony.gen.viz.model.component.property.button.SPABBButtonProperty",
        "_margin_": [
            2,
            2,
            2,
            2
        ],
        "_padding_": [
            1,
            1,
            1,
            1
        ],
        "margin": [
            2,
            2,
            2,
            2
        ],
        "marginInPixel": false,
        "padding": [
            1,
            1,
            1,
            1
        ],
        "paddingInPixel": false,
        "render": true
    },
    "spaip": {
        "@class": "com.kony.gen.viz.model.component.property.button.SPAIPhoneButtonProperty",
        "_margin_": [
            0,
            0,
            0,
            0
        ],
        "_padding_": [
            1,
            1,
            1,
            1
        ],
        "margin": [
            0,
            0,
            0,
            0
        ],
        "marginInPixel": false,
        "padding": [
            1,
            1,
            1,
            1
        ],
        "paddingInPixel": false,
        "render": true
    },
    "spawinphone8": {
        "@class": "com.kony.gen.viz.model.component.property.button.SPAWinPhone8ButtonProperty",
        "_margin_": [
            2,
            2,
            2,
            2
        ],
        "_padding_": [
            1,
            1,
            1,
            1
        ],
        "margin": [
            2,
            2,
            2,
            2
        ],
        "marginInPixel": false,
        "padding": [
            1,
            1,
            1,
            1
        ],
        "paddingInPixel": false,
        "render": true
    },
    "texti18n": "keySend",
    "vexpand": false,
    "wType": "Button",
    "widgetalignment": 5,
    "winphone8": {
        "@class": "com.kony.gen.viz.model.component.property.button.WinPhone8ButtonProperty",
        "_margin_": [
            7,
            7,
            7,
            7
        ],
        "_padding_": [
            1,
            1,
            1,
            1
        ],
        "displayText": true,
        "margin": [
            7,
            7,
            7,
            7
        ],
        "marginInPixel": true,
        "padding": [
            1,
            1,
            1,
            1
        ],
        "paddingInPixel": false,
        "psp": {
            "enableCache": false
        },
        "render": true
    }
}