{
    "DNDConfig": null,
    "_enabled_": false,
    "_margin_": [
        0,
        0,
        0,
        0
    ],
    "_orientation_": 1,
    "_padding_": [
        1,
        1,
        1,
        1
    ],
    "_percent_": true,
    "_position_": 3,
    "_resize_": true,
    "_skin_": "s8cad62262d94e1e9417f67d00244666",
    "allboxes": [],
    "android": {
        "@class": "com.kony.gen.viz.model.container.property.hbox.AndroidHBoxProperty",
        "_margin_": [
            11,
            0,
            11,
            0
        ],
        "_padding_": [
            15,
            0,
            10,
            0
        ],
        "_position_": 3,
        "margin": [
            11,
            0,
            11,
            0
        ],
        "marginInPixel": true,
        "padding": [
            15,
            0,
            10,
            0
        ],
        "paddingInPixel": true,
        "position": 3,
        "render": true
    },
    "borderCollapse": false,
    "canUpdateUI": true,
    "children": [
        "cmbOption"
    ],
    "containerweight": 100,
    "focusskin": "s8cad62262d94e1e9417f67d00244666",
    "id": "hbox506459299445026",
    "info": null,
    "iphone": {
        "@class": "com.kony.gen.viz.model.container.property.hbox.IPhoneHBoxProperty",
        "_margin_": [
            10,
            0,
            10,
            0
        ],
        "_padding_": [
            10,
            0,
            8,
            0
        ],
        "_position_": 3,
        "margin": [
            10,
            0,
            10,
            0
        ],
        "marginInPixel": true,
        "padding": [
            10,
            0,
            8,
            0
        ],
        "paddingInPixel": true,
        "position": 3,
        "render": true
    },
    "isvisible": true,
    "kuid": "p2kwiet2012247628646",
    "layoutalignment": 3,
    "margininpixel": false,
    "name": "kony.ui.Box",
    "paddinginpixel": false,
    "parent": "vbox506459299445010",
    "pf": "frmContactUsMB",
    "spa": {
        "@class": "com.kony.gen.viz.model.container.property.hbox.SPAHBoxProperty"
    },
    "spaan": {
        "@class": "com.kony.gen.viz.model.container.property.hbox.SPAAndroidHBoxProperty",
        "_margin_": [
            4,
            0,
            4,
            0
        ],
        "_padding_": [
            5,
            0,
            4,
            0
        ],
        "margin": [
            4,
            0,
            4,
            0
        ],
        "marginInPixel": false,
        "padding": [
            5,
            0,
            4,
            0
        ],
        "paddingInPixel": false,
        "render": true
    },
    "spabb": {
        "@class": "com.kony.gen.viz.model.container.property.hbox.SPABBHBoxProperty",
        "_margin_": [
            2,
            0,
            2,
            0
        ],
        "margin": [
            2,
            0,
            2,
            0
        ],
        "marginInPixel": false,
        "render": true
    },
    "spaip": {
        "@class": "com.kony.gen.viz.model.container.property.hbox.SPAIPhoneHBoxProperty",
        "_margin_": [
            4,
            0,
            4,
            0
        ],
        "_padding_": [
            4,
            0,
            3,
            0
        ],
        "margin": [
            4,
            0,
            4,
            0
        ],
        "marginInPixel": false,
        "padding": [
            4,
            0,
            3,
            0
        ],
        "paddingInPixel": false,
        "render": true
    },
    "spawinphone8": {
        "@class": "com.kony.gen.viz.model.container.property.hbox.SPAWinPhone8HBoxProperty",
        "_margin_": [
            2,
            0,
            2,
            0
        ],
        "margin": [
            2,
            0,
            2,
            0
        ],
        "marginInPixel": false,
        "render": true
    },
    "templateType": "forms",
    "wType": "HBox",
    "widgetalignment": 1,
    "winphone8": {
        "@class": "com.kony.gen.viz.model.container.property.hbox.WinPhone8HBoxProperty",
        "_margin_": [
            1,
            1,
            1,
            1
        ],
        "_position_": 3,
        "margin": [
            1,
            1,
            1,
            1
        ],
        "marginInPixel": true,
        "position": 3,
        "psp": {
            "enableCache": false
        },
        "render": true
    }
}