{
    "DNDConfig": null,
    "_enabled_": false,
    "_margin_": [
        0,
        13,
        0,
        15
    ],
    "_padding_": [
        0,
        0,
        0,
        0
    ],
    "_skin_": "s05fe76b7e8042639f17082b3c15bb33",
    "_text_": "",
    "canUpdateUI": true,
    "containerweight": 10,
    "contentalignment": 5,
    "desktopweb": {
        "@class": "com.kony.gen.viz.model.component.property.button.DesktopWebButtonProperty",
        "_margin_": [
            0,
            13,
            0,
            15
        ],
        "_padding_": [
            0,
            0,
            0,
            0
        ],
        "displayText": false,
        "margin": [
            0,
            13,
            0,
            15
        ],
        "marginInPixel": false,
        "padding": [
            0,
            0,
            0,
            0
        ],
        "paddingInPixel": false,
        "render": true
    },
    "displaytext": false,
    "focusskin": "sa6679f4ba39421a8ae21d6fc025e59e",
    "hexpand": false,
    "id": "btnDelete",
    "ide_onClick": "p2kwiet2012247638771_btnDelete_onClick_seq0",
    "info": null,
    "isvisible": true,
    "kiosk": {
        "@class": "com.kony.gen.viz.model.component.property.button.KioskButtonProperty",
        "_margin_": [
            0,
            13,
            0,
            15
        ],
        "margin": [
            0,
            13,
            0,
            15
        ],
        "marginInPixel": false,
        "render": true
    },
    "kuid": "p2kwiet2012247638654",
    "margininpixel": false,
    "name": "kony.ui.Button",
    "paddinginpixel": false,
    "parent": "hbxAccntNameCnfmtnStep1",
    "pf": "vbox201224764710",
    "spa": {
        "@class": "com.kony.gen.viz.model.component.property.button.SPAButtonProperty",
        "displayText": false
    },
    "vexpand": false,
    "wType": "Button",
    "widgetalignment": 5
}