{
    "@class": "com.kony.gen.viz.model.container.KVizVBox",
    "DNDConfig": null,
    "__markedForDelete__": true,
    "_margin_": [
        0,
        0,
        0,
        0
    ],
    "_orientation_": 2,
    "_padding_": [
        0,
        0,
        0,
        0
    ],
    "_percent_": true,
    "_position_": 3,
    "_skin_": "s0e13ed4077f481ab090dae6b2e595ed",
    "allboxes": [],
    "canUpdateUI": true,
    "children": [
        "CopyImage0jd0b393d23ba40"
    ],
    "containerweight": 10,
    "contextmenu": null,
    "donotUpdateContainerWeight": false,
    "id": "CopyVBox0a9ca1b5530594c",
    "info": null,
    "isvisible": true,
    "kuid": "d1c2b0eeb9f44ca785e04a1c62899b53",
    "layouttype": 0,
    "name": "kony.ui.Box",
    "paddInPixel": [
        0,
        0,
        0,
        0
    ],
    "parent": "HBoxSelectFundHouse",
    "pf": "frmIBMFSelPurchaseFundsEntry",
    "wType": "VBox",
    "widgetalignment": 5
}