{
    "@class": "com.kony.gen.viz.model.container.KVizVBox",
    "DNDConfig": null,
    "__markedForDelete__": true,
    "_margin_": [
        0,
        0,
        0,
        0
    ],
    "_orientation_": 2,
    "_padding_": [
        5,
        0,
        0,
        0
    ],
    "_percent_": true,
    "_position_": 3,
    "_skin_": "sa53654b4113418f8dcb6d569eb3ef8f",
    "allboxes": [],
    "canUpdateUI": true,
    "children": [
        "HBox0a4153fb9f97e4b"
    ],
    "containerweight": 100,
    "contextmenu": null,
    "id": "CopyVBox0a934a57e0b634a",
    "info": null,
    "isvisible": true,
    "kuid": "a67cfb9c27284a70b43321f358f75da0",
    "layouttype": 0,
    "name": "kony.ui.Box",
    "paddInPixel": [
        0,
        0,
        0,
        0
    ],
    "paddinginpixel": false,
    "parent": "HBoxSelectedFund",
    "pf": "frmIBMFSelPurchaseFundsEntry",
    "wType": "VBox",
    "widgetalignment": 1
}