{
    "@class": "com.kony.gen.viz.model.container.KVizHBox",
    "DNDConfig": null,
    "__markedForDelete__": true,
    "_margin_": [
        0,
        0,
        0,
        0
    ],
    "_orientation_": 1,
    "_padding_": [
        0,
        0,
        0,
        0
    ],
    "_percent_": true,
    "_position_": 3,
    "_skin_": "s3240d32b9a74cc78d1e0768cd2cdf1b",
    "allboxes": [],
    "canUpdateUI": true,
    "children": [
        "txtAmountVal",
        "label458266510409652"
    ],
    "containerweight": 100,
    "contextmenu": null,
    "id": "hbxenteramnt",
    "info": null,
    "isvisible": true,
    "kuid": "adf3270d384d486fa2e5e5ba118cc107",
    "layouttype": 0,
    "name": "kony.ui.Box",
    "parent": "VBox0f3da940daac64b",
    "pf": "frmIBMFSelPurchaseFundsEntry",
    "wType": "HBox",
    "widgetalignment": 1
}