{
    "@class": "com.kony.gen.viz.model.component.KVizImage2",
    "DNDConfig": null,
    "_base64_": null,
    "_margin_": [
        3,
        5,
        0,
        5
    ],
    "_padding_": [
        0,
        0,
        0,
        0
    ],
    "_render_": true,
    "_skin_": "s55d8a5125e74bb0b2eaca75c423dae1",
    "_src_": "searchico.png",
    "canUpdateUI": true,
    "containerweight": 10,
    "context": {
        "channel": "desktop",
        "ispercent": true,
        "platform": "desktopweb",
        "templateType": "forms",
        "topLevelBox": false
    },
    "desktopweb": {
        "render": false
    },
    "id": "Image0d1f061929c5b41",
    "imagescalemode": 1,
    "info": null,
    "invokedProperty": "src",
    "ispercent": true,
    "isvisible": false,
    "kiosk": {
        "render": false
    },
    "kuid": "fa41641eaf464d0da70d764d88fdac59",
    "margininpixel": false,
    "name": "kony.ui.Image2",
    "paddInPixel": [
        0,
        0,
        0,
        0
    ],
    "parent": "HBox0d6a6dc5936a245",
    "pf": "frmIBMFSelPurchaseFundsEntry",
    "srcType": 1,
    "wType": "Image",
    "widgetalignment": 4
}