{
    "@class": "com.kony.gen.viz.model.container.KVizVBox",
    "DNDConfig": null,
    "_margin_": [
        0,
        0,
        0,
        0
    ],
    "_orientation_": 2,
    "_padding_": [
        0,
        0,
        0,
        0
    ],
    "_percent_": true,
    "_position_": 3,
    "_skin_": "s0e13ed4077f481ab090dae6b2e595ed",
    "allboxes": [],
    "canUpdateUI": true,
    "children": [
        "lblMFHeader",
        "HboxLinks"
    ],
    "containerweight": 100,
    "contextmenu": null,
    "id": "VBox0de7560d3d3a74b",
    "info": null,
    "isvisible": true,
    "kuid": "f33eeb5ad53f4a028620e235689ab6f3",
    "layouttype": 0,
    "name": "kony.ui.Box",
    "parent": "HBox0jd99786caadf41",
    "pf": "frmIBMFSelPurchaseFundsEntry",
    "templateType": "forms",
    "wType": "VBox",
    "widgetalignment": 1
}