{
    "@class": "com.kony.gen.viz.model.container.KVizHBox",
    "DNDConfig": null,
    "_margin_": [
        0,
        0,
        0,
        0
    ],
    "_orientation_": 1,
    "_padding_": [
        0,
        5,
        0,
        0
    ],
    "_percent_": true,
    "_position_": 3,
    "_skin_": "s3240d32b9a74cc78d1e0768cd2cdf1b",
    "allboxes": [],
    "canUpdateUI": true,
    "children": [
        "lblChangeMblNo"
    ],
    "containerweight": 100,
    "contextmenu": null,
    "id": "hboxMobileTitleHeader",
    "info": null,
    "isvisible": false,
    "kuid": "cb7c03ebeed44bcf8883277676b252c9",
    "layouttype": 0,
    "name": "kony.ui.Box",
    "paddinginpixel": false,
    "parent": "sboxRight",
    "pf": "frmChangeMobNoTransLimitMB",
    "templateType": "forms",
    "wType": "HBox",
    "widgetalignment": 1
}