{
    "@class": "com.kony.gen.viz.model.container.KVizHBox",
    "DNDConfig": null,
    "_margin_": [
        0,
        5,
        0,
        0
    ],
    "_orientation_": 1,
    "_padding_": [
        0,
        0,
        0,
        0
    ],
    "_percent_": true,
    "_position_": 3,
    "_skin_": "s3240d32b9a74cc78d1e0768cd2cdf1b",
    "allboxes": [],
    "canUpdateUI": true,
    "children": [
        "btnQRCodeRefresh"
    ],
    "containerweight": 100,
    "contextmenu": null,
    "id": "CopyHBox0ac8c3ff28e8245",
    "info": null,
    "isvisible": true,
    "kuid": "i1d5b84939f14c46ab219f75a62a1509",
    "layouttype": 0,
    "margininpixel": false,
    "name": "kony.ui.Box",
    "parent": "VBoxQrError",
    "pf": "QRCodeDisplay",
    "wType": "HBox",
    "widgetalignment": 1
}