{
    "@class": "com.kony.gen.viz.model.component.KVizLine",
    "DNDConfig": null,
    "_margin_": [
        0,
        0,
        0,
        0
    ],
    "_padding_": [
        0,
        0,
        0,
        0
    ],
    "_skin_": "s39db7d025404e4b94521036cef4b99f",
    "_thickness_": 1,
    "canUpdateUI": true,
    "containerWeightLocked": false,
    "containerweight": 100,
    "id": "lineAccessPin",
    "info": null,
    "iscustomlayout": false,
    "isvisible": true,
    "kuid": "f21cda7fe51b4817a248df5f12c83242",
    "name": "kony.ui.Line",
    "parent": "VBox0hed42a7a3d0943",
    "pf": "frmEditFutureBillPaymentConfirm",
    "retaincontentalignment": false,
    "retainflexpositionproperties": false,
    "wType": "Line"
}