{
    "DNDConfig": null,
    "_enabled_": false,
    "_height_": {
        "type": "string",
        "value": "98.0%"
    },
    "_left_": {
        "type": "string",
        "value": "0dp"
    },
    "_margin_": [
        0,
        0,
        0,
        0
    ],
    "_padding_": [
        0,
        0,
        0,
        0
    ],
    "_text_": "Browser",
    "_top_": {
        "type": "string",
        "value": "0dp"
    },
    "_type_": 3,
    "_width_": {
        "type": "string",
        "value": "100%"
    },
    "android": {
        "@class": "com.kony.gen.viz.model.component.property.browser.AndroidBrowserProperty",
        "enableZoom": false,
        "render": true,
        "screenLevelWidget": false
    },
    "canUpdateUI": true,
    "containerheightreference": 1,
    "containerweight": 0,
    "contentalignment": 5,
    "detecttelnumber": true,
    "enablezoom": false,
    "hexpand": true,
    "htmlstring": "",
    "id": "browserCard",
    "info": null,
    "iphone": {
        "@class": "com.kony.gen.viz.model.component.property.browser.IPhoneBrowserProperty",
        "_margin_": [
            0,
            0,
            0,
            0
        ],
        "detectTelNumber": true,
        "enableZoom": false,
        "margin": [
            0,
            0,
            0,
            0
        ],
        "marginInPixel": false,
        "render": true,
        "screenLevelWidget": false
    },
    "isvisible": true,
    "kuid": "p2kwiet2012247630591",
    "margininpixel": false,
    "name": "kony.ui.Browser",
    "paddinginpixel": false,
    "parent": "flxBody",
    "pf": "frmMBCardMoreDetail",
    "requesturlconfig": {
        "URL": "",
        "requestMethod": "get"
    },
    "screenlevelwidget": false,
    "spa": {
        "@class": "com.kony.gen.viz.model.component.property.browser.SPABrowserProperty"
    },
    "spaan": {
        "@class": "com.kony.gen.viz.model.component.property.browser.SPAAndroidBrowserProperty",
        "render": true
    },
    "spabb": {
        "@class": "com.kony.gen.viz.model.component.property.browser.SPABBBrowserProperty",
        "render": false
    },
    "spaip": {
        "@class": "com.kony.gen.viz.model.component.property.browser.SPAIPhoneBrowserProperty",
        "render": true
    },
    "spawinphone8": {
        "@class": "com.kony.gen.viz.model.component.property.browser.SPAWinPhone8BrowserProperty",
        "render": true
    },
    "vexpand": false,
    "wType": "Browser",
    "widgetalignment": 5,
    "winphone8": {
        "@class": "com.kony.gen.viz.model.component.property.browser.WinPhone8BrowserProperty",
        "_margin_": [
            0,
            0,
            0,
            0
        ],
        "margin": [
            0,
            0,
            0,
            0
        ],
        "marginInPixel": false,
        "psp": {
            "enableCache": false
        },
        "render": true,
        "screenLevelWidget": false
    },
    "zindex": 1
}