{
    "DNDConfig": null,
    "_enabled_": false,
    "_margin_": [
        0,
        0,
        0,
        0
    ],
    "_padding_": [
        0,
        25,
        0,
        25
    ],
    "_skin_": "s544ff2444ca4b3c98aaa140e001d856",
    "_text_": "",
    "canUpdateUI": true,
    "containerweight": 11,
    "contentalignment": 6,
    "desktopweb": {
        "@class": "com.kony.gen.viz.model.component.property.button.DesktopWebButtonProperty",
        "displayText": true,
        "render": true
    },
    "displaytext": true,
    "focusskin": "s63ca44f982540e1a044b1b0d3ecc5d2",
    "hexpand": true,
    "id": "button474288733654",
    "ide_onClick": "p2kwiet2012247641731_button474288733654_onClick_seq0",
    "info": null,
    "isvisible": true,
    "kiosk": {
        "@class": "com.kony.gen.viz.model.component.property.button.KioskButtonProperty",
        "render": true
    },
    "kuid": "p2kwiet2012247641690",
    "margininpixel": false,
    "name": "kony.ui.Button",
    "paddinginpixel": false,
    "parent": "hbox474288733651",
    "pf": "frmIBCMMyProfile",
    "spa": {
        "@class": "com.kony.gen.viz.model.component.property.button.SPAButtonProperty",
        "displayText": true
    },
    "vexpand": false,
    "wType": "Button",
    "widgetalignment": 6
}