{
    "@class": "com.kony.gen.viz.model.container.KVizHBox",
    "DNDConfig": null,
    "_margin_": [
        0,
        0,
        0,
        0
    ],
    "_orientation_": 1,
    "_padding_": [
        0,
        0,
        0,
        0
    ],
    "_percent_": true,
    "_position_": 3,
    "_skin_": "s3240d32b9a74cc78d1e0768cd2cdf1b",
    "allboxes": [],
    "canUpdateUI": true,
    "children": [
        "VBox0de8941fa91224a"
    ],
    "containerId": true,
    "containerweight": 100,
    "contextmenu": null,
    "desktopweb": {
        "psp": {
            "hoverSkin": "s999e504e01b4ea3a2dad24f5074a9b1"
        }
    },
    "id": "HBox0h7287205230a48",
    "info": null,
    "isTemplate": true,
    "isvisible": true,
    "kuid": "g4d45d9c053e4a7a94267a9b64ddd18c",
    "layouttype": 0,
    "name": "kony.ui.Box",
    "parent": "SegListFundForPurchase",
    "pf": "SegListFundForPurchase",
    "wType": "HBox",
    "widgetalignment": 1
}