{
    "DNDConfig": null,
    "_enabled_": false,
    "_padding_": [
        0,
        5,
        0,
        6
    ],
    "_skin_": "sc07d12aeaf542c9babd28519d766e8c",
    "_text_": "",
    "canUpdateUI": true,
    "containerweight": 18,
    "contentalignment": 5,
    "desktopweb": {
        "@class": "com.kony.gen.viz.model.component.property.button.DesktopWebButtonProperty",
        "_margin_": [
            15,
            0,
            2,
            0
        ],
        "_padding_": [
            0,
            5,
            0,
            8
        ],
        "displayText": true,
        "margin": [
            15,
            0,
            2,
            0
        ],
        "marginInPixel": false,
        "padding": [
            0,
            5,
            0,
            8
        ],
        "paddingInPixel": false,
        "render": true
    },
    "displaytext": true,
    "focusskin": "s35cdb06352b487c9708c6429c28490d",
    "hexpand": true,
    "id": "btnPrint",
    "ide_onClick": "p2kwiet2012247643366_btnPrint_onClick_seq0",
    "info": null,
    "isvisible": true,
    "kiosk": {
        "@class": "com.kony.gen.viz.model.component.property.button.KioskButtonProperty",
        "_padding_": [
            0,
            5,
            0,
            6
        ],
        "padding": [
            0,
            5,
            0,
            6
        ],
        "paddingInPixel": false,
        "render": true
    },
    "kuid": "p2kwiet2012247643281",
    "name": "kony.ui.Button",
    "paddinginpixel": false,
    "parent": "hbxBtns",
    "pf": "frmIBExecutedTransaction",
    "spa": {
        "@class": "com.kony.gen.viz.model.component.property.button.SPAButtonProperty",
        "displayText": true
    },
    "vexpand": false,
    "wType": "Button",
    "widgetalignment": 5
}