{
    "DNDConfig": null,
    "Image": "default.png",
    "_enabled_": false,
    "_margin_": [
        0,
        0,
        0,
        3
    ],
    "_padding_": [
        0,
        0,
        0,
        0
    ],
    "_skin_": "sfa2c075619e4ee3add4d8c1a67f8fc6",
    "_text_": "",
    "advview": "default",
    "canUpdateUI": true,
    "containerweight": 100,
    "contentalignment": 4,
    "dateeditable": true,
    "dateformat": "dd/MM/yyyy",
    "desktopweb": {
        "@class": "com.kony.gen.viz.model.component.property.datefield.DesktopWebDateFieldProperty",
        "_margin_": [
            0,
            0,
            0,
            3
        ],
        "_padding_": [
            0,
            0,
            0,
            0
        ],
        "margin": [
            0,
            0,
            0,
            3
        ],
        "marginInPixel": false,
        "padding": [
            0,
            0,
            0,
            0
        ],
        "paddingInPixel": false,
        "psp": {
            "noOfMonths": 1
        },
        "render": true,
        "viewType": "popup"
    },
    "enddate": [
        30,
        8,
        2013
    ],
    "format": "dd/MM/yyyy",
    "formatteddate": "",
    "hexpand": false,
    "id": "calendar4741706309262",
    "info": null,
    "isvisible": true,
    "kiosk": {
        "@class": "com.kony.gen.viz.model.component.property.datefield.KioskDateFieldProperty",
        "render": true
    },
    "kuid": "p2kwiet2012247650499",
    "margininpixel": false,
    "name": "kony.ui.Calendar",
    "paddinginpixel": false,
    "pagedate": "8/2013",
    "parent": "vbox4741706309258",
    "pf": "futuredate",
    "selectdate": "8/0/2013",
    "spa": {
        "@class": "com.kony.gen.viz.model.component.property.datefield.SPADateFieldProperty"
    },
    "startdate": [
        1,
        8,
        2013
    ],
    "vexpand": false,
    "viewconfig": {
        "gridConfig": {
            "allowWeekendSelectable": true,
            "leftNavigationImage": "",
            "rightNavigationImage": ""
        }
    },
    "viewtype": "popup",
    "wType": "Calendar",
    "widgetalignment": 5
}