{
    "@class": "com.kony.gen.viz.model.component.KVizButton",
    "DNDConfig": null,
    "__parentReadjusting__": false,
    "_height_": {
        "type": "string",
        "value": "100%"
    },
    "_left_": {
        "type": "string",
        "value": "0dp"
    },
    "_margin_": [
        6,
        6,
        6,
        6
    ],
    "_padding_": [
        0,
        0,
        0,
        0
    ],
    "_skin_": "sc1c6d943f5c4644879aed96ec02ef36",
    "_text_": "",
    "_top_": {
        "type": "string",
        "value": "0dp"
    },
    "_width_": {
        "type": "string",
        "value": "50%"
    },
    "canUpdateUI": true,
    "containerweight": 100,
    "contentalignment": 5,
    "displaytext": true,
    "focusskin": "s419c782c9a84173930c9d27e2d927b5",
    "id": "btnSettingCancel",
    "info": null,
    "iphone": {
        "psp": {
            "showProgressIndicator": false
        }
    },
    "isvisible": true,
    "kuid": "cc52fc2b77cb486d8a817d15bbbf347b",
    "name": "kony.ui.Button",
    "parent": "CopyFlexContainer0e16dbb9e6f1b4f",
    "pf": "frmENotificationSettings",
    "showprogressindicator": false,
    "texti18n": "NST_btnPUClose",
    "wType": "Button",
    "zindex": 1
}