{
    "@class": "com.kony.gen.viz.model.component.KVizImage2",
    "DNDConfig": null,
    "__parentReadjusting__": false,
    "_base64_": null,
    "_height_": {
        "type": "string",
        "value": "54.54%"
    },
    "_left_": {
        "type": "string",
        "value": "0dp"
    },
    "_margin_": [
        0,
        0,
        0,
        0
    ],
    "_padding_": [
        0,
        0,
        0,
        0
    ],
    "_skin_": "s55d8a5125e74bb0b2eaca75c423dae1",
    "_src_": "thai_qr_top.png",
    "_top_": {
        "type": "string",
        "value": "0dp"
    },
    "_width_": {
        "type": "string",
        "value": "35.46%"
    },
    "canUpdateUI": true,
    "centerx": {
        "type": "string",
        "value": "50.05%"
    },
    "centery": {
        "type": "string",
        "value": "52.24%"
    },
    "containerweight": 100,
    "context": {
        "channel": "mobile",
        "formID": "frmMyQRCode",
        "platform": "iphone",
        "templateType": "forms",
        "topLevelBox": null
    },
    "id": "CopyimgPromptPay0f9703219f55c44",
    "imagescalemode": 1,
    "info": null,
    "invokedProperty": "src",
    "isvisible": true,
    "kuid": "cd697ef7a63249bfb9c73b2da3dab807",
    "name": "kony.ui.Image2",
    "parent": "FlexLine1",
    "pf": "frmMyQRCode",
    "srcType": 1,
    "wType": "Image",
    "widgetalignment": 5,
    "zindex": 1
}