{
    "@class": "com.kony.gen.viz.model.component.KVizImage2",
    "DNDConfig": null,
    "__parentReadjusting__": false,
    "_base64_": null,
    "_height_": {
        "type": "string",
        "value": "85.15%"
    },
    "_left_": {
        "type": "string",
        "value": "0dp"
    },
    "_margin_": [
        0,
        0,
        0,
        0
    ],
    "_padding_": [
        0,
        0,
        0,
        0
    ],
    "_skin_": "s55d8a5125e74bb0b2eaca75c423dae1",
    "_src_": null,
    "_top_": {
        "type": "string",
        "value": "-4%"
    },
    "_width_": {
        "type": "string",
        "value": "85.19%"
    },
    "canUpdateUI": true,
    "centerx": {
        "type": "string",
        "value": "50.06%"
    },
    "containerweight": 100,
    "context": {
        "channel": "mobile",
        "formID": "frmMyQRCode",
        "platform": "iphone",
        "templateType": "forms",
        "topLevelBox": null
    },
    "id": "imgQRCode",
    "imagescalemode": 1,
    "info": null,
    "invokedProperty": "src",
    "isvisible": true,
    "kuid": "fb47a20ba88a43668650bd32c29eaa48",
    "name": "kony.ui.Image2",
    "parent": "flexQRImages",
    "pf": "frmMyQRCode",
    "srcType": 1,
    "wType": "Image",
    "widgetalignment": 5,
    "zindex": 1
}