{
    "DNDConfig": null,
    "_enabled_": false,
    "_margin_": [
        0,
        0,
        0,
        0
    ],
    "_padding_": [
        0,
        3,
        0,
        3
    ],
    "_skin_": "s21ae2a88f724e51aa1335a9ccf82786",
    "_text_": "",
    "android": {
        "@class": "com.kony.gen.viz.model.component.property.button.AndroidButtonProperty",
        "_margin_": [
            2,
            0,
            2,
            0
        ],
        "_padding_": [
            6,
            0,
            2,
            0
        ],
        "displayText": true,
        "margin": [
            2,
            0,
            2,
            0
        ],
        "marginInPixel": false,
        "padding": [
            6,
            0,
            2,
            0
        ],
        "paddingInPixel": false,
        "render": true
    },
    "canUpdateUI": true,
    "containerweight": 23,
    "contentalignment": 5,
    "displaytext": true,
    "donotUpdateContainerWeight": false,
    "focusskin": "s21ae2a88f724e51aa1335a9ccf82786",
    "hexpand": true,
    "id": "bttnCall",
    "ide_onClick": "p2kwiet2012247627135_bttnCall_onClick_seq0",
    "info": null,
    "iphone": {
        "@class": "com.kony.gen.viz.model.component.property.button.IPhoneButtonProperty",
        "_margin_": [
            5,
            0,
            5,
            0
        ],
        "_padding_": [
            3,
            0,
            0,
            0
        ],
        "displayText": true,
        "margin": [
            5,
            0,
            5,
            0
        ],
        "marginInPixel": true,
        "padding": [
            3,
            0,
            0,
            0
        ],
        "paddingInPixel": false,
        "psp": {
            "glowEffect": false,
            "showProgressIndicator": false
        },
        "render": true
    },
    "isvisible": true,
    "kuid": "p2kwiet2012247627127",
    "margininpixel": false,
    "name": "kony.ui.Button",
    "paddinginpixel": false,
    "parent": "hbox8675986833614",
    "pf": "frmATMBranchesDetails",
    "showprogressindicator": false,
    "spa": {
        "@class": "com.kony.gen.viz.model.component.property.button.SPAButtonProperty",
        "displayText": true
    },
    "spaan": {
        "@class": "com.kony.gen.viz.model.component.property.button.SPAAndroidButtonProperty",
        "_margin_": [
            2,
            0,
            2,
            0
        ],
        "_padding_": [
            28,
            0,
            0,
            0
        ],
        "margin": [
            2,
            0,
            2,
            0
        ],
        "marginInPixel": false,
        "padding": [
            28,
            0,
            0,
            0
        ],
        "paddingInPixel": false,
        "render": true
    },
    "spabb": {
        "@class": "com.kony.gen.viz.model.component.property.button.SPABBButtonProperty",
        "_margin_": [
            2,
            0,
            2,
            0
        ],
        "_padding_": [
            28,
            0,
            0,
            0
        ],
        "margin": [
            2,
            0,
            2,
            0
        ],
        "marginInPixel": false,
        "padding": [
            28,
            0,
            0,
            0
        ],
        "paddingInPixel": false,
        "render": true
    },
    "spaip": {
        "@class": "com.kony.gen.viz.model.component.property.button.SPAIPhoneButtonProperty",
        "_margin_": [
            26,
            0,
            2,
            0
        ],
        "_padding_": [
            35,
            0,
            20,
            0
        ],
        "margin": [
            26,
            0,
            2,
            0
        ],
        "marginInPixel": false,
        "padding": [
            35,
            0,
            20,
            0
        ],
        "paddingInPixel": false,
        "render": true
    },
    "spawinphone8": {
        "@class": "com.kony.gen.viz.model.component.property.button.SPAWinPhone8ButtonProperty",
        "_margin_": [
            2,
            0,
            2,
            0
        ],
        "_padding_": [
            28,
            0,
            0,
            0
        ],
        "margin": [
            2,
            0,
            2,
            0
        ],
        "marginInPixel": false,
        "padding": [
            28,
            0,
            0,
            0
        ],
        "paddingInPixel": false,
        "render": true
    },
    "texti18n": "FindTMB_Call",
    "vexpand": false,
    "wType": "Button",
    "widgetalignment": 4,
    "winphone8": {
        "@class": "com.kony.gen.viz.model.component.property.button.WinPhone8ButtonProperty",
        "_margin_": [
            5,
            0,
            5,
            0
        ],
        "_padding_": [
            0,
            0,
            4,
            0
        ],
        "displayText": true,
        "margin": [
            5,
            0,
            5,
            0
        ],
        "marginInPixel": true,
        "padding": [
            0,
            0,
            4,
            0
        ],
        "paddingInPixel": false,
        "psp": {
            "enableCache": false
        },
        "render": true
    }
}