{
    "@class": "com.kony.gen.viz.model.component.KVizImage2",
    "DNDConfig": null,
    "__parentReadjusting__": false,
    "_base64_": null,
    "_height_": {
        "type": "string",
        "value": "100%"
    },
    "_left_": {
        "type": "number",
        "value": "0"
    },
    "_margin_": [
        0,
        0,
        0,
        0
    ],
    "_padding_": [
        0,
        0,
        0,
        0
    ],
    "_skin_": "s55d8a5125e74bb0b2eaca75c423dae1",
    "_src_": "bill_img01.png",
    "_top_": {
        "type": "number",
        "value": "0"
    },
    "_width_": {
        "type": "string",
        "value": "100%"
    },
    "canUpdateUI": true,
    "containerweight": 100,
    "context": {
        "channel": "mobile",
        "formID": "frmEDonationPaymentComplete",
        "platform": "iphone",
        "templateType": "forms",
        "topLevelBox": null
    },
    "id": "imgTo",
    "imagescalemode": 1,
    "imagewhenfailed": "bill_img01.png",
    "imagewhiledownloading": "bill_img01.png",
    "info": null,
    "invokedProperty": "src",
    "isvisible": true,
    "kuid": "af89f0ac282f482f9671ef26a0f115f9",
    "name": "kony.ui.Image2",
    "parent": "flxToBillerImage",
    "pf": "frmEDonationPaymentComplete",
    "srcType": 1,
    "wType": "Image",
    "widgetalignment": 5,
    "zindex": 1
}