{
    "DNDConfig": null,
    "_enabled_": false,
    "_margin_": [
        0,
        0,
        0,
        0
    ],
    "_padding_": [
        0,
        0,
        0,
        0
    ],
    "_skin_": "s3078a7e949b453491538f9eb9b4f666",
    "_text_": "Button",
    "canUpdateUI": true,
    "containerweight": 3,
    "contentalignment": 5,
    "desktopweb": {
        "@class": "com.kony.gen.viz.model.component.property.button.DesktopWebButtonProperty",
        "_padding_": [
            2,
            8,
            2,
            8
        ],
        "displayText": true,
        "padding": [
            2,
            8,
            2,
            8
        ],
        "paddingInPixel": false,
        "render": true
    },
    "displaytext": true,
    "focusskin": "s3078a7e949b453491538f9eb9b4f666",
    "hexpand": true,
    "id": "btnSugBillerAdd",
    "ide_onClick": "p2kwiet2012247639670_btnSugBillerAdd_onClick_seq0",
    "info": null,
    "isvisible": false,
    "kiosk": {
        "@class": "com.kony.gen.viz.model.component.property.button.KioskButtonProperty",
        "render": true
    },
    "kuid": "p2kwiet2012247639636",
    "margininpixel": false,
    "name": "kony.ui.Button",
    "paddinginpixel": false,
    "parent": "hbxSugBillerContainer",
    "pf": "vbox201224764728",
    "spa": {
        "@class": "com.kony.gen.viz.model.component.property.button.SPAButtonProperty",
        "displayText": true
    },
    "vexpand": false,
    "wType": "Button",
    "widgetalignment": 5
}