{
    "DNDConfig": null,
    "_enabled_": false,
    "_margin_": [
        60,
        0,
        0,
        0
    ],
    "_padding_": [
        0,
        0,
        0,
        0
    ],
    "_skin_": "s973e5e2ee6b49d58a7fd24f3eef432a",
    "_text_": "",
    "canUpdateUI": true,
    "containerweight": 9,
    "contentalignment": 5,
    "desktopweb": {
        "@class": "com.kony.gen.viz.model.component.property.button.DesktopWebButtonProperty",
        "_padding_": [
            0,
            9,
            0,
            9
        ],
        "displayText": true,
        "padding": [
            0,
            9,
            0,
            9
        ],
        "paddingInPixel": false,
        "render": true
    },
    "displaytext": true,
    "focusskin": "s973e5e2ee6b49d58a7fd24f3eef432a",
    "hexpand": false,
    "id": "btnBPPayOn",
    "ide_onClick": "p2kwiet2012247640268_btnBPPayOn_onClick_seq0",
    "info": null,
    "isvisible": true,
    "kiosk": {
        "@class": "com.kony.gen.viz.model.component.property.button.KioskButtonProperty",
        "render": true
    },
    "kuid": "p2kwiet2012247640143",
    "margininpixel": false,
    "name": "kony.ui.Button",
    "paddinginpixel": false,
    "parent": "hbox1011732624569",
    "pf": "frmIBBillPaymentLP",
    "spa": {
        "@class": "com.kony.gen.viz.model.component.property.button.SPAButtonProperty",
        "displayText": true
    },
    "vexpand": false,
    "wType": "Button",
    "widgetalignment": 6
}