{
    "DNDConfig": null,
    "_enabled_": false,
    "_margin_": [
        0,
        0,
        0,
        0
    ],
    "_orientation_": 2,
    "_padding_": [
        0,
        0,
        0,
        0
    ],
    "_position_": 3,
    "_resize_": true,
    "_skin_": "sa53654b4113418f8dcb6d569eb3ef8f",
    "allboxes": [],
    "borderCollapse": false,
    "canUpdateUI": true,
    "children": [
        "lblScheduledTransfer",
        "hbox101262635416685",
        "line101262635416746",
        "lblXferRepeat",
        "hbox101262635416748",
        "lblXferEnding",
        "hbxrec",
        "lblEnd",
        "hbxEndCalendar",
        "hbxTimes",
        "lineAfterBill",
        "lblIclude",
        "hbox101262635416807"
    ],
    "containerweight": 100,
    "desktopweb": {
        "@class": "com.kony.gen.viz.model.container.property.vbox.DesktopWebVBoxProperty",
        "_padding_": [
            0,
            0,
            0,
            0
        ],
        "padding": [
            0,
            0,
            0,
            0
        ],
        "paddingInPixel": false,
        "render": true
    },
    "id": "vbxScheduledTransfer",
    "info": null,
    "isvisible": true,
    "kiosk": {
        "@class": "com.kony.gen.viz.model.container.property.vbox.KioskVBoxProperty",
        "render": true
    },
    "kuid": "p2kwiet2012247640259",
    "layouttype": 0,
    "margininpixel": false,
    "name": "kony.ui.Box",
    "paddinginpixel": false,
    "parent": "hbxFutureBillPayment",
    "pf": "frmIBBillPaymentLP",
    "spa": {
        "@class": "com.kony.gen.viz.model.container.property.vbox.SPAVBoxProperty"
    },
    "templateType": "forms",
    "wType": "VBox",
    "widgetalignment": 1
}