{
    "@class": "com.kony.gen.viz.model.component.KVizButton",
    "DNDConfig": null,
    "__parentReadjusting__": false,
    "_height_": {
        "type": "string",
        "value": "38dp"
    },
    "_left_": {
        "type": "string",
        "value": "0dp"
    },
    "_margin_": [
        6,
        6,
        6,
        6
    ],
    "_padding_": [
        0,
        0,
        0,
        0
    ],
    "_skin_": "sf87b574355247c7b6007b6936f185c0",
    "_text_": "",
    "_top_": {
        "type": "string",
        "value": "2%"
    },
    "_width_": {
        "type": "string",
        "value": "38dp"
    },
    "canUpdateUI": true,
    "centerx": {
        "type": "string",
        "value": "92%"
    },
    "containerweight": 100,
    "contentalignment": 5,
    "displaytext": true,
    "focusskin": "sb03125d6967435d9bab3829bc2d31d6",
    "id": "btnCloseAIL",
    "info": null,
    "iscustomlayout": false,
    "isvisible": true,
    "kuid": "ad7f16f1a26a4ccc86ba97ba4d733aa4",
    "name": "kony.ui.Button",
    "parent": "flexIDPPopup",
    "pf": "frmEKYCIdpDetailsList",
    "retaincontentalignment": false,
    "retainflexpositionproperties": false,
    "wType": "Button",
    "zindex": 1
}