{
    "DNDConfig": null,
    "__parentReadjusting__": false,
    "_height_": {
        "type": "string",
        "value": "80dp"
    },
    "_left_": {
        "type": "string",
        "value": "0%"
    },
    "_margin_": [
        0,
        0,
        0,
        0
    ],
    "_orientation_": 6,
    "_padding_": [
        0,
        0,
        0,
        0
    ],
    "_percent_": true,
    "_right_": {
        "type": "string",
        "value": "1%"
    },
    "_skin_": "s0d3a0c140ba4308b7c05c4eb6ed89dd",
    "_width_": {
        "type": "string",
        "value": "23.50%"
    },
    "allboxes": [],
    "autogrowmode": 0,
    "canUpdateUI": true,
    "centery": {
        "type": "string",
        "value": "50%"
    },
    "children": [
        "img43",
        "lb43"
    ],
    "clipbounds": true,
    "containerweight": 100,
    "enablescrolling": true,
    "id": "flxBtn43",
    "info": null,
    "isvisible": true,
    "kuid": "d65b285e498c49f1986466434a4f27d6",
    "layouttype": 4,
    "name": "kony.ui.FlexContainer",
    "parent": "flexbuttonfour",
    "pf": "frmAccountDetailsMB",
    "snapgridsize": 10,
    "snaptogrid": true,
    "wType": "FlexContainer",
    "widgetalignment": 1,
    "zindex": 1
}