{
    "DNDConfig": null,
    "_enabled_": false,
    "_margin_": [
        0,
        0,
        0,
        0
    ],
    "_padding_": [
        0,
        0,
        0,
        0
    ],
    "_render_": true,
    "_skin_": "sb9d097a35194cb59797fa85c65cc611",
    "_text_": "",
    "_wrapping_": 2,
    "canUpdateUI": true,
    "containerweight": 98,
    "contentalignment": 4,
    "desktopweb": {
        "@class": "com.kony.gen.viz.model.component.property.richtext.DesktopWebRichTextProperty",
        "render": true
    },
    "hexpand": true,
    "id": "lblAllHidden",
    "info": null,
    "isvisible": true,
    "kiosk": {
        "@class": "com.kony.gen.viz.model.component.property.richtext.KioskRichTextProperty",
        "render": true
    },
    "kuid": "p2kwiet2012247647111",
    "margininpixel": false,
    "name": "kony.ui.RichText",
    "paddinginpixel": false,
    "parent": "hbox149765754895937",
    "pf": "frmIBPostLoginDashboard",
    "spa": {
        "@class": "com.kony.gen.viz.model.component.property.richtext.SPARichTextProperty"
    },
    "vexpand": false,
    "wType": "RichText",
    "widgetalignment": 5
}