{
    "@class": "com.kony.gen.viz.model.component.KVizButton",
    "DNDConfig": null,
    "__parentReadjusting__": false,
    "_height_": {
        "type": "string",
        "value": "60dp"
    },
    "_left_": {
        "type": "string",
        "value": "0dp"
    },
    "_margin_": [
        6,
        6,
        6,
        6
    ],
    "_padding_": [
        0,
        0,
        0,
        0
    ],
    "_skin_": "s5b6a7d1f9ae40dbb01ffc4be2316874",
    "_text_": "Activate App",
    "_top_": {
        "type": "string",
        "value": "0dp"
    },
    "_width_": {
        "type": "string",
        "value": "100%"
    },
    "canUpdateUI": true,
    "containerweight": 100,
    "contentalignment": 5,
    "disabledSkins": {},
    "displaytext": true,
    "focusskin": "sbf0b4979eae473fb164cf2ce62003b7",
    "id": "btnOpenActivation",
    "info": null,
    "isvisible": true,
    "kuid": "gf88dfd1bfa44261bd59dcdcc2d28b81",
    "masterType": 1,
    "name": "kony.ui.Button",
    "parent": "flxBorderButtonRound",
    "pf": "frmeKYCStartUp",
    "wType": "Button",
    "zindex": 1
}