{
    "DNDConfig": null,
    "_enabled_": false,
    "_margin_": [
        0,
        0,
        0,
        0
    ],
    "_padding_": [
        0,
        3,
        0,
        3
    ],
    "_skin_": "s77e157ba8e8401a94d581b60f5ef840",
    "_text_": "",
    "canUpdateUI": true,
    "containerweight": 100,
    "contentalignment": 5,
    "desktopweb": {
        "@class": "com.kony.gen.viz.model.component.property.button.DesktopWebButtonProperty",
        "_margin_": [
            25,
            3,
            25,
            0
        ],
        "_padding_": [
            0,
            0,
            0,
            0
        ],
        "contentAlignment": 2,
        "displayText": true,
        "margin": [
            25,
            3,
            25,
            0
        ],
        "marginInPixel": false,
        "padding": [
            0,
            0,
            0,
            0
        ],
        "paddingInPixel": false,
        "psp": {
            "hoverSkin": "saf5a1fce4ff42c5bc839ca0602c8374"
        },
        "render": true
    },
    "displaytext": true,
    "focusskin": "saf5a1fce4ff42c5bc839ca0602c8374",
    "hexpand": true,
    "id": "btnback",
    "ide_onClick": "p2kwiet2012247643906_btnback_onClick_seq0",
    "info": null,
    "isvisible": true,
    "kuid": "p2kwiet2012247643901",
    "margininpixel": false,
    "name": "kony.ui.Button",
    "paddinginpixel": false,
    "parent": "vbxXferMiddleRight",
    "pf": "frmIBMFAcctOrderToBProceed",
    "spa": {
        "@class": "com.kony.gen.viz.model.component.property.button.SPAButtonProperty",
        "displayText": true
    },
    "texti18n": "Receipent_Back",
    "vexpand": false,
    "wType": "Button",
    "widgetalignment": 5
}