{
    "DNDConfig": null,
    "_enabled_": false,
    "_margin_": [
        2,
        0,
        0,
        0
    ],
    "_orientation_": 2,
    "_padding_": [
        0,
        0,
        0,
        0
    ],
    "_position_": 3,
    "_resize_": true,
    "_skin_": "s38b3c31e8724a908e73b3c4b90f8d3a",
    "allboxes": [],
    "borderCollapse": false,
    "canUpdateUI": true,
    "children": [
        "lblfullstmt",
        "hbxdetails",
        "hbxstmt",
        "HboxLoading",
        "segOrder",
        "btnback"
    ],
    "containerweight": 73,
    "desktopweb": {
        "@class": "com.kony.gen.viz.model.container.property.vbox.DesktopWebVBoxProperty",
        "_margin_": [
            0,
            0,
            0,
            0
        ],
        "_padding_": [
            3,
            0,
            3,
            0
        ],
        "margin": [
            0,
            0,
            0,
            0
        ],
        "marginInPixel": false,
        "padding": [
            3,
            0,
            3,
            0
        ],
        "paddingInPixel": false,
        "render": true
    },
    "focusskin": "s38b3c31e8724a908e73b3c4b90f8d3a",
    "id": "vbxXferMiddleRight",
    "info": null,
    "isvisible": true,
    "kuid": "p2kwiet2012247643903",
    "layouttype": 0,
    "margininpixel": false,
    "name": "kony.ui.Box",
    "paddinginpixel": false,
    "parent": "hbxXferAll",
    "pf": "frmIBMFAcctOrderToBProceed",
    "spa": {
        "@class": "com.kony.gen.viz.model.container.property.vbox.SPAVBoxProperty"
    },
    "templateType": "forms",
    "wType": "VBox",
    "widgetalignment": 1
}