{
    "@class": "com.kony.gen.viz.model.container.KVizVBox",
    "DNDConfig": null,
    "_margin_": [
        0,
        0,
        0,
        0
    ],
    "_orientation_": 2,
    "_padding_": [
        0,
        0,
        0,
        0
    ],
    "_percent_": true,
    "_position_": 3,
    "_skin_": "s0e13ed4077f481ab090dae6b2e595ed",
    "allboxes": [],
    "canUpdateUI": true,
    "children": [
        "hboxMainSlider"
    ],
    "containerId": true,
    "containerweight": 94,
    "contextmenu": null,
    "donotUpdateContainerWeight": false,
    "id": "vBoxSliderMain",
    "info": null,
    "iscustomlayout": false,
    "isvisible": true,
    "kuid": "j0972e9a0fa644e4b62b81e5b67843ce",
    "layouttype": 0,
    "name": "kony.ui.Box",
    "paddInPixel": [
        0,
        0,
        0,
        0
    ],
    "parent": "hbxSliderSofast",
    "pf": "segSliderSoFast",
    "retaincontentalignment": false,
    "retainflexpositionproperties": false,
    "templateType": "forms",
    "wType": "VBox",
    "widgetalignment": 1
}