{
    "@class": "com.kony.gen.viz.model.container.KVizScrollFlexForm",
    "DNDConfig": null,
    "_margin_": [
        0,
        0,
        0,
        0
    ],
    "_orientation_": 1,
    "_padding_": [
        0,
        0,
        0,
        0
    ],
    "_percent_": true,
    "_skin_": "sc7b731970a1466d9b3222873b7eb076",
    "_title_": null,
    "addWidgetsdone": false,
    "allboxes": [],
    "android": {
        "psp": {
            "windowSoftInputMode": 2
        }
    },
    "bounces": false,
    "canUpdateUI": true,
    "children": [
        "FlexScrollContainer"
    ],
    "containerweight": 100,
    "currentLocale": "default",
    "desktopweb": {
        "needAppMenu": false
    },
    "device": "GalaxyS8",
    "displayorientation": 1,
    "enabledforidletimeout": true,
    "enablescrolling": false,
    "footer": "frmMBeKycAppVerification_footer",
    "footersId": "ee5808548a70482d873465b977323143",
    "header": "frmMBeKycAppVerification_header",
    "headersId": "g786aae650bd458d916de4e5feb65901",
    "id": "frmMBeKycAppVerification",
    "ide_init": "AS_Form_b80df36686ea4885acf0c55d8f8faa7a",
    "info": null,
    "initdone": false,
    "inputaccessoryviewtype": 4,
    "invokedProperty": "footers",
    "ipad": {
        "psp": {
            "inputAccessoryViewType": 4
        }
    },
    "iphone": {
        "psp": {
            "inputAccessoryViewType": 4,
            "titleBarAttributes": {
                "barStyle": 0,
                "hidesBackButton": true,
                "kuid": "d77b242e675048a5bd648664a24948be",
                "leftBarButtonItems": [
                    {
                        "kuid": "ec6c17a150fc414db309ecb89a816767",
                        "leftButtonText": "Back",
                        "leftTitle": "Back",
                        "prevFormTitle": false,
                        "titleBarLeftSideView": "button",
                        "type": 4
                    }
                ],
                "leftItemsSupplementBackButton": true,
                "prompt": "",
                "renderTitleText": true,
                "rightBarButtonItems": [
                    {
                        "enabled": true,
                        "info": {
                            "title": "Edit"
                        },
                        "kuid": "h4f1e14ff3664116986741d4656f081a",
                        "style": 0,
                        "tintColor": "333333ff",
                        "type": 1
                    }
                ],
                "tintColor": "333333ff",
                "translucent": true
            }
        },
        "titleBar": false
    },
    "isvisible": true,
    "kuid": "bf0f062d47844c95a26810db21c07008",
    "layouttype": 4,
    "name": "kony.ui.Form2",
    "needappmenu": true,
    "paddinginpixel": false,
    "platform": "android",
    "prevDevice": "iPhoneX",
    "prevPlatform": "iphone",
    "retainscrollposition": false,
    "shellCSS": "and_GalaxyS8",
    "snapgridsize": 10,
    "snaptogrid": true,
    "titleBarSkin": "s4d78696e6a449938115e90fb37d4124",
    "titlebar": true,
    "type": 3,
    "wType": "Form"
}