{
    "DNDConfig": null,
    "_enabled_": false,
    "_margin_": [
        0,
        1,
        0,
        0
    ],
    "_padding_": [
        1,
        0,
        0,
        0
    ],
    "_render_": true,
    "_skin_": "scec8934ff224f81aeb403d219e8b87f",
    "_text_": "",
    "autocapitalize": "none",
    "autocomplete": false,
    "autocorrect": false,
    "autofilter": false,
    "canUpdateUI": true,
    "closebuttontext": "",
    "containerweight": 72,
    "contentalignment": 1,
    "desktopweb": {
        "@class": "com.kony.gen.viz.model.component.property.textarea2.DesktopWebTextArea2Property",
        "_margin_": [
            0,
            0,
            0,
            0
        ],
        "_padding_": [
            0,
            0,
            0,
            0
        ],
        "ide_onBeginEditing": "p2kwiet2012247649002_textarea210136690395040_DESKTOPWEB_onBeginEditing_seq0",
        "ide_onKeyUp": "p2kwiet2012247649002_textarea210136690395040_DESKTOPWEB_onKeyUp_seq0",
        "margin": [
            0,
            0,
            0,
            0
        ],
        "marginInPixel": false,
        "padding": [
            0,
            0,
            0,
            0
        ],
        "paddingInPixel": false,
        "psp": {
            "hoverSkin": "saa7140d65064261882cf08c6d6dab1f"
        },
        "render": true
    },
    "focusskin": "saa7140d65064261882cf08c6d6dab1f",
    "hexpand": true,
    "id": "textarea210136690395040",
    "ide_onTextChange": "p2kwiet2012247649002_textarea210136690395040_onTextChange_seq0",
    "info": null,
    "isvisible": true,
    "keyboardactionlabel": "",
    "keyboardstyle": "A",
    "keyboardtype": "A",
    "kiosk": {
        "@class": "com.kony.gen.viz.model.component.property.textarea2.KioskTextArea2Property",
        "render": true
    },
    "kuid": "p2kwiet2012247648894",
    "margininpixel": false,
    "maxtextlength": 50,
    "mode": "A",
    "name": "kony.ui.TextArea2",
    "numberofvisiblelines": 3,
    "paddinginpixel": false,
    "parent": "hbox1011732624591",
    "pf": "frmIBTopUpLandingPage",
    "securetextentry": false,
    "showclosebutton": false,
    "showoprogressindicator": true,
    "showprogressindicator": false,
    "spa": {
        "@class": "com.kony.gen.viz.model.component.property.textarea2.SPATextArea2Property",
        "autoCorrect": false
    },
    "textinputmode": "A",
    "vexpand": false,
    "viewtype": "default",
    "wType": "TextArea",
    "widgetalignment": 5
}