{
    "DNDConfig": null,
    "_enabled_": false,
    "_margin_": [
        0,
        0,
        0,
        0
    ],
    "_padding_": [
        0,
        0,
        0,
        0
    ],
    "_skin_": "s1fa308b63dc42e7bdbe44e7b78ba63a",
    "_text_": "",
    "autocapitalize": "none",
    "autocomplete": false,
    "autocorrect": false,
    "autofilter": false,
    "canUpdateUI": true,
    "containerheightmode": 1,
    "containerheightreference": 1,
    "containerweight": 100,
    "contentalignment": 4,
    "desktopweb": {
        "@class": "com.kony.gen.viz.model.component.property.textbox2.DesktopWebTextBox2Property",
        "_padding_": [
            2,
            0,
            1,
            0
        ],
        "containerHeightMode": 3,
        "ide_onBeginEditing": "p2kwiet2012247641918_txtUserID_DESKTOPWEB_onBeginEditing_seq0",
        "ide_onEndEditing": "p2kwiet2012247641918_txtUserID_DESKTOPWEB_onEndEditing_seq0",
        "ide_onKeyUp": "p2kwiet2012247641918_txtUserID_DESKTOPWEB_onKeyUp_seq0",
        "padding": [
            2,
            0,
            1,
            0
        ],
        "paddingInPixel": false,
        "render": true
    },
    "focusskin": "s1fa308b63dc42e7bdbe44e7b78ba63a",
    "hexpand": true,
    "id": "txtUserID",
    "ide_onTextChange": "p2kwiet2012247641918_txtUserID_onTextChange_seq0",
    "info": null,
    "isvisible": true,
    "keyboardstyle": "A",
    "keyboardtype": "A",
    "kiosk": {
        "@class": "com.kony.gen.viz.model.component.property.textbox2.KioskTextBox2Property",
        "render": true
    },
    "kuid": "p2kwiet2012247641882",
    "margininpixel": false,
    "maxtextlength": 20,
    "mode": "A",
    "name": "kony.ui.TextBox2",
    "paddinginpixel": false,
    "parent": "vbox507353026230979",
    "pf": "frmIBCreateUserID",
    "securetextentry": false,
    "spa": {
        "@class": "com.kony.gen.viz.model.component.property.textbox2.SPATextBox2Property",
        "autoCorrect": false,
        "containerHeightMode": 3
    },
    "textinputmode": "A",
    "vexpand": false,
    "viewtype": "default",
    "wType": "TextField",
    "widgetalignment": 5
}