{
    "@class": "com.kony.gen.viz.model.component.KVizImage2",
    "DNDConfig": null,
    "__markedForDelete__": true,
    "_base64_": null,
    "_margin_": [
        0,
        0,
        0,
        0
    ],
    "_padding_": [
        0,
        0,
        0,
        0
    ],
    "_skin_": "s55d8a5125e74bb0b2eaca75c423dae1",
    "_src_": "bg_arrow_right_grayb2.png",
    "canUpdateUI": true,
    "containerweight": 100,
    "context": {
        "channel": "desktop",
        "ispercent": true,
        "platform": "desktopweb",
        "templateType": "forms",
        "topLevelBox": false
    },
    "id": "CopyImage0a4b542b69c3a48",
    "imagescalemode": 1,
    "info": null,
    "invokedProperty": "src",
    "ispercent": true,
    "isvisible": true,
    "kuid": "d6c159ced5ea4a90a5f338dc81740031",
    "name": "kony.ui.Image2",
    "parent": "CopyVBox0h9aee61365184e",
    "pf": "frmIBMFSelPurchaseFundsLP",
    "srcType": 1,
    "wType": "Image",
    "widgetalignment": 5
}