{
    "@class": "com.kony.gen.viz.model.container.KVizVBox",
    "DNDConfig": null,
    "__markedForDelete__": true,
    "_margin_": [
        5,
        1,
        1,
        1
    ],
    "_orientation_": 2,
    "_padding_": [
        0,
        0,
        0,
        0
    ],
    "_percent_": true,
    "_position_": 3,
    "_skin_": "s0e13ed4077f481ab090dae6b2e595ed",
    "allboxes": [],
    "canUpdateUI": true,
    "children": [
        "lbltransdate",
        "lbltransdateval"
    ],
    "containerweight": 100,
    "contextmenu": null,
    "id": "CopyVBox0ga3b79ba5e714a",
    "info": null,
    "isvisible": true,
    "kuid": "c2393217f2824554bab40e64ab5afdab",
    "layouttype": 0,
    "margininpixel": false,
    "name": "kony.ui.Box",
    "paddInPixel": [
        0,
        0,
        0,
        0
    ],
    "parent": "HBoxTranDate",
    "pf": "frmIBMFSelPurchaseFundsLP",
    "wType": "VBox",
    "widgetalignment": 1
}