{
    "DNDConfig": null,
    "__markedForDelete__": true,
    "_enabled_": false,
    "_margin_": [
        0,
        0,
        0,
        4
    ],
    "_padding_": [
        0,
        0,
        0,
        0
    ],
    "_skin_": "s93af69726d94af5b449181427c2310e",
    "_text_": "Confirm",
    "_wrapping_": 2,
    "canUpdateUI": true,
    "containerweight": 100,
    "contentalignment": 2,
    "desktopweb": {
        "@class": "com.kony.gen.viz.model.component.property.label.DesktopWebLabelProperty",
        "_padding_": [
            0,
            1,
            0,
            0
        ],
        "padding": [
            0,
            1,
            0,
            0
        ],
        "paddingInPixel": false,
        "psp": {
            "textCopyable": false
        },
        "render": true
    },
    "hexpand": true,
    "id": "lblMFConfirmHearder",
    "info": null,
    "isvisible": false,
    "kiosk": {
        "@class": "com.kony.gen.viz.model.component.property.label.KioskLabelProperty",
        "render": true
    },
    "kuid": "e06202a8a69b4aba8a84b44ce44a961f",
    "margininpixel": false,
    "name": "kony.ui.Label",
    "paddinginpixel": false,
    "parent": "VBox0d86dea8280e444",
    "pf": "frmIBMFSelPurchaseFundsLP",
    "spa": {
        "@class": "com.kony.gen.viz.model.component.property.label.SPALabelProperty",
        "psp": {
            "textCopyable": false
        }
    },
    "tooltip": "",
    "vexpand": false,
    "wType": "Label",
    "widgetalignment": 2
}