{
    "@class": "com.kony.gen.viz.model.component.KVizLink",
    "DNDConfig": null,
    "_margin_": [
        0,
        0,
        0,
        0
    ],
    "_padding_": [
        0,
        0,
        0,
        0
    ],
    "_skin_": "s4827b9a014c4c64aef88304ed4f0a0b",
    "_text_": "Redeem",
    "canUpdateUI": true,
    "containerweight": 25,
    "contentalignment": 5,
    "desktopweb": {
        "psp": {
            "hoverSkin": "sfe01eb6e1f44a49a9ce0b8732982bdf"
        }
    },
    "donotUpdateContainerWeight": false,
    "id": "LinkRedeem",
    "ide_onClick": "AS_Link_e38abafd2d7041969d493b9494a3b530",
    "info": null,
    "isvisible": true,
    "kuid": "ade30ba53dc34a8aa192d99adec4801a",
    "name": "kony.ui.Link",
    "paddInPixel": [
        0,
        0,
        0,
        0
    ],
    "parent": "HboxLinks",
    "pf": "frmIBMFSelPurchaseFundsLP",
    "wType": "Link"
}