{
    "DNDConfig": null,
    "_enabled_": false,
    "_margin_": [
        0,
        0,
        0,
        0
    ],
    "_padding_": [
        0,
        0,
        0,
        0
    ],
    "android": {
        "render": false
    },
    "canUpdateUI": true,
    "containerweight": 100,
    "contentalignment": 5,
    "customProperties": {
        "data": "[]",
        "onSelect": null,
        "selectedItem": "0"
    },
    "cwEvents": [],
    "cwid": "jsSPACustomWidget201224764586",
    "desktopweb": {
        "@class": "com.kony.gen.viz.model.psp.WidgetProperty",
        "render": true
    },
    "hexpand": true,
    "id": "segselAccnt",
    "info": null,
    "ipad": {
        "render": false
    },
    "iphone": {
        "render": false
    },
    "isvisible": false,
    "kiosk": {
        "@class": "com.kony.gen.viz.model.psp.WidgetProperty",
        "render": false
    },
    "kuid": "ee2303bf471e48678dd9fa67beb43763",
    "margininpixel": false,
    "name": "vCoverflow-kony.ui",
    "paddinginpixel": false,
    "parent": "vbxBPRight",
    "pf": "frmIBMFSelPurchaseFundsLP",
    "platformKey": "spa",
    "spa": {
        "@class": "com.kony.gen.viz.model.psp.WidgetProperty"
    },
    "tabrcandroid": {
        "render": false
    },
    "vexpand": false,
    "wType": "TPW",
    "watchos": {
        "render": false
    },
    "widgetalignment": 5,
    "windows10": {
        "render": false
    },
    "windows8": {
        "render": false
    },
    "winphone10": {
        "render": false
    },
    "winphone8": {
        "render": false
    }
}