{
    "@class": "com.kony.gen.viz.model.container.KVizHBox",
    "DNDConfig": null,
    "_margin_": [
        0,
        0,
        0,
        0
    ],
    "_orientation_": 1,
    "_padding_": [
        0,
        0,
        0,
        0
    ],
    "_percent_": true,
    "_position_": 3,
    "_skin_": "s47abbfdc1d8487a8be3a5a2ea1f0d4e",
    "allboxes": [],
    "canUpdateUI": true,
    "children": [
        "VBox0h972cb0da52d48"
    ],
    "containerId": true,
    "containerweight": 100,
    "contextmenu": null,
    "disabledSkins": {},
    "focusskin": "s47abbfdc1d8487a8be3a5a2ea1f0d4e",
    "id": "HBox0j847aefc80e548",
    "info": null,
    "iscustomlayout": false,
    "isvisible": true,
    "kuid": "h4cb32460206403eb5adb65af85da202",
    "layouttype": 0,
    "name": "kony.ui.Box",
    "parent": "vbxSlider",
    "pf": "segSliderNew3",
    "retaincontentalignment": false,
    "retainflexpositionproperties": false,
    "wType": "HBox",
    "widgetalignment": 1
}