{
    "DNDConfig": null,
    "_enabled_": false,
    "_margin_": [
        0,
        0,
        0,
        0
    ],
    "_padding_": [
        0,
        25,
        0,
        0
    ],
    "_skin_": "s544ff2444ca4b3c98aaa140e001d856",
    "_text_": "",
    "canUpdateUI": true,
    "containerweight": 9,
    "contentalignment": 5,
    "desktopweb": {
        "@class": "com.kony.gen.viz.model.component.property.button.DesktopWebButtonProperty",
        "_padding_": [
            0,
            25,
            0,
            0
        ],
        "displayText": true,
        "padding": [
            0,
            25,
            0,
            0
        ],
        "paddingInPixel": false,
        "render": true
    },
    "displaytext": true,
    "focusskin": "s544ff2444ca4b3c98aaa140e001d856",
    "hexpand": true,
    "id": "button474288733664",
    "info": null,
    "isvisible": true,
    "kiosk": {
        "@class": "com.kony.gen.viz.model.component.property.button.KioskButtonProperty",
        "render": true
    },
    "kuid": "p2kwiet2012247641613",
    "margininpixel": false,
    "name": "kony.ui.Button",
    "paddinginpixel": false,
    "parent": "hbox474288733661",
    "pf": "frmIBCMFreqUsedAcnt",
    "spa": {
        "@class": "com.kony.gen.viz.model.component.property.button.SPAButtonProperty",
        "displayText": true
    },
    "vexpand": false,
    "wType": "Button",
    "widgetalignment": 5
}