{
    "DNDConfig": null,
    "_enabled_": false,
    "_margin_": [
        0,
        0,
        0,
        0
    ],
    "_orientation_": 2,
    "_padding_": [
        0,
        0,
        0,
        0
    ],
    "_position_": 3,
    "_resize_": true,
    "_skin_": "s9052e4262fb4faaaf4601b96cfd519e",
    "allboxes": [],
    "borderCollapse": false,
    "canUpdateUI": true,
    "children": [
        "hbxexpandAddr",
        "hbxExpand",
        "hbox474288733646",
        "line474288733650",
        "hbox474288733651",
        "line449081826372989",
        "hbox474288733656",
        "line474288733660",
        "hbox474288733661",
        "line449081826373013",
        "label474288733666",
        "hbox474288733667",
        "line474288733676"
    ],
    "containerweight": 98,
    "desktopweb": {
        "@class": "com.kony.gen.viz.model.container.property.vbox.DesktopWebVBoxProperty",
        "_padding_": [
            0,
            0,
            0,
            0
        ],
        "padding": [
            0,
            0,
            0,
            0
        ],
        "paddingInPixel": false,
        "render": true
    },
    "id": "vbox474288733645",
    "info": null,
    "isvisible": true,
    "kiosk": {
        "@class": "com.kony.gen.viz.model.container.property.vbox.KioskVBoxProperty",
        "render": true
    },
    "kuid": "p2kwiet2012247641642",
    "layouttype": 0,
    "margininpixel": false,
    "name": "kony.ui.Box",
    "paddinginpixel": false,
    "parent": "hbox474288733644",
    "pf": "frmIBCMFreqUsedAcnt",
    "spa": {
        "@class": "com.kony.gen.viz.model.container.property.vbox.SPAVBoxProperty"
    },
    "templateType": "forms",
    "wType": "VBox",
    "widgetalignment": 1
}