{
    "DNDConfig": null,
    "_data_": [
        {
            "lblBalance": {
                "@class": "com.viz.ide.model.segment.SimpleTextSegmentData",
                "text": "500"
            },
            "lblDate": {
                "@class": "com.viz.ide.model.segment.SimpleTextSegmentData",
                "text": "11/02/2012"
            },
            "lblTransaction": {
                "@class": "com.viz.ide.model.segment.SimpleTextSegmentData",
                "text": "500"
            }
        },
        {
            "lblBalance": {
                "@class": "com.viz.ide.model.segment.SimpleTextSegmentData",
                "text": "100"
            },
            "lblDate": {
                "@class": "com.viz.ide.model.segment.SimpleTextSegmentData",
                "text": "12/02/2012"
            },
            "lblTransaction": {
                "@class": "com.viz.ide.model.segment.SimpleTextSegmentData",
                "text": "500"
            }
        },
        {
            "lblBalance": {
                "@class": "com.viz.ide.model.segment.SimpleTextSegmentData",
                "text": "1000"
            },
            "lblDate": {
                "@class": "com.viz.ide.model.segment.SimpleTextSegmentData",
                "text": "13/02/2013"
            },
            "lblTransaction": {
                "@class": "com.viz.ide.model.segment.SimpleTextSegmentData",
                "text": "500"
            }
        }
    ],
    "_enabled_": false,
    "_indicator_": "none",
    "_margin_": [
        0,
        0,
        0,
        0
    ],
    "_orientation_": 1,
    "_padding_": [
        0,
        0,
        0,
        0
    ],
    "_skin_": "seg2Normal",
    "alternaterowskin": "s4db59f686264deaa70d98a47dc45981",
    "android": {
        "@class": "com.kony.gen.viz.model.container.property.segment2.AndroidSegment2Property",
        "_margin_": [
            11,
            0,
            11,
            0
        ],
        "_padding_": [
            0,
            0,
            0,
            0
        ],
        "margin": [
            11,
            0,
            11,
            0
        ],
        "marginInPixel": true,
        "padding": [
            0,
            0,
            0,
            0
        ],
        "paddingInPixel": false,
        "psp": {
            "dockSectionHeaders": false,
            "pressedSkin": "sd5206d4ecfa4df48affb6965ed39f30"
        },
        "render": true,
        "viewConfig": {
            "coverflowConfig": {
                "isCircular": true,
                "projectionAngle": 60
            }
        },
        "viewType": "tableview"
    },
    "canUpdateUI": true,
    "containerheightreference": 1,
    "containerweight": 100,
    "context": {
        "channel": "mobile",
        "formID": "AdvancedWidgetsSegements",
        "templateType": "segments",
        "topLevelBox": false
    },
    "counter": "02",
    "focusedindex": null,
    "focuseditem": null,
    "generatedtemplate": "p2kwiet2012247626485",
    "groupcells": false,
    "hasSections": false,
    "hiddencolumns": {},
    "id": "segMaturityDisplay",
    "info": null,
    "iphone": {
        "@class": "com.kony.gen.viz.model.container.property.segment2.IPhoneSegment2Property",
        "_margin_": [
            10,
            0,
            10,
            0
        ],
        "_padding_": [
            0,
            0,
            0,
            0
        ],
        "margin": [
            10,
            0,
            10,
            0
        ],
        "marginInPixel": true,
        "padding": [
            0,
            0,
            0,
            0
        ],
        "paddingInPixel": false,
        "psp": {
            "bounces": false,
            "editStyle": "none",
            "enableDictionary": false,
            "indicator": "none",
            "progressIndicatorColor": "white",
            "searchCriteria": 1,
            "showProgressIndicator": true
        },
        "render": true,
        "viewConfig": {
            "coverflowConfig": {}
        },
        "viewType": "tableview"
    },
    "isvisible": true,
    "kuid": "p2kwiet2012247626448",
    "layoutalignment": 3,
    "margininpixel": false,
    "name": "kony.ui.SegmentedUI2",
    "needpageindicator": true,
    "paddinginpixel": false,
    "paginationconfig": {
        "position": "bottom"
    },
    "parent": "sboxRight",
    "pf": "frmAccountDetailsMBold",
    "retainselection": false,
    "rowTemplateId": "p2kwiet2012247626485",
    "rowcounter": 2,
    "rowfocusskin": "sd5206d4ecfa4df48affb6965ed39f30",
    "rowskin": "sd5206d4ecfa4df48affb6965ed39f30",
    "screenlevelwidget": false,
    "scrollingevents": false,
    "seccounter": 0,
    "sectionheaderskin": "s9bd6d2f2f8c4fce89dae24cc47abe06",
    "selectedRows": null,
    "selectedState": false,
    "selectedindex": null,
    "selectedindices": null,
    "selecteditems": null,
    "selectedsectionindex": 0,
    "selectionbehavior": "default",
    "selectionbehaviorconfig": {},
    "separatorcolor": "64646400",
    "separatorrequired": false,
    "separatorthickness": 1,
    "showscrollbars": false,
    "spa": {
        "@class": "com.kony.gen.viz.model.container.property.segment2.SPASegment2Property"
    },
    "spaan": {
        "@class": "com.kony.gen.viz.model.container.property.segment2.SPAAndroidSegment2Property",
        "_margin_": [
            4,
            0,
            4,
            0
        ],
        "_padding_": [
            0,
            0,
            0,
            0
        ],
        "margin": [
            4,
            0,
            4,
            0
        ],
        "marginInPixel": false,
        "padding": [
            0,
            0,
            0,
            0
        ],
        "paddingInPixel": false,
        "render": true
    },
    "spabb": {
        "@class": "com.kony.gen.viz.model.container.property.segment2.SPABBSegment2Property",
        "_margin_": [
            2,
            0,
            2,
            0
        ],
        "_padding_": [
            1,
            0,
            2,
            0
        ],
        "margin": [
            2,
            0,
            2,
            0
        ],
        "marginInPixel": false,
        "padding": [
            1,
            0,
            2,
            0
        ],
        "paddingInPixel": false,
        "render": true
    },
    "spaip": {
        "@class": "com.kony.gen.viz.model.container.property.segment2.SPAIPhoneSegment2Property",
        "_margin_": [
            4,
            0,
            4,
            0
        ],
        "_padding_": [
            0,
            0,
            0,
            0
        ],
        "margin": [
            4,
            0,
            4,
            0
        ],
        "marginInPixel": false,
        "padding": [
            0,
            0,
            0,
            0
        ],
        "paddingInPixel": false,
        "render": true
    },
    "spawinphone8": {
        "@class": "com.kony.gen.viz.model.container.property.segment2.SPAWinPhone8Segment2Property",
        "render": true
    },
    "viewtype": "tableview",
    "wType": "Segment",
    "widgetalignment": 1,
    "widgetdatamap": {
        "lblBalance": "lblBalance",
        "lblDate": "lblDate",
        "lblTransaction": "lblTransaction"
    },
    "winphone8": {
        "@class": "com.kony.gen.viz.model.container.property.segment2.WinPhone8Segment2Property",
        "_margin_": [
            2,
            0,
            2,
            0
        ],
        "_padding_": [
            0,
            0,
            0,
            0
        ],
        "margin": [
            2,
            0,
            2,
            0
        ],
        "marginInPixel": false,
        "padding": [
            0,
            0,
            0,
            0
        ],
        "paddingInPixel": false,
        "psp": {
            "enableCache": false
        },
        "render": true
    }
}