{
    "@class": "com.kony.gen.viz.model.container.KVizVBox",
    "DNDConfig": null,
    "_margin_": [
        0,
        0,
        0,
        0
    ],
    "_orientation_": 2,
    "_padding_": [
        0,
        0,
        0,
        0
    ],
    "_percent_": true,
    "_position_": 3,
    "_skin_": "s0e13ed4077f481ab090dae6b2e595ed",
    "allboxes": [],
    "canUpdateUI": true,
    "children": [
        "HBox0gb6f96b2c4db42"
    ],
    "containerId": true,
    "containerweight": 3,
    "contextmenu": null,
    "id": "VBox0ea4815cfca5b42",
    "info": null,
    "iscustomlayout": false,
    "isvisible": true,
    "kuid": "e07f625a3f02442ba450664501010e77",
    "layouttype": 0,
    "name": "kony.ui.Box",
    "paddInPixel": [
        0,
        0,
        0,
        0
    ],
    "parent": "hbxSliderTopBrass",
    "pf": "segSliderTopbrass",
    "retaincontentalignment": false,
    "retainflexpositionproperties": false,
    "templateType": "forms",
    "wType": "VBox",
    "widgetalignment": 1
}