{
    "@class": "com.kony.gen.viz.model.container.KVizHBox",
    "DNDConfig": null,
    "_margin_": [
        0,
        0,
        0,
        0
    ],
    "_orientation_": 1,
    "_padding_": [
        0,
        0,
        0,
        0
    ],
    "_percent_": true,
    "_position_": 3,
    "_skin_": "s216fce2b58e4a94ba57b009a5963b75",
    "allboxes": [],
    "canUpdateUI": true,
    "children": [
        "vbxSlider"
    ],
    "containerId": true,
    "containerweight": 100,
    "contextmenu": null,
    "id": "hboxMainSlider",
    "info": null,
    "iscustomlayout": false,
    "isvisible": true,
    "kuid": "c6c89f64ea604003a96dae8c143dd855",
    "layouttype": 0,
    "name": "kony.ui.Box",
    "parent": "vBoxSliderMain",
    "pf": "segSliderNew4",
    "retaincontentalignment": false,
    "retainflexpositionproperties": false,
    "templateType": "forms",
    "wType": "HBox",
    "widgetalignment": 1
}