{
    "DNDConfig": null,
    "_enabled_": false,
    "_margin_": [
        0,
        0,
        0,
        0
    ],
    "_padding_": [
        0,
        3,
        0,
        3
    ],
    "_skin_": "s845eb15bac44c33b8585235492a2619",
    "_text_": "",
    "canUpdateUI": true,
    "containerweight": 33,
    "contentalignment": 5,
    "desktopweb": {
        "@class": "com.kony.gen.viz.model.component.property.button.DesktopWebButtonProperty",
        "_margin_": [
            0,
            0,
            0,
            0
        ],
        "_padding_": [
            0,
            0,
            0,
            0
        ],
        "contentAlignment": 2,
        "displayText": true,
        "margin": [
            0,
            0,
            0,
            0
        ],
        "marginInPixel": false,
        "padding": [
            0,
            0,
            0,
            0
        ],
        "paddingInPixel": false,
        "psp": {
            "hoverSkin": "sb51774c2d3544eea187341ab46c28ef"
        },
        "render": true
    },
    "displaytext": true,
    "focusskin": "s845eb15bac44c33b8585235492a2619",
    "hexpand": true,
    "id": "btncalender",
    "ide_onClick": "p2kwiet2012247644560_btncalender_onClick_seq0",
    "info": null,
    "isvisible": true,
    "kuid": "p2kwiet2012247644254",
    "margininpixel": false,
    "name": "kony.ui.Button",
    "paddinginpixel": false,
    "parent": "hbxBtns",
    "pf": "frmIBMyActivities",
    "spa": {
        "@class": "com.kony.gen.viz.model.component.property.button.SPAButtonProperty",
        "displayText": true
    },
    "texti18n": "MyActivitiesIB_Calender",
    "vexpand": false,
    "wType": "Button",
    "widgetalignment": 5
}