{
    "DNDConfig": null,
    "_enabled_": false,
    "_margin_": [
        0,
        0,
        0,
        0
    ],
    "_padding_": [
        0,
        1,
        0,
        1
    ],
    "_skin_": "s3fac7f5c4394523b159eab74ba11516",
    "_text_": "",
    "canUpdateUI": true,
    "containerweight": 100,
    "contentalignment": 4,
    "desktopweb": {
        "@class": "com.kony.gen.viz.model.component.property.combobox.DesktopWebComboBoxProperty",
        "_margin_": [
            2,
            1,
            2,
            1
        ],
        "contentAlignment": 4,
        "margin": [
            2,
            1,
            2,
            1
        ],
        "marginInPixel": false,
        "psp": {
            "autoSuggest": false,
            "hoverSkin": "s97ba7df10db4d458ccdd2cb756a5173",
            "viewType": 0
        },
        "render": true
    },
    "focusskin": "s97ba7df10db4d458ccdd2cb756a5173",
    "hexpand": true,
    "id": "combobank",
    "info": null,
    "isvisible": true,
    "kuid": "p2kwiet2012247644263",
    "margininpixel": false,
    "masterdata": [],
    "name": "kony.ui.ComboBox",
    "paddinginpixel": false,
    "parent": "vbxcombo3",
    "pf": "frmIBMyActivities",
    "selectedkey": "",
    "selectedkeyvalue": [],
    "spa": {
        "@class": "com.kony.gen.viz.model.component.property.combobox.SPAComboBoxProperty"
    },
    "vexpand": false,
    "wType": "ComboBox",
    "widgetalignment": 5
}