{
    "@class": "com.kony.gen.viz.model.component.KVizButton",
    "DNDConfig": null,
    "__parentReadjusting__": false,
    "_height_": {
        "type": "string",
        "value": "100%"
    },
    "_left_": {
        "type": "number",
        "value": "0"
    },
    "_margin_": [
        6,
        6,
        6,
        6
    ],
    "_padding_": [
        0,
        0,
        0,
        0
    ],
    "_skin_": "s5e76ebe6aaa4d599f1bb5a2e47fce7f",
    "_text_": "",
    "_top_": {
        "type": "number",
        "value": "0"
    },
    "_width_": {
        "type": "string",
        "value": "100%"
    },
    "canUpdateUI": true,
    "containerweight": 100,
    "contentalignment": 5,
    "displaytext": true,
    "focusskin": "s5e76ebe6aaa4d599f1bb5a2e47fce7f",
    "id": "btnSupportDynamic",
    "info": null,
    "iscustomlayout": false,
    "isvisible": true,
    "kuid": "de19cee87fda4733ba1d878319d88561",
    "name": "kony.ui.Button",
    "parent": "flxDynamicPopUp",
    "pf": "frmMBeKYCPersonalInform",
    "retaincontentalignment": false,
    "retainflexpositionproperties": false,
    "wType": "Button",
    "zindex": 5
}