{
    "DNDConfig": null,
    "__parentReadjusting__": false,
    "_height_": {
        "type": "ref",
        "value": "preferred"
    },
    "_left_": {
        "type": "string",
        "value": "0dp"
    },
    "_margin_": [
        0,
        0,
        0,
        0
    ],
    "_orientation_": 6,
    "_padding_": [
        0,
        0,
        0,
        0
    ],
    "_percent_": true,
    "_skin_": "s918d2c198cc4b1b99c1a0fe1f4e0370",
    "_top_": {
        "type": "string",
        "value": "0dp"
    },
    "_width_": {
        "type": "string",
        "value": "85%"
    },
    "allboxes": [],
    "autogrowmode": 1,
    "canUpdateUI": true,
    "children": [
        "lblOccupationAdditional",
        "lblOccupationAdditionalHeader",
        "lblOccupationAdditionalDesc",
        "lblOccupationAdditionalCode"
    ],
    "clipbounds": true,
    "containerweight": 100,
    "enablescrolling": true,
    "id": "subflxOccupationAdditional",
    "info": null,
    "iscustomlayout": false,
    "isvisible": true,
    "kuid": "j70017244fb0442698ba8a641c9a4858",
    "layouttype": 4,
    "name": "kony.ui.FlexContainer",
    "parent": "flxOccupationAdditional",
    "pf": "frmMBeKYCPersonalInform",
    "retaincontentalignment": false,
    "retainflexpositionproperties": false,
    "snapgridsize": 10,
    "snaptogrid": true,
    "wType": "FlexContainer",
    "widgetalignment": 1,
    "zindex": 1
}