{
    "@class": "com.kony.gen.viz.model.component.KVizLabel",
    "DNDConfig": null,
    "__parentReadjusting__": false,
    "_height_": {
        "type": "ref",
        "value": "preferred"
    },
    "_left_": {
        "type": "string",
        "value": "0dp"
    },
    "_margin_": [
        1,
        1,
        1,
        1
    ],
    "_padding_": [
        0,
        0,
        0,
        0
    ],
    "_skin_": "sa70d0ad4a164e6286066ef3beabadbc",
    "_text_": "sadadad",
    "_top_": {
        "type": "string",
        "value": "4.00%"
    },
    "_width_": {
        "type": "string",
        "value": "90%"
    },
    "_wrapping_": 2,
    "android": {
        "textStyle": {
            "letterSpacing": 0,
            "strikeThrough": false
        }
    },
    "canUpdateUI": true,
    "centerx": {
        "type": "string",
        "value": "50.04%"
    },
    "containerweight": 100,
    "contentalignment": 5,
    "id": "lblRequestResult",
    "info": null,
    "ipad": {
        "psp": {
            "wrapping": 2
        }
    },
    "iphone": {
        "psp": {
            "wrapping": 2
        }
    },
    "iscustomlayout": false,
    "isvisible": true,
    "kuid": "ef4bde0f1b9b446a9fbb84732e7c7de3",
    "name": "kony.ui.Label",
    "parent": "flexCompleteBody",
    "pf": "frmEKYCIdpRequestDetailsAndComplete",
    "retaincontentalignment": false,
    "retainflexpositionproperties": false,
    "texti18n": "eKYC_msgApproveRequestSuccess",
    "textstyle": {},
    "tooltip": "",
    "wType": "Label",
    "zindex": 1
}