{
    "DNDConfig": null,
    "_enabled_": false,
    "_margin_": [
        0,
        0,
        0,
        0
    ],
    "_padding_": [
        0,
        0,
        0,
        0
    ],
    "_skin_": "s2d93e5f626b4dd184a2914729dc8ecb",
    "_text_": "",
    "canUpdateUI": true,
    "containerweight": 28,
    "contentalignment": 5,
    "desktopweb": {
        "@class": "com.kony.gen.viz.model.component.property.button.DesktopWebButtonProperty",
        "displayText": true,
        "render": true
    },
    "displaytext": true,
    "focusskin": "sa51abed673045ffa054ef8564c5d4cd",
    "hexpand": true,
    "id": "button44747680938122",
    "ide_onClick": "p2kwiet2012247650622_button44747680938122_onClick_seq0",
    "info": null,
    "isvisible": true,
    "kiosk": {
        "@class": "com.kony.gen.viz.model.component.property.button.KioskButtonProperty",
        "render": true
    },
    "kuid": "p2kwiet2012247650615",
    "margininpixel": false,
    "name": "kony.ui.Button",
    "paddinginpixel": false,
    "parent": "hbox44747680938086",
    "pf": "popIBFutureBPCancel",
    "spa": {
        "@class": "com.kony.gen.viz.model.component.property.button.SPAButtonProperty",
        "displayText": true
    },
    "texti18n": "keyYes",
    "vexpand": false,
    "wType": "Button",
    "widgetalignment": 9
}