{
    "DNDConfig": null,
    "__parentReadjusting__": false,
    "_height_": {
        "type": "ref",
        "value": "preferred"
    },
    "_left_": {
        "type": "string",
        "value": "0"
    },
    "_margin_": [
        0,
        0,
        0,
        0
    ],
    "_orientation_": 6,
    "_padding_": [
        0,
        0,
        0,
        0
    ],
    "_percent_": true,
    "_skin_": "s3bc622d37a14cc099d909c6dfb5450f",
    "_top_": {
        "type": "string",
        "value": "15dp"
    },
    "_width_": {
        "type": "string",
        "value": "100%"
    },
    "allboxes": [],
    "autogrowmode": 1,
    "canUpdateUI": true,
    "children": [
        "lblOfficeAddress",
        "flxOfficeAddressChkbx",
        "flxCompanyName",
        "flxOfficePhoneMain",
        "flxScrollAddressOfficeAddress"
    ],
    "clipbounds": true,
    "containerweight": 100,
    "enablescrolling": true,
    "id": "flxOfficeAddress",
    "info": null,
    "iscustomlayout": false,
    "isvisible": true,
    "kuid": "c08703e09b5642b49b63fa2de0cd0af3",
    "layouttype": 4,
    "name": "kony.ui.FlexContainer",
    "parent": "flxScrollAddress",
    "pf": "frmMBeKYCContactInfo",
    "retaincontentalignment": false,
    "retainflexpositionproperties": false,
    "snapgridsize": 10,
    "snaptogrid": true,
    "vizProps": {},
    "wType": "FlexContainer",
    "widgetalignment": 1,
    "zindex": 1
}