{
    "DNDConfig": null,
    "_data_": [],
    "_enabled_": false,
    "_indicator_": "none",
    "_margin_": [
        0,
        0,
        0,
        0
    ],
    "_orientation_": 2,
    "_padding_": [
        0,
        0,
        0,
        0
    ],
    "_skin_": "seg2Normal",
    "canUpdateUI": true,
    "containerheightreference": 1,
    "containerweight": 100,
    "context": {
        "channel": "mobile",
        "formID": "AdvancedWidgetsSegements",
        "templateType": "segments",
        "topLevelBox": false
    },
    "counter": 3,
    "desktopweb": {
        "@class": "com.kony.gen.viz.model.container.property.segment2.DesktopWebSegment2Property",
        "render": true
    },
    "focusedindex": null,
    "focuseditem": null,
    "generatedtemplate": "p2kwiet2012247645431",
    "groupcells": false,
    "hasSections": false,
    "hiddencolumns": {
        "BillerCompCode": "text",
        "BillerId": "text",
        "Ref1LblEN": "text",
        "Ref1LblTH": "text",
        "Ref2LblEN": "text",
        "Ref2LblTH": "text"
    },
    "id": "segBillersConfirm",
    "info": null,
    "isvisible": true,
    "kiosk": {
        "@class": "com.kony.gen.viz.model.container.property.segment2.KioskSegment2Property",
        "render": true
    },
    "kuid": "p2kwiet2012247645315",
    "layoutalignment": 3,
    "layouttype": 0,
    "margininpixel": false,
    "name": "kony.ui.SegmentedUI2",
    "needpageindicator": true,
    "paddinginpixel": false,
    "paginationconfig": {
        "position": "bottom"
    },
    "parent": "vbxBillersConfirm",
    "pf": "frmIBMyTopUpsHome",
    "retainselection": false,
    "rowTemplateId": "p2kwiet2012247645431",
    "rowcounter": 2,
    "rowfocusskin": "sbbc7f0678bf4c678c40fe82030b9661",
    "rowskin": "s01e0182a4d14a4da5e4e707eafeea1b",
    "screenlevelwidget": false,
    "scrollingevents": false,
    "seccounter": 0,
    "sectionheaderskin": "s9bd6d2f2f8c4fce89dae24cc47abe06",
    "selectedRows": null,
    "selectedState": false,
    "selectedindex": null,
    "selectedindices": null,
    "selecteditems": null,
    "selectedsectionindex": 0,
    "selectionbehavior": "default",
    "selectionbehaviorconfig": {},
    "separatorcolor": "64646400",
    "separatorrequired": true,
    "separatorthickness": 1,
    "showscrollbars": false,
    "spa": {
        "@class": "com.kony.gen.viz.model.container.property.segment2.SPASegment2Property"
    },
    "viewtype": "tableview",
    "wType": "Segment",
    "widgetalignment": 1,
    "widgetdatamap": {
        "btnConfirmBillerDelete": "btnConfirmBillerDelete",
        "hbxBillerImgRef": "hbxBillerImgRef",
        "hbxBillerNameDelete": "hbxBillerNameDelete",
        "hbxConfirmBillerRef1": "hbxConfirmBillerRef1",
        "imgConfirmBillerLogo": "imgConfirmBillerLogo",
        "lblBillerNameCompCode": "lblBillerNameCompCode",
        "lblConfirmBillerName": "lblConfirmBillerName",
        "lblConfirmBillerNameCompCode": "lblConfirmBillerNameCompCode",
        "lblConfirmBillerRef1": "lblConfirmBillerRef1",
        "lblConfirmBillerRef1Value": "lblConfirmBillerRef1Value",
        "vbox867723644156303": "vbox867723644156303",
        "vbxConfirmBillerRef": "vbxConfirmBillerRef"
    }
}