{
  "android": {
    "font_name": "DBOzoneX",
    "font_size": 200,
    "isForked": false
  },
  "applicableblockedUIWidget": "Button",
  "background_color": "007abc33",
  "bg_type": "one",
  "blockedimgURL": "",
  "border_color": "ffffffff",
  "border_style": "plain",
  "border_type": 0,
  "border_width": 0,
  "bottom_left_border_color": "000000ff",
  "bottom_left_border_radius": 10,
  "bottom_left_border_width": 0,
  "bottom_right_border_color": "000000ff",
  "bottom_right_border_radius": 10,
  "bottom_right_border_width": 0,
  "desktopweb": {
    "font_name": "Andale Mono",
    "font_size": 200,
    "isForked": false
  },
  "fontSizeInPx": false,
  "font_color": "035785ff",
  "font_size": 200,
  "font_style": "normal",
  "font_weight": "normal",
  "gridLineColor": "0000000",
  "ipad": {
    "font_name": "AmericanTypewriter",
    "font_size": 200,
    "isForked": false
  },
  "iphone": {
    "font_name": "DBOzoneX",
    "font_size": 200,
    "isForked": false
  },
  "isDefaultSkin": false,
  "isForked": false,
  "kiosk": {
    "font_name": "GenericMonospace",
    "font_size": 200,
    "isForked": false
  },
  "kuid": "sdbdf25054bb4c5fb084dfb4ca9d4afb",
  "spaan": {
    "font_name": "Andale Mono",
    "font_size": 200,
    "isForked": false
  },
  "spaandroidtablet": {
    "font_name": "Andale Mono",
    "font_size": 200,
    "isForked": false
  },
  "spabb": {
    "font_name": "Andale Mono",
    "font_size": 200,
    "isForked": false
  },
  "spaip": {
    "font_name": "Andale Mono",
    "font_size": 200,
    "isForked": false
  },
  "spaipad": {
    "font_name": "Andale Mono",
    "font_size": 200,
    "isForked": false
  },
  "spawindowstablet": {
    "font_name": "Andale Mono",
    "font_size": 200,
    "isForked": false
  },
  "spawinphone8": {
    "font_name": "Andale Mono",
    "font_size": 200,
    "isForked": false
  },
  "tabrcandroid": {
    "font_name": "default",
    "font_size": 200,
    "isForked": false
  },
  "top_left_border_color": "000000ff",
  "top_left_border_radius": 10,
  "top_left_border_width": 0,
  "top_right_border_color": "000000ff",
  "top_right_border_radius": 10,
  "top_right_border_width": 0,
  "vizChannel": "default",
  "wType": "Button",
  "watchos": {
    "font_name": "Arial",
    "font_size": 200,
    "isForked": false
  },
  "windows8": {
    "font_name": "GenericMonospace",
    "font_size": 200,
    "isForked": false
  },
  "winphone8": {
    "font_name": "GenericMonospace",
    "font_size": 200,
    "isForked": false
  }
}