{
  "applicableblockedUIWidget": "Button",
  "background_color": "ffffff00",
  "background_style": "vg",
  "bg_type": "one",
  "blockedimgURL": "",
  "border_color": "000000ff",
  "border_radius": 0,
  "border_style": "plain",
  "border_type": 0,
  "border_width": 0,
  "bottom_left_border_color": "000000ff",
  "bottom_left_border_radius": 10,
  "bottom_left_border_width": 0,
  "bottom_right_border_color": "000000ff",
  "bottom_right_border_radius": 10,
  "bottom_right_border_width": 0,
  "desktopweb": {
    "applicableblockedUIWidget": "Button",
    "background_color": "fffcffff",
    "bg_type": "one",
    "blockedImgLocation": "top",
    "blockedimgURL": "",
    "border_color": "000000ff",
    "border_style": "plain",
    "border_type": 0,
    "border_width": 0,
    "bottom_left_border_color": "2b2a2bff",
    "bottom_left_border_radius": "100",
    "bottom_left_border_style": "rc",
    "bottom_left_border_width": "2",
    "bottom_right_border_color": "2b2a2bff",
    "bottom_right_border_radius": "100",
    "bottom_right_border_style": "rc",
    "bottom_right_border_width": "2",
    "customCSS": "width: 100px!important; height: 100px; margin: 0; padding: 0; text-align: center; vertical-align: middle; font: normal 70px 'DB Ozone X'; color:#333333; background: #FFFFFF; -webkit-border-radius: 5px; -moz-border-radius: 5px; -o-border-radius: 5px; border-radius:100px;pointer-events: none;outline:0 none;border:2px #333333 solid;-webkit-appearance: none;",
    "font_color": "292629ff",
    "font_name": "DB Ozone X",
    "font_size": 300,
    "font_weight": "normal",
    "gridLineColor": "0000000",
    "isCustomCSSEnabled": true,
    "isForked": true,
    "psp": {},
    "shadow": {
      "br": 0,
      "color": "000000",
      "inner": false,
      "x": 0,
      "y": 0
    },
    "text_shadow": {
      "br": 0,
      "color": "000000",
      "x": 0,
      "y": 0
    },
    "top_left_border_color": "2b2a2bff",
    "top_left_border_radius": "100",
    "top_left_border_style": "rc",
    "top_left_border_width": "2",
    "top_right_border_color": "2b2a2bff",
    "top_right_border_radius": "100",
    "top_right_border_style": "rc",
    "top_right_border_width": "2",
    "vizChannel": "desktopweb",
    "wType": "Button"
  },
  "fontSizeInPx": false,
  "font_color": "000000ff",
  "font_size": 100,
  "font_weight": "normal",
  "gridLineColor": "0000000",
  "isDefaultSkin": false,
  "isForked": false,
  "kuid": "s9df32c32bca436b9f88f8a5cf7154dd",
  "shadow": {
    "br": 0,
    "color": "000000",
    "inner": false,
    "x": 0,
    "y": 0
  },
  "text_shadow": {
    "br": 0,
    "color": "000000",
    "x": 0,
    "y": 0
  },
  "top_left_border_color": "000000ff",
  "top_left_border_radius": 10,
  "top_left_border_width": 0,
  "top_right_border_color": "000000ff",
  "top_right_border_radius": 10,
  "top_right_border_width": 0,
  "use_native": "false",
  "vizChannel": "default",
  "wType": "Button"
}