{
    "applicableblockedUIWidget": "Button",
    "background_color": "ffffffff",
    "background_style": "vg",
    "bg_type": "one",
    "blockedimgURL": "",
    "border_color": "000000ff",
    "border_radius": 0,
    "border_style": "plain",
    "border_type": 0,
    "border_width": 0,
    "bottom_left_border_color": "000000ff",
    "bottom_left_border_radius": 10,
    "bottom_left_border_width": 0,
    "bottom_right_border_color": "000000ff",
    "bottom_right_border_radius": 10,
    "bottom_right_border_width": 0,
    "desktopweb": {
        "applicableblockedUIWidget": "Button",
        "backgroundSize": false,
        "background_image": "radio_tab3_mid_sel.png",
        "background_style": "vg",
        "bg_type": "image",
        "blockedimgURL": "",
        "border_color": "000000ff",
        "border_radius": 0,
        "border_style": "plain",
        "border_type": 0,
        "border_width": 0,
        "bottom_left_border_color": "000000ff",
        "bottom_left_border_radius": 10,
        "bottom_left_border_style": "plain",
        "bottom_left_border_width": 0,
        "bottom_right_border_color": "000000ff",
        "bottom_right_border_radius": 10,
        "bottom_right_border_style": "plain",
        "bottom_right_border_width": 0,
        "customCSS": "width: 106px!important; height: 24px!important; margin: 0 1px 0 0!important; padding: 0; text-align: center; vertical-align: middle; font: normal 16px 'DB Ozone X'; color:#ffffff; background: #007abc;cursor:pointer;outline:0 none;border:0 none;-webkit-appearance: none;",
        "font_color": "ffffffff",
        "font_name": "DB Ozone X",
        "font_size": 100,
        "font_weight": "normal",
        "gridLineColor": "0000000",
        "id": "btnIBTab3MidFocus",
        "isCustomCSSEnabled": true,
        "isForked": true,
        "psp": {},
        "repeatImageHorizontally": false,
        "repeatImageVertically": false,
        "shadow": {
            "br": 0,
            "color": "000000",
            "inner": false,
            "x": 0,
            "y": 0
        },
        "text_shadow": {
            "br": 0,
            "color": "000000",
            "x": 0,
            "y": 0
        },
        "top_left_border_color": "000000ff",
        "top_left_border_radius": 10,
        "top_left_border_style": "plain",
        "top_left_border_width": 0,
        "top_right_border_color": "ffffffff",
        "top_right_border_radius": 10,
        "top_right_border_style": "plain",
        "top_right_border_width": 0,
        "use_native": "false",
        "vizChannel": "desktopweb",
        "wType": "Button"
    },
    "font_color": "000000ff",
    "font_size": 100,
    "font_weight": "normal",
    "gridLineColor": "0000000",
    "id": "btnIBTab3MidFocus",
    "isForked": false,
    "kuid": "s4c940ff5b9143ebb38d965ed741f2da",
    "shadow": {
        "br": 0,
        "color": "000000",
        "inner": false,
        "x": 0,
        "y": 0
    },
    "spaan": {
        "customCSS": "width: 106px!important; height: 24px!important; margin: 0 1px 0 0!important; padding: 0; text-align: center; vertical-align: middle; font: normal 16px 'DB Ozone X'; color:#ffffff; background: #007abc;cursor:pointer;outline:0 none;border:0 none;-webkit-appearance: none;",
        "isCustomCSSEnabled": true,
        "isForked": true
    },
    "spaandroidtablet": {
        "customCSS": "width: 106px!important; height: 24px!important; margin: 0 1px 0 0!important; padding: 0; text-align: center; vertical-align: middle; font: normal 16px 'DB Ozone X'; color:#ffffff; background: #007abc;cursor:pointer;outline:0 none;border:0 none;-webkit-appearance: none;",
        "isCustomCSSEnabled": true,
        "isForked": true
    },
    "spabb": {
        "customCSS": "width: 106px!important; height: 24px!important; margin: 0 1px 0 0!important; padding: 0; text-align: center; vertical-align: middle; font: normal 16px 'DB Ozone X'; color:#ffffff; background: #007abc;cursor:pointer;outline:0 none;border:0 none;-webkit-appearance: none;",
        "isCustomCSSEnabled": true,
        "isForked": true
    },
    "spaip": {
        "customCSS": "width: 106px!important; height: 24px!important; margin: 0 1px 0 0!important; padding: 0; text-align: center; vertical-align: middle; font: normal 16px 'DB Ozone X'; color:#ffffff; background: #007abc;cursor:pointer;outline:0 none;border:0 none;-webkit-appearance: none;",
        "isCustomCSSEnabled": true,
        "isForked": true
    },
    "spaipad": {
        "customCSS": "width: 106px!important; height: 24px!important; margin: 0 1px 0 0!important; padding: 0; text-align: center; vertical-align: middle; font: normal 16px 'DB Ozone X'; color:#ffffff; background: #007abc;cursor:pointer;outline:0 none;border:0 none;-webkit-appearance: none;",
        "isCustomCSSEnabled": true,
        "isForked": true
    },
    "spawindowstablet": {
        "customCSS": "width: 106px!important; height: 24px!important; margin: 0 1px 0 0!important; padding: 0; text-align: center; vertical-align: middle; font: normal 16px 'DB Ozone X'; color:#ffffff; background: #007abc;cursor:pointer;outline:0 none;border:0 none;-webkit-appearance: none;",
        "isCustomCSSEnabled": true,
        "isForked": true
    },
    "spawinphone8": {
        "customCSS": "width: 106px!important; height: 24px!important; margin: 0 1px 0 0!important; padding: 0; text-align: center; vertical-align: middle; font: normal 16px 'DB Ozone X'; color:#ffffff; background: #007abc;cursor:pointer;outline:0 none;border:0 none;-webkit-appearance: none;",
        "isCustomCSSEnabled": true,
        "isForked": true
    },
    "text_shadow": {
        "br": 0,
        "color": "000000",
        "x": 0,
        "y": 0
    },
    "top_left_border_color": "000000ff",
    "top_left_border_radius": 10,
    "top_left_border_width": 0,
    "top_right_border_color": "000000ff",
    "top_right_border_radius": 10,
    "top_right_border_width": 0,
    "use_native": "false",
    "vizChannel": "default",
    "wType": "Button"
}