{
  "android": {
    "applicableblockedUIWidget": "Button",
    "background_color": "ffffffff",
    "bg_type": "one",
    "blockedimgURL": "",
    "border_color": "007abcff",
    "border_style": "rc",
    "border_type": 0,
    "border_width": 1,
    "bottom_left_border_color": "000000ff",
    "bottom_left_border_radius": 10,
    "bottom_left_border_width": 0,
    "bottom_right_border_color": "000000ff",
    "bottom_right_border_radius": 10,
    "bottom_right_border_width": 0,
    "font_color": "007abcff",
    "font_name": "DBOzoneX",
    "font_size": 171,
    "font_weight": "normal",
    "isForked": true,
    "top_left_border_color": "000000ff",
    "top_left_border_radius": 10,
    "top_left_border_width": 0,
    "top_right_border_color": "000000ff",
    "top_right_border_radius": 10,
    "top_right_border_width": 0,
    "vizChannel": "android",
    "wType": "Button"
  },
  "androidwearos": {
    "border_style": "rc",
    "isForked": true
  },
  "applicableblockedUIWidget": "Button",
  "background_color": "ffffff00",
  "bg_type": "one",
  "blockedimgURL": "",
  "border_color": "007abc00",
  "border_style": "plain",
  "border_type": 0,
  "border_width": 50,
  "bottom_left_border_color": "000000ff",
  "bottom_left_border_radius": 10,
  "bottom_left_border_width": 0,
  "bottom_right_border_color": "000000ff",
  "bottom_right_border_radius": 10,
  "bottom_right_border_width": 0,
  "desktopweb": {
    "background_color": "ffffffff",
    "bg_type": "one",
    "font_name": "Andale Mono",
    "font_size": 171,
    "isForked": true
  },
  "fontSizeInPx": false,
  "font_color": "007abcff",
  "font_size": 120,
  "font_weight": "normal",
  "gridLineColor": "0000000",
  "ipad": {
    "background_color": "ffffffff",
    "bg_type": "one",
    "border_color": "007abcff",
    "border_style": "rc",
    "border_type": 0,
    "border_width": 1,
    "font_name": "AmericanTypewriter",
    "font_size": 171,
    "isForked": true
  },
  "iphone": {
    "applicableblockedUIWidget": "Button",
    "background_color": "ffffffff",
    "bg_type": "one",
    "blockedimgURL": "",
    "border_color": "007abcff",
    "border_style": "rc",
    "border_type": 0,
    "border_width": 1,
    "bottom_left_border_color": "000000ff",
    "bottom_left_border_radius": 10,
    "bottom_left_border_width": 0,
    "bottom_right_border_color": "000000ff",
    "bottom_right_border_radius": 10,
    "bottom_right_border_width": 0,
    "font_color": "007abcff",
    "font_name": "DBOzoneX",
    "font_size": 171,
    "font_weight": "normal",
    "isForked": true,
    "top_left_border_color": "000000ff",
    "top_left_border_radius": 10,
    "top_left_border_width": 0,
    "top_right_border_color": "000000ff",
    "top_right_border_radius": 10,
    "top_right_border_width": 0,
    "vizChannel": "iphone",
    "wType": "Button"
  },
  "isDefaultSkin": false,
  "isForked": false,
  "kiosk": {
    "background_color": "ffffffff",
    "bg_type": "one",
    "border_color": "007abcff",
    "border_style": "rc",
    "border_type": 0,
    "border_width": 1,
    "font_name": "GenericMonospace",
    "font_size": 171,
    "isForked": true
  },
  "kuid": "s62a15131f344f3c9e5419d47e70fade",
  "shadow": {
    "br": 0,
    "color": "000000",
    "inner": false,
    "x": 0,
    "y": 0
  },
  "spaan": {
    "background_color": "ffffffff",
    "bg_type": "one",
    "font_name": "DBOzoneX",
    "font_size": 171,
    "isForked": true
  },
  "spaandroidtablet": {
    "background_color": "ffffffff",
    "bg_type": "one",
    "font_name": "Andale Mono",
    "font_size": 171,
    "isForked": true
  },
  "spabb": {
    "background_color": "ffffffff",
    "bg_type": "one",
    "border_style": "rc",
    "font_name": "DBOzoneX",
    "font_size": 171,
    "isForked": true
  },
  "spaip": {
    "background_color": "ffffffff",
    "bg_type": "one",
    "font_name": "DBOzoneX",
    "font_size": 171,
    "isForked": true
  },
  "spaipad": {
    "background_color": "ffffffff",
    "bg_type": "one",
    "font_name": "Andale Mono",
    "font_size": 171,
    "isForked": true
  },
  "spawindowstablet": {
    "background_color": "ffffffff",
    "bg_type": "one",
    "font_name": "Andale Mono",
    "font_size": 171,
    "isForked": true
  },
  "spawinphone8": {
    "background_color": "ffffffff",
    "bg_type": "one",
    "font_name": "Andale Mono",
    "font_size": 171,
    "isForked": true
  },
  "tabrcandroid": {
    "background_color": "ffffffff",
    "bg_type": "one",
    "border_color": "007abcff",
    "border_style": "rc",
    "border_type": 0,
    "border_width": 1,
    "font_name": "default",
    "font_size": 171,
    "isForked": true
  },
  "text_shadow": {
    "br": 0,
    "color": "000000",
    "x": 0,
    "y": 0
  },
  "top_left_border_color": "000000ff",
  "top_left_border_radius": 10,
  "top_left_border_width": 0,
  "top_right_border_color": "000000ff",
  "top_right_border_radius": 10,
  "top_right_border_width": 0,
  "vizChannel": "default",
  "wType": "Button",
  "watchos": {
    "background_color": "ffffffff",
    "bg_type": "one",
    "font_name": "Arial",
    "font_size": 171,
    "isForked": true
  },
  "windows8": {
    "background_color": "ffffffff",
    "bg_type": "one",
    "border_color": "007abcff",
    "border_style": "rc",
    "border_type": 0,
    "border_width": 1,
    "font_name": "GenericMonospace",
    "font_size": 171,
    "isForked": true
  },
  "winphone8": {
    "background_color": "ffffffff",
    "bg_type": "one",
    "border_color": "007abcff",
    "border_style": "rc",
    "border_type": 0,
    "border_width": 1,
    "font_name": "GenericMonospace",
    "font_size": 171,
    "isForked": true
  }
}