{
  "background_color": "000000ff",
  "bg_type": "one",
  "border_color": "000000ff",
  "border_radius": 0,
  "border_style": "custom",
  "border_type": 0,
  "border_width": 0,
  "font_color": "000000ff",
  "font_name": "Arial",
  "font_size": 100,
  "font_style": "normal",
  "font_weight": "normal",
  "isDefaultSkin": false,
  "kuid": "sb9f9a23779f4782a81354c32f5e2433",
  "wType": "Group"
}