{
    "applicableblockedUIWidget": "Button",
    "background_color": "ffffff00",
    "background_style": "vg",
    "bg_type": "one",
    "blockedimgURL": "",
    "border_color": "000000ff",
    "border_radius": 0,
    "border_style": "plain",
    "border_type": 0,
    "border_width": 0,
    "bottom_left_border_color": "000000ff",
    "bottom_left_border_radius": 10,
    "bottom_left_border_width": 0,
    "bottom_right_border_color": "000000ff",
    "bottom_right_border_radius": 10,
    "bottom_right_border_width": 0,
    "desktopweb": {
        "customCSS": ".footerLinkHPNewEN {     display: inline-block;     font: normal 18px/20px 'DB Ozone X Med';     color: #FFFFFF;     text-align: left;    vertical-align: text-bottom;     background: url(./images/hot.png) left center no-repeat ,url(./images/hot_new.png) right top no-repeat;     padding: 0 0 0 20px!important;     margin: 0 10px 0 0!important;     outline: 0 none;     border: 0 none;     cursor: pointer;     width: 99px; }",
        "isCustomCSSEnabled": true,
        "isForked": true
    },
    "font_color": "000000ff",
    "font_size": 100,
    "font_weight": "normal",
    "gridLineColor": "0000000",
    "id": "footerLinkHPNewEN",
    "isForked": false,
    "kuid": "sb66f960ae2748d3bfc377485e256b03",
    "shadow": {
        "br": 0,
        "color": "000000",
        "inner": false,
        "x": 0,
        "y": 0
    },
    "spaan": {
        "customCSS": ".footerLinkHPNewEN {     display: inline-block;     font: normal 18px/20px 'DB Ozone X Med';     color: #FFFFFF;     text-align: left;    vertical-align: text-bottom;     background: url(./images/hot.png) left center no-repeat ,url(./images/hot_new.png) right top no-repeat;     padding: 0 0 0 20px!important;     margin: 0 10px 0 0!important;     outline: 0 none;     border: 0 none;     cursor: pointer;     width: 99px; }",
        "isCustomCSSEnabled": true,
        "isForked": true
    },
    "spaandroidtablet": {
        "customCSS": ".footerLinkHPNewEN {     display: inline-block;     font: normal 18px/20px 'DB Ozone X Med';     color: #FFFFFF;     text-align: left;    vertical-align: text-bottom;     background: url(./images/hot.png) left center no-repeat ,url(./images/hot_new.png) right top no-repeat;     padding: 0 0 0 20px!important;     margin: 0 10px 0 0!important;     outline: 0 none;     border: 0 none;     cursor: pointer;     width: 99px; }",
        "isCustomCSSEnabled": true,
        "isForked": true
    },
    "spabb": {
        "customCSS": ".footerLinkHPNewEN {     display: inline-block;     font: normal 18px/20px 'DB Ozone X Med';     color: #FFFFFF;     text-align: left;    vertical-align: text-bottom;     background: url(./images/hot.png) left center no-repeat ,url(./images/hot_new.png) right top no-repeat;     padding: 0 0 0 20px!important;     margin: 0 10px 0 0!important;     outline: 0 none;     border: 0 none;     cursor: pointer;     width: 99px; }",
        "isCustomCSSEnabled": true,
        "isForked": true
    },
    "spaip": {
        "customCSS": ".footerLinkHPNewEN {     display: inline-block;     font: normal 18px/20px 'DB Ozone X Med';     color: #FFFFFF;     text-align: left;    vertical-align: text-bottom;     background: url(./images/hot.png) left center no-repeat ,url(./images/hot_new.png) right top no-repeat;     padding: 0 0 0 20px!important;     margin: 0 10px 0 0!important;     outline: 0 none;     border: 0 none;     cursor: pointer;     width: 99px; }",
        "isCustomCSSEnabled": true,
        "isForked": true
    },
    "spaipad": {
        "customCSS": ".footerLinkHPNewEN {     display: inline-block;     font: normal 18px/20px 'DB Ozone X Med';     color: #FFFFFF;     text-align: left;    vertical-align: text-bottom;     background: url(./images/hot.png) left center no-repeat ,url(./images/hot_new.png) right top no-repeat;     padding: 0 0 0 20px!important;     margin: 0 10px 0 0!important;     outline: 0 none;     border: 0 none;     cursor: pointer;     width: 99px; }",
        "isCustomCSSEnabled": true,
        "isForked": true
    },
    "spawindowstablet": {
        "customCSS": ".footerLinkHPNewEN {     display: inline-block;     font: normal 18px/20px 'DB Ozone X Med';     color: #FFFFFF;     text-align: left;    vertical-align: text-bottom;     background: url(./images/hot.png) left center no-repeat ,url(./images/hot_new.png) right top no-repeat;     padding: 0 0 0 20px!important;     margin: 0 10px 0 0!important;     outline: 0 none;     border: 0 none;     cursor: pointer;     width: 99px; }",
        "isCustomCSSEnabled": true,
        "isForked": true
    },
    "spawinphone8": {
        "customCSS": ".footerLinkHPNewEN {     display: inline-block;     font: normal 18px/20px 'DB Ozone X Med';     color: #FFFFFF;     text-align: left;    vertical-align: text-bottom;     background: url(./images/hot.png) left center no-repeat ,url(./images/hot_new.png) right top no-repeat;     padding: 0 0 0 20px!important;     margin: 0 10px 0 0!important;     outline: 0 none;     border: 0 none;     cursor: pointer;     width: 99px; }",
        "isCustomCSSEnabled": true,
        "isForked": true
    },
    "text_shadow": {
        "br": 0,
        "color": "000000",
        "x": 0,
        "y": 0
    },
    "top_left_border_color": "000000ff",
    "top_left_border_radius": 10,
    "top_left_border_width": 0,
    "top_right_border_color": "000000ff",
    "top_right_border_radius": 10,
    "top_right_border_width": 0,
    "use_native": "false",
    "vizChannel": "default",
    "wType": "Link"
}