{
  "android": {
    "background_image": "card_topbrass_small.png",
    "bg_type": "image"
  },
  "applicableblockedUIWidget": "Button",
  "background_image": "templatetwo.png",
  "background_left_image": "templatetwo.png",
  "bg_type": "image",
  "blockedimgURL": "",
  "border_color": "000000ff",
  "border_style": "plain",
  "border_type": 0,
  "border_width": 0,
  "bottom_left_border_color": "000000ff",
  "bottom_left_border_radius": 10,
  "bottom_left_border_width": 0,
  "bottom_right_border_color": "000000ff",
  "bottom_right_border_radius": 10,
  "bottom_right_border_width": 0,
  "font_color": "000000ff",
  "font_size": 100,
  "font_weight": "normal",
  "gridLineColor": "0000000",
  "iphone": {
    "background_image": "card_topbrass_ip.png",
    "bg_type": "image"
  },
  "isDefaultSkin": false,
  "isForked": false,
  "kuid": "scf3f8a594f94549bafaa225faced9fb",
  "shadow": {
    "br": 0,
    "color": "000000",
    "inner": false,
    "x": 0,
    "y": 0
  },
  "text_shadow": {
    "br": 0,
    "color": "000000",
    "x": 0,
    "y": 0
  },
  "top_left_border_color": "000000ff",
  "top_left_border_radius": 10,
  "top_left_border_width": 0,
  "top_right_border_color": "000000ff",
  "top_right_border_radius": 10,
  "top_right_border_width": 0,
  "vizChannel": "default",
  "wType": "HBox"
}