{
    "applicableblockedUIWidget": "Button",
    "background_color": "ffffff00",
    "background_style": "vg",
    "bg_type": "one",
    "blockedimgURL": "",
    "border_color": "000000ff",
    "border_radius": 0,
    "border_style": "plain",
    "border_type": 0,
    "border_width": 0,
    "bottom_left_border_color": "000000ff",
    "bottom_left_border_radius": 10,
    "bottom_left_border_width": 0,
    "bottom_right_border_color": "000000ff",
    "bottom_right_border_radius": 10,
    "bottom_right_border_width": 0,
    "desktopweb": {
        "customCSS": "background:#FFFFFF url(./images/arrow.png) 275px center no-repeat; border-bottom:solid 1px #BEBEBE; padding:10px!important; margin:0!important; color:#424242;",
        "isCustomCSSEnabled": true,
        "isForked": true
    },
    "font_color": "000000ff",
    "font_size": 100,
    "font_weight": "normal",
    "gridLineColor": "0000000",
    "id": "hbxNormal",
    "isForked": false,
    "kuid": "s18249518368466487b0188287bbf27c",
    "shadow": {
        "br": 0,
        "color": "000000",
        "inner": false,
        "x": 0,
        "y": 0
    },
    "spaan": {
        "customCSS": "background:#FFFFFF url(./images/arrow.png) 275px center no-repeat; border-bottom:solid 1px #BEBEBE; padding:10px!important; margin:0!important; color:#424242;",
        "isCustomCSSEnabled": true,
        "isForked": true
    },
    "spaandroidtablet": {
        "customCSS": "background:#FFFFFF url(./images/arrow.png) 275px center no-repeat; border-bottom:solid 1px #BEBEBE; padding:10px!important; margin:0!important; color:#424242;",
        "isCustomCSSEnabled": true,
        "isForked": true
    },
    "spabb": {
        "customCSS": "background:#FFFFFF url(./images/arrow.png) 275px center no-repeat; border-bottom:solid 1px #BEBEBE; padding:10px!important; margin:0!important; color:#424242;",
        "isCustomCSSEnabled": true,
        "isForked": true
    },
    "spaip": {
        "customCSS": "background:#FFFFFF url(./images/arrow.png) 275px center no-repeat; border-bottom:solid 1px #BEBEBE; padding:10px!important; margin:0!important; color:#424242;",
        "isCustomCSSEnabled": true,
        "isForked": true
    },
    "spaipad": {
        "customCSS": "background:#FFFFFF url(./images/arrow.png) 275px center no-repeat; border-bottom:solid 1px #BEBEBE; padding:10px!important; margin:0!important; color:#424242;",
        "isCustomCSSEnabled": true,
        "isForked": true
    },
    "spawindowstablet": {
        "customCSS": "background:#FFFFFF url(./images/arrow.png) 275px center no-repeat; border-bottom:solid 1px #BEBEBE; padding:10px!important; margin:0!important; color:#424242;",
        "isCustomCSSEnabled": true,
        "isForked": true
    },
    "spawinphone8": {
        "customCSS": "background:#FFFFFF url(./images/arrow.png) 275px center no-repeat; border-bottom:solid 1px #BEBEBE; padding:10px!important; margin:0!important; color:#424242;",
        "isCustomCSSEnabled": true,
        "isForked": true
    },
    "text_shadow": {
        "br": 0,
        "color": "000000",
        "x": 0,
        "y": 0
    },
    "top_left_border_color": "000000ff",
    "top_left_border_radius": 10,
    "top_left_border_width": 0,
    "top_right_border_color": "000000ff",
    "top_right_border_radius": 10,
    "top_right_border_width": 0,
    "use_native": "false",
    "vizChannel": "default",
    "wType": "HBox"
}