{
  "android": {
    "font_name": "DBOzoneX"
  },
  "applicableblockedUIWidget": "Button",
  "background_color": "03a552ff",
  "bg_type": "one",
  "blockedimgURL": "",
  "border_color": "ffffffff",
  "border_radius": 50,
  "border_style": "custom",
  "border_type": 0,
  "border_width": 1,
  "bottom_left_border_color": "000000ff",
  "bottom_left_border_radius": 10,
  "bottom_left_border_width": 0,
  "bottom_right_border_color": "000000ff",
  "bottom_right_border_radius": 10,
  "bottom_right_border_width": 0,
  "desktopweb": {
    "applicableblockedUIWidget": "Button",
    "backgroundSize": false,
    "background_color": "ffffff00",
    "background_style": "vg",
    "bg_type": "one",
    "blockedimgURL": "",
    "border_color": "000000ff",
    "border_radius": 0,
    "border_style": "plain",
    "border_type": 0,
    "border_width": 0,
    "bottom_left_border_color": "000000ff",
    "bottom_left_border_radius": 10,
    "bottom_left_border_style": "plain",
    "bottom_left_border_width": 0,
    "bottom_right_border_color": "000000ff",
    "bottom_right_border_radius": 10,
    "bottom_right_border_style": "plain",
    "bottom_right_border_width": 0,
    "customCSS": ".lblIB16pxWhite{font:normal 16px/16px 'DB Ozone X'; color:#FFFFFF;}",
    "font_color": "ffffffff",
    "font_name": "DB Ozone X",
    "font_size": 100,
    "font_weight": "normal",
    "gridLineColor": "0000000",
    "isCustomCSSEnabled": true,
    "isForked": true,
    "psp": {},
    "repeatImageHorizontally": false,
    "repeatImageVertically": false,
    "shadow": {
      "br": 0,
      "color": "000000",
      "inner": false,
      "x": 0,
      "y": 0
    },
    "text_shadow": {
      "br": 0,
      "color": "000000",
      "x": 0,
      "y": 0
    },
    "top_left_border_color": "000000ff",
    "top_left_border_radius": 10,
    "top_left_border_style": "plain",
    "top_left_border_width": 0,
    "top_right_border_color": "000000ff",
    "top_right_border_radius": 10,
    "top_right_border_style": "plain",
    "top_right_border_width": 0,
    "use_native": "false",
    "vizChannel": "desktopweb",
    "wType": "Label"
  },
  "font_color": "ffffffff",
  "font_size": 100,
  "font_weight": "normal",
  "gridLineColor": "0000000",
  "ipad": {
    "font_name": "AmericanTypewriter"
  },
  "iphone": {
    "font_name": "DBOzoneX"
  },
  "isDefaultSkin": false,
  "isForked": false,
  "kiosk": {
    "font_name": "GenericMonospace"
  },
  "kuid": "sfed44d9b5d24a14b16db616161ea209",
  "shadow": {
    "br": 0,
    "color": "000000",
    "inner": false,
    "x": 0,
    "y": 0
  },
  "spaan": {
    "font_name": "Andale Mono"
  },
  "spaandroidtablet": {
    "font_name": "Andale Mono"
  },
  "spabb": {
    "font_name": "Andale Mono"
  },
  "spaip": {
    "font_name": "Andale Mono"
  },
  "spaipad": {
    "font_name": "Andale Mono"
  },
  "spawindowstablet": {
    "font_name": "Andale Mono"
  },
  "spawinphone8": {
    "font_name": "Andale Mono"
  },
  "tabrcandroid": {
    "font_name": "default"
  },
  "text_shadow": {
    "br": 0,
    "color": "000000",
    "x": 0,
    "y": 0
  },
  "top_left_border_color": "000000ff",
  "top_left_border_radius": 10,
  "top_left_border_width": 0,
  "top_right_border_color": "000000ff",
  "top_right_border_radius": 10,
  "top_right_border_width": 0,
  "vizChannel": "default",
  "wType": "Label",
  "watchos": {
    "font_name": "Arial"
  },
  "windows8": {
    "font_name": "GenericMonospace"
  },
  "winphone8": {
    "font_name": "GenericMonospace"
  }
}