{
  "android": {
    "applicableblockedUIWidget": "Button",
    "background_color": "ffffffff",
    "bg_type": "one",
    "blockedimgURL": "",
    "border_color": "007abcff",
    "border_style": "custom",
    "border_type": 0,
    "border_width": 1,
    "bottom_left_border_color": "000000ff",
    "bottom_left_border_radius": 20,
    "bottom_left_border_width": 0,
    "bottom_right_border_color": "000000ff",
    "bottom_right_border_radius": 20,
    "bottom_right_border_width": 0,
    "font_color": "007abcff",
    "font_name": "DBOzoneX",
    "font_size": 125,
    "font_weight": "normal",
    "gridLineColor": "0000000",
    "isCustomCSSEnabled": false,
    "isForked": true,
    "psp": {},
    "shadow": {
      "br": 0,
      "color": "000000",
      "inner": false,
      "x": 0,
      "y": 0
    },
    "text_shadow": {
      "br": 0,
      "color": "000000",
      "x": 0,
      "y": 0
    },
    "top_left_border_color": "000000ff",
    "top_left_border_radius": 20,
    "top_left_border_width": 0,
    "top_right_border_color": "000000ff",
    "top_right_border_radius": 20,
    "top_right_border_width": 0,
    "vizChannel": "android",
    "wType": "Button"
  },
  "androidwearos": {
    "background_color": "ffffffff",
    "bg_type": "one",
    "font_color": "007abcff",
    "font_size": 125,
    "isForked": true
  },
  "applicableblockedUIWidget": "Button",
  "background_color": "007abcff",
  "bg_type": "one",
  "blockedimgURL": "",
  "border_color": "007abcff",
  "border_radius": 15,
  "border_style": "custom",
  "border_type": 0,
  "border_width": 5,
  "bottom_left_border_color": "000000ff",
  "bottom_left_border_radius": 10,
  "bottom_left_border_width": 0,
  "bottom_right_border_color": "000000ff",
  "bottom_right_border_radius": 10,
  "bottom_right_border_width": 0,
  "desktopweb": {
    "applicableblockedUIWidget": "Button",
    "background_color": "ffffffff",
    "bg_type": "one",
    "blockedimgURL": "",
    "border_color": "000000ff",
    "border_style": "plain",
    "border_type": 0,
    "border_width": 0,
    "bottom_left_border_color": "007abcff",
    "bottom_left_border_radius": 10,
    "bottom_left_border_style": "rc",
    "bottom_left_border_width": "1",
    "bottom_right_border_color": "007abcff",
    "bottom_right_border_style": "plain",
    "bottom_right_border_width": "1",
    "font_color": "007abcff",
    "font_name": "DB Ozone X",
    "font_size": 125,
    "font_weight": "normal",
    "gridLineColor": "0000000",
    "isCustomCSSEnabled": false,
    "isForked": true,
    "psp": {},
    "shadow": {
      "br": 0,
      "color": "000000",
      "inner": false,
      "x": 0,
      "y": 0
    },
    "text_shadow": {
      "br": 0,
      "color": "000000",
      "x": 0,
      "y": 0
    },
    "top_left_border_color": "007ac6ff",
    "top_left_border_radius": 10,
    "top_left_border_style": "rc",
    "top_left_border_width": "1",
    "top_right_border_color": "007abcff",
    "top_right_border_style": "plain",
    "top_right_border_width": "1",
    "vizChannel": "desktopweb",
    "wType": "Button"
  },
  "fontSizeInPx": false,
  "font_color": "ffffffff",
  "font_size": 200,
  "font_weight": "normal",
  "gridLineColor": "0000000",
  "ipad": {
    "background_color": "ffffffff",
    "bg_type": "one",
    "border_color": "007abcff",
    "border_radius": 20,
    "border_style": "custom",
    "border_type": 0,
    "border_width": 1,
    "font_color": "007abcff",
    "font_size": 125,
    "isForked": true
  },
  "iphone": {
    "applicableblockedUIWidget": "Button",
    "background_color": "ffffffff",
    "bg_type": "one",
    "blockedimgURL": "",
    "border_color": "007abcff",
    "border_radius": 20,
    "border_style": "custom",
    "border_type": 0,
    "border_width": 1,
    "bottom_left_border_color": "000000ff",
    "bottom_left_border_radius": 10,
    "bottom_left_border_width": 0,
    "bottom_right_border_color": "000000ff",
    "bottom_right_border_radius": 10,
    "bottom_right_border_width": 0,
    "font_color": "007abcff",
    "font_name": "DBOzoneX",
    "font_size": 125,
    "font_weight": "normal",
    "gridLineColor": "0000000",
    "isCustomCSSEnabled": false,
    "isForked": true,
    "psp": {},
    "shadow": {
      "br": 0,
      "color": "000000",
      "inner": false,
      "x": 0,
      "y": 0
    },
    "text_shadow": {
      "br": 0,
      "color": "000000",
      "x": 0,
      "y": 0
    },
    "top_left_border_color": "000000ff",
    "top_left_border_radius": 10,
    "top_left_border_width": 0,
    "top_right_border_color": "000000ff",
    "top_right_border_radius": 10,
    "top_right_border_width": 0,
    "vizChannel": "iphone",
    "wType": "Button"
  },
  "isDefaultSkin": false,
  "isForked": false,
  "kiosk": {
    "background_color": "ffffffff",
    "bg_type": "one",
    "border_color": "007abcff",
    "border_radius": 20,
    "border_style": "custom",
    "border_type": 0,
    "border_width": 1,
    "font_color": "007abcff",
    "font_size": 125,
    "isForked": true
  },
  "kuid": "sc93c6ee9e224b65b5a6204cdf8016e8",
  "shadow": {
    "br": 0,
    "color": "000000",
    "inner": false,
    "x": 0,
    "y": 0
  },
  "spaan": {
    "applicableblockedUIWidget": "Button",
    "background_color": "ffffffff",
    "bg_type": "one",
    "blockedimgURL": "",
    "border_color": "000000ff",
    "border_style": "plain",
    "border_type": 0,
    "border_width": 0,
    "bottom_left_border_color": "007abcff",
    "bottom_left_border_radius": 10,
    "bottom_left_border_style": "rc",
    "bottom_left_border_width": "1",
    "bottom_right_border_color": "007abcff",
    "bottom_right_border_style": "plain",
    "bottom_right_border_width": "1",
    "font_color": "007abcff",
    "font_name": "DBOzoneX",
    "font_size": 125,
    "font_weight": "normal",
    "gridLineColor": "0000000",
    "isCustomCSSEnabled": false,
    "isForked": true,
    "psp": {},
    "shadow": {
      "br": 0,
      "color": "000000",
      "inner": false,
      "x": 0,
      "y": 0
    },
    "text_shadow": {
      "br": 0,
      "color": "000000",
      "x": 0,
      "y": 0
    },
    "top_left_border_color": "007ac6ff",
    "top_left_border_radius": 10,
    "top_left_border_style": "rc",
    "top_left_border_width": "1",
    "top_right_border_color": "007abcff",
    "top_right_border_radius": 4,
    "top_right_border_style": "rc",
    "top_right_border_width": "1",
    "vizChannel": "spaan",
    "wType": "Button"
  },
  "spaandroidtablet": {
    "background_color": "ffffffff",
    "bg_type": "one",
    "border_type": 0,
    "bottom_left_border_color": "007abcff",
    "bottom_left_border_radius": 10,
    "bottom_left_border_style": "rc",
    "bottom_left_border_width": "1",
    "bottom_right_border_color": "007abcff",
    "bottom_right_border_style": "plain",
    "bottom_right_border_width": "1",
    "font_color": "007abcff",
    "font_size": 125,
    "isForked": true,
    "top_left_border_color": "007ac6ff",
    "top_left_border_radius": 10,
    "top_left_border_style": "rc",
    "top_left_border_width": "1",
    "top_right_border_color": "007abcff",
    "top_right_border_width": "1"
  },
  "spabb": {
    "applicableblockedUIWidget": "Button",
    "background_color": "ffffffff",
    "bg_type": "one",
    "blockedimgURL": "",
    "border_color": "000000ff",
    "border_style": "plain",
    "border_type": 0,
    "border_width": 0,
    "bottom_left_border_color": "007abcff",
    "bottom_left_border_radius": 10,
    "bottom_left_border_style": "rc",
    "bottom_left_border_width": "1",
    "bottom_right_border_color": "007abcff",
    "bottom_right_border_style": "plain",
    "bottom_right_border_width": "1",
    "font_color": "007abcff",
    "font_name": "DBOzoneX",
    "font_size": 125,
    "font_weight": "normal",
    "gridLineColor": "0000000",
    "isCustomCSSEnabled": false,
    "isForked": true,
    "psp": {},
    "shadow": {
      "br": 0,
      "color": "000000",
      "inner": false,
      "x": 0,
      "y": 0
    },
    "text_shadow": {
      "br": 0,
      "color": "000000",
      "x": 0,
      "y": 0
    },
    "top_left_border_color": "007ac6ff",
    "top_left_border_radius": 10,
    "top_left_border_style": "rc",
    "top_left_border_width": "1",
    "top_right_border_color": "007abcff",
    "top_right_border_radius": 4,
    "top_right_border_style": "rc",
    "top_right_border_width": "1",
    "vizChannel": "spabb",
    "wType": "Button"
  },
  "spaip": {
    "applicableblockedUIWidget": "Button",
    "background_color": "ffffffff",
    "bg_type": "one",
    "blockedimgURL": "",
    "border_color": "000000ff",
    "border_style": "plain",
    "border_type": 0,
    "border_width": 0,
    "bottom_left_border_color": "007abcff",
    "bottom_left_border_radius": 10,
    "bottom_left_border_style": "rc",
    "bottom_left_border_width": "1",
    "bottom_right_border_color": "007abcff",
    "bottom_right_border_style": "plain",
    "bottom_right_border_width": "1",
    "font_color": "007abcff",
    "font_name": "DBOzoneX",
    "font_size": 125,
    "font_weight": "normal",
    "gridLineColor": "0000000",
    "isCustomCSSEnabled": false,
    "isForked": true,
    "psp": {},
    "shadow": {
      "br": 0,
      "color": "000000",
      "inner": false,
      "x": 0,
      "y": 0
    },
    "text_shadow": {
      "br": 0,
      "color": "000000",
      "x": 0,
      "y": 0
    },
    "top_left_border_color": "007ac6ff",
    "top_left_border_radius": 10,
    "top_left_border_style": "rc",
    "top_left_border_width": "1",
    "top_right_border_color": "007abcff",
    "top_right_border_radius": 4,
    "top_right_border_style": "rc",
    "top_right_border_width": "1",
    "vizChannel": "spaip",
    "wType": "Button"
  },
  "spaipad": {
    "background_color": "ffffffff",
    "bg_type": "one",
    "border_type": 0,
    "bottom_left_border_color": "007abcff",
    "bottom_left_border_radius": 10,
    "bottom_left_border_style": "rc",
    "bottom_left_border_width": "1",
    "bottom_right_border_color": "007abcff",
    "bottom_right_border_style": "plain",
    "bottom_right_border_width": "1",
    "font_color": "007abcff",
    "font_size": 125,
    "isForked": true,
    "top_left_border_color": "007ac6ff",
    "top_left_border_radius": 10,
    "top_left_border_style": "rc",
    "top_left_border_width": "1",
    "top_right_border_color": "007abcff",
    "top_right_border_width": "1"
  },
  "spawindowstablet": {
    "background_color": "ffffffff",
    "bg_type": "one",
    "border_type": 0,
    "bottom_left_border_color": "007abcff",
    "bottom_left_border_radius": 10,
    "bottom_left_border_style": "rc",
    "bottom_left_border_width": "1",
    "bottom_right_border_color": "007abcff",
    "bottom_right_border_style": "plain",
    "bottom_right_border_width": "1",
    "font_color": "007abcff",
    "font_size": 125,
    "isForked": true,
    "top_left_border_color": "007ac6ff",
    "top_left_border_radius": 10,
    "top_left_border_style": "rc",
    "top_left_border_width": "1",
    "top_right_border_color": "007abcff",
    "top_right_border_width": "1"
  },
  "spawinphone8": {
    "background_color": "ffffffff",
    "bg_type": "one",
    "border_type": 0,
    "bottom_left_border_color": "007abcff",
    "bottom_left_border_radius": 10,
    "bottom_left_border_style": "rc",
    "bottom_left_border_width": "1",
    "bottom_right_border_color": "007abcff",
    "bottom_right_border_style": "plain",
    "bottom_right_border_width": "1",
    "font_color": "007abcff",
    "font_size": 125,
    "isForked": true,
    "top_left_border_color": "007ac6ff",
    "top_left_border_radius": 10,
    "top_left_border_style": "rc",
    "top_left_border_width": "1",
    "top_right_border_color": "007abcff",
    "top_right_border_width": "1"
  },
  "tabrcandroid": {
    "background_color": "ffffffff",
    "bg_type": "one",
    "border_color": "007abcff",
    "border_style": "custom",
    "border_type": 0,
    "border_width": 1,
    "bottom_left_border_radius": 20,
    "bottom_right_border_radius": 20,
    "font_color": "007abcff",
    "font_size": 125,
    "isForked": true,
    "top_left_border_radius": 20,
    "top_right_border_radius": 20
  },
  "text_shadow": {
    "br": 0,
    "color": "000000",
    "x": 0,
    "y": 0
  },
  "top_left_border_color": "000000ff",
  "top_left_border_radius": 10,
  "top_left_border_width": 0,
  "top_right_border_color": "000000ff",
  "top_right_border_radius": 10,
  "top_right_border_width": 0,
  "vizChannel": "default",
  "wType": "Button",
  "watchos": {
    "background_color": "ffffffff",
    "bg_type": "one",
    "font_color": "007abcff",
    "font_size": 125,
    "isForked": true
  },
  "windows8": {
    "background_color": "ffffffff",
    "bg_type": "one",
    "border_color": "007abcff",
    "border_style": "custom",
    "border_type": 0,
    "border_width": 1,
    "bottom_left_border_radius": 20,
    "bottom_right_border_radius": 20,
    "font_color": "007abcff",
    "font_size": 125,
    "isForked": true,
    "top_left_border_radius": 20,
    "top_right_border_radius": 20
  },
  "winphone8": {
    "background_color": "ffffffff",
    "bg_type": "one",
    "border_color": "007abcff",
    "border_style": "custom",
    "border_type": 0,
    "border_width": 1,
    "bottom_left_border_radius": 20,
    "bottom_right_border_radius": 20,
    "font_color": "007abcff",
    "font_size": 125,
    "isForked": true,
    "top_left_border_radius": 20,
    "top_right_border_radius": 20
  }
}