{
  "android": {
    "font_name": "DBOzoneX-Medium",
    "font_size": 175,
    "isForked": false
  },
  "background_color": "00000000",
  "bg_type": "one",
  "border_color": "424242ff",
  "border_style": "plain",
  "border_type": 0,
  "border_width": 0,
  "desktopweb": {
    "font_name": "Helvetica",
    "font_size": 175,
    "isForked": false
  },
  "fontSizeInPx": false,
  "font_color": "ffffffff",
  "font_name": "Helvetica",
  "font_size": 175,
  "font_style": "normal",
  "font_weight": "normal",
  "ipad": {
    "font_name": "Helvetica",
    "font_size": 175,
    "isForked": false
  },
  "iphone": {
    "font_name": "DBOzoneX-Medium",
    "font_size": 175,
    "isForked": false
  },
  "isDefaultSkin": false,
  "kiosk": {
    "font_name": "GenericMonospace",
    "font_size": 175,
    "isForked": false
  },
  "kuid": "se47572f80e746bd85b1626a2b0748d1",
  "spaan": {
    "font_name": "Helvetica",
    "font_size": 175,
    "isForked": false
  },
  "spaandroidtablet": {
    "font_name": "Helvetica",
    "font_size": 175,
    "isForked": false
  },
  "spabb": {
    "font_name": "Helvetica",
    "font_size": 175,
    "isForked": false
  },
  "spaip": {
    "font_name": "Helvetica",
    "font_size": 175,
    "isForked": false
  },
  "spaipad": {
    "font_name": "Helvetica",
    "font_size": 175,
    "isForked": false
  },
  "spawindowstablet": {
    "font_name": "Helvetica",
    "font_size": 175,
    "isForked": false
  },
  "spawinphone8": {
    "font_name": "Helvetica",
    "font_size": 175,
    "isForked": false
  },
  "tabrcandroid": {
    "font_name": "Helvetica",
    "font_size": 175,
    "isForked": false
  },
  "wType": "RichText",
  "watchos": {
    "font_name": "Helvetica",
    "font_size": 175,
    "isForked": false
  },
  "windows8": {
    "font_name": "GenericMonospace",
    "font_size": 175,
    "isForked": false
  },
  "winphone8": {
    "font_name": "GenericMonospace",
    "font_size": 175,
    "isForked": false
  }
}