{
    "applicableblockedUIWidget": "Button",
    "background_color": "ffffff00",
    "background_style": "vg",
    "bg_type": "one",
    "blockedimgURL": "",
    "border_color": "000000ff",
    "border_radius": 0,
    "border_style": "plain",
    "border_type": 0,
    "border_width": 0,
    "bottom_left_border_color": "000000ff",
    "bottom_left_border_radius": 10,
    "bottom_left_border_width": 0,
    "bottom_right_border_color": "000000ff",
    "bottom_right_border_radius": 10,
    "bottom_right_border_width": 0,
    "desktopweb": {
        "customCSS": "font :  normal   normal   20.0px   DB Ozone X Med ;   overflow:auto!important; outline:0 none;                         color: #979797; padding:2px 0px 0px 10px!important;border-bottom:1px solid rgb(192,192,192);",
        "isCustomCSSEnabled": true,
        "isForked": true
    },
    "font_color": "000000ff",
    "font_size": 100,
    "font_weight": "normal",
    "gridLineColor": "0000000",
    "id": "txtAreaContactUs",
    "isForked": false,
    "kuid": "s4ec3b7352174c98b14e0454f49dda12",
    "shadow": {
        "br": 0,
        "color": "000000",
        "inner": false,
        "x": 0,
        "y": 0
    },
    "spaan": {
        "customCSS": "font :  normal   normal   20.0px   DB Ozone X Med ;   overflow:auto!important; outline:0 none;                         color: #979797; padding:2px 0px 0px 10px!important;border-bottom:1px solid rgb(192,192,192);",
        "isCustomCSSEnabled": true,
        "isForked": true
    },
    "spaandroidtablet": {
        "customCSS": "font :  normal   normal   20.0px   DB Ozone X Med ;   overflow:auto!important; outline:0 none;                         color: #979797; padding:2px 0px 0px 10px!important;border-bottom:1px solid rgb(192,192,192);",
        "isCustomCSSEnabled": true,
        "isForked": true
    },
    "spabb": {
        "customCSS": "font :  normal   normal   20.0px   DB Ozone X Med ;   overflow:auto!important; outline:0 none;                         color: #979797; padding:2px 0px 0px 10px!important;border-bottom:1px solid rgb(192,192,192);",
        "isCustomCSSEnabled": true,
        "isForked": true
    },
    "spaip": {
        "customCSS": "font :  normal   normal   20.0px   DB Ozone X Med ;   overflow:auto!important; outline:0 none;                         color: #979797; padding:2px 0px 0px 10px!important;border-bottom:1px solid rgb(192,192,192);",
        "isCustomCSSEnabled": true,
        "isForked": true
    },
    "spaipad": {
        "customCSS": "font :  normal   normal   20.0px   DB Ozone X Med ;   overflow:auto!important; outline:0 none;                         color: #979797; padding:2px 0px 0px 10px!important;border-bottom:1px solid rgb(192,192,192);",
        "isCustomCSSEnabled": true,
        "isForked": true
    },
    "spawindowstablet": {
        "customCSS": "font :  normal   normal   20.0px   DB Ozone X Med ;   overflow:auto!important; outline:0 none;                         color: #979797; padding:2px 0px 0px 10px!important;border-bottom:1px solid rgb(192,192,192);",
        "isCustomCSSEnabled": true,
        "isForked": true
    },
    "spawinphone8": {
        "customCSS": "font :  normal   normal   20.0px   DB Ozone X Med ;   overflow:auto!important; outline:0 none;                         color: #979797; padding:2px 0px 0px 10px!important;border-bottom:1px solid rgb(192,192,192);",
        "isCustomCSSEnabled": true,
        "isForked": true
    },
    "text_shadow": {
        "br": 0,
        "color": "000000",
        "x": 0,
        "y": 0
    },
    "top_left_border_color": "000000ff",
    "top_left_border_radius": 10,
    "top_left_border_width": 0,
    "top_right_border_color": "000000ff",
    "top_right_border_radius": 10,
    "top_right_border_width": 0,
    "use_native": "false",
    "vizChannel": "default",
    "wType": "TextArea"
}