{
  "android": {
    "font_name": "DBOzoneX",
    "font_size": 200,
    "isForked": false
  },
  "background_color": "ddedfaff",
  "bg_type": "one",
  "border_color": "282828ff",
  "border_style": "plain",
  "border_type": 0,
  "border_width": 0,
  "desktopweb": {
    "font_name": "Helvetica",
    "font_size": 200,
    "isForked": false
  },
  "fontSizeInPx": false,
  "font_color": "0071bcff",
  "font_name": "Helvetica",
  "font_size": 200,
  "font_style": "normal",
  "font_weight": "normal",
  "ipad": {
    "font_name": "Helvetica",
    "font_size": 200,
    "isForked": false
  },
  "iphone": {
    "font_name": "DBOzoneX",
    "font_size": 200,
    "isForked": false
  },
  "isDefaultSkin": false,
  "kiosk": {
    "font_name": "GenericMonospace",
    "font_size": 200,
    "isForked": false
  },
  "kuid": "sb241da97f8f4cb3ab233b3fa6646f2a",
  "spaan": {
    "font_name": "Helvetica",
    "font_size": 200,
    "isForked": false
  },
  "spaandroidtablet": {
    "font_name": "Helvetica",
    "font_size": 200,
    "isForked": false
  },
  "spabb": {
    "font_name": "Helvetica",
    "font_size": 200,
    "isForked": false
  },
  "spaip": {
    "font_name": "Helvetica",
    "font_size": 200,
    "isForked": false
  },
  "spaipad": {
    "font_name": "Helvetica",
    "font_size": 200,
    "isForked": false
  },
  "spawindowstablet": {
    "font_name": "Helvetica",
    "font_size": 200,
    "isForked": false
  },
  "spawinphone8": {
    "font_name": "Helvetica",
    "font_size": 200,
    "isForked": false
  },
  "tabrcandroid": {
    "font_name": "Helvetica",
    "font_size": 200,
    "isForked": false
  },
  "wType": "TextField",
  "watchos": {
    "font_name": "Helvetica",
    "font_size": 200,
    "isForked": false
  },
  "windows8": {
    "font_name": "GenericMonospace",
    "font_size": 200,
    "isForked": false
  },
  "winphone8": {
    "font_name": "GenericMonospace",
    "font_size": 200,
    "isForked": false
  }
}