{
    "applicableblockedUIWidget": "Button",
    "background_color": "ffffff00",
    "background_style": "vg",
    "bg_type": "one",
    "blockedimgURL": "",
    "border_color": "000000ff",
    "border_radius": 0,
    "border_style": "plain",
    "border_type": 0,
    "border_width": 0,
    "bottom_left_border_color": "000000ff",
    "bottom_left_border_radius": 10,
    "bottom_left_border_width": 0,
    "bottom_right_border_color": "000000ff",
    "bottom_right_border_radius": 10,
    "bottom_right_border_width": 0,
    "desktopweb": {
        "customCSS": "font:normal 20px 'DB Ozone X Med'; color:#333333; background:#ffffff url(./images/icontextboxsearch.png) 0 center no-repeat;background-position: right; padding:0px 10px 0px 30px!important; margin:0!important; border:0 none; outline:0 none;height: 40px;vertical-align: middle;",
        "isCustomCSSEnabled": true,
        "isForked": true
    },
    "font_color": "000000ff",
    "font_size": 100,
    "font_weight": "normal",
    "gridLineColor": "0000000",
    "id": "txtSearchboxIconNew",
    "isForked": false,
    "kuid": "sac032b690ca4bcbadbcca7814a4ce4e",
    "shadow": {
        "br": 0,
        "color": "000000",
        "inner": false,
        "x": 0,
        "y": 0
    },
    "spaan": {
        "customCSS": "font:normal 20px 'DB Ozone X Med'; color:#333333; background:#ffffff url(./images/icontextboxsearch.png) 0 center no-repeat;background-position: right; padding:0px 10px 0px 30px!important; margin:0!important; border:0 none; outline:0 none;height: 40px;vertical-align: middle;",
        "isCustomCSSEnabled": true,
        "isForked": true
    },
    "spaandroidtablet": {
        "customCSS": "font:normal 20px 'DB Ozone X Med'; color:#333333; background:#ffffff url(./images/icontextboxsearch.png) 0 center no-repeat;background-position: right; padding:0px 10px 0px 30px!important; margin:0!important; border:0 none; outline:0 none;height: 40px;vertical-align: middle;",
        "isCustomCSSEnabled": true,
        "isForked": true
    },
    "spabb": {
        "customCSS": "font:normal 20px 'DB Ozone X Med'; color:#333333; background:#ffffff url(./images/icontextboxsearch.png) 0 center no-repeat;background-position: right; padding:0px 10px 0px 30px!important; margin:0!important; border:0 none; outline:0 none;height: 40px;vertical-align: middle;",
        "isCustomCSSEnabled": true,
        "isForked": true
    },
    "spaip": {
        "customCSS": "font:normal 20px 'DB Ozone X Med'; color:#333333; background:#ffffff url(./images/icontextboxsearch.png) 0 center no-repeat;background-position: right; padding:0px 10px 0px 30px!important; margin:0!important; border:0 none; outline:0 none;height: 40px;vertical-align: middle;",
        "isCustomCSSEnabled": true,
        "isForked": true
    },
    "spaipad": {
        "customCSS": "font:normal 20px 'DB Ozone X Med'; color:#333333; background:#ffffff url(./images/icontextboxsearch.png) 0 center no-repeat;background-position: right; padding:0px 10px 0px 30px!important; margin:0!important; border:0 none; outline:0 none;height: 40px;vertical-align: middle;",
        "isCustomCSSEnabled": true,
        "isForked": true
    },
    "spawindowstablet": {
        "customCSS": "font:normal 20px 'DB Ozone X Med'; color:#333333; background:#ffffff url(./images/icontextboxsearch.png) 0 center no-repeat;background-position: right; padding:0px 10px 0px 30px!important; margin:0!important; border:0 none; outline:0 none;height: 40px;vertical-align: middle;",
        "isCustomCSSEnabled": true,
        "isForked": true
    },
    "spawinphone8": {
        "customCSS": "font:normal 20px 'DB Ozone X Med'; color:#333333; background:#ffffff url(./images/icontextboxsearch.png) 0 center no-repeat;background-position: right; padding:0px 10px 0px 30px!important; margin:0!important; border:0 none; outline:0 none;height: 40px;vertical-align: middle;",
        "isCustomCSSEnabled": true,
        "isForked": true
    },
    "text_shadow": {
        "br": 0,
        "color": "000000",
        "x": 0,
        "y": 0
    },
    "top_left_border_color": "000000ff",
    "top_left_border_radius": 10,
    "top_left_border_width": 0,
    "top_right_border_color": "000000ff",
    "top_right_border_radius": 10,
    "top_right_border_width": 0,
    "use_native": "false",
    "vizChannel": "default",
    "wType": "TextField"
}