{
    "applicableblockedUIWidget": "Button",
    "background_color": "335e7cff",
    "background_style": "vg",
    "bg_type": "one",
    "blockedimgURL": "",
    "border_color": "000000ff",
    "border_radius": 0,
    "border_style": "plain",
    "border_type": 0,
    "border_width": 0,
    "bottom_left_border_color": "000000ff",
    "bottom_left_border_radius": 10,
    "bottom_left_border_width": 0,
    "bottom_right_border_color": "000000ff",
    "bottom_right_border_radius": 10,
    "bottom_right_border_width": 0,
    "desktopweb": {
        "customCSS": " font-size: 0px; background-color : #335e7c;width:360px!important;    padding:15px 20px 20px 20px!important; margin:0!important;",
        "isCustomCSSEnabled": true,
        "isForked": true
    },
    "font_color": "000000ff",
    "font_size": 100,
    "font_weight": "normal",
    "gridLineColor": "0000000",
    "id": "vboxMenuAccSumm",
    "isForked": false,
    "kuid": "s58adc165ed54ba49e65a57d17ee8811",
    "shadow": {
        "br": 0,
        "color": "000000",
        "inner": false,
        "x": 0,
        "y": 0
    },
    "spaan": {
        "customCSS": " font-size: 0px; background-color : #335e7c;width:360px!important;    padding:15px 20px 20px 20px!important; margin:0!important;",
        "isCustomCSSEnabled": true,
        "isForked": true
    },
    "spaandroidtablet": {
        "customCSS": " font-size: 0px; background-color : #335e7c;width:360px!important;    padding:15px 20px 20px 20px!important; margin:0!important;",
        "isCustomCSSEnabled": true,
        "isForked": true
    },
    "spabb": {
        "customCSS": " font-size: 0px; background-color : #335e7c;width:360px!important;    padding:15px 20px 20px 20px!important; margin:0!important;",
        "isCustomCSSEnabled": true,
        "isForked": true
    },
    "spaip": {
        "customCSS": " font-size: 0px; background-color : #335e7c;width:360px!important;    padding:15px 20px 20px 20px!important; margin:0!important;",
        "isCustomCSSEnabled": true,
        "isForked": true
    },
    "spaipad": {
        "customCSS": " font-size: 0px; background-color : #335e7c;width:360px!important;    padding:15px 20px 20px 20px!important; margin:0!important;",
        "isCustomCSSEnabled": true,
        "isForked": true
    },
    "spawindowstablet": {
        "customCSS": " font-size: 0px; background-color : #335e7c;width:360px!important;    padding:15px 20px 20px 20px!important; margin:0!important;",
        "isCustomCSSEnabled": true,
        "isForked": true
    },
    "spawinphone8": {
        "customCSS": " font-size: 0px; background-color : #335e7c;width:360px!important;    padding:15px 20px 20px 20px!important; margin:0!important;",
        "isCustomCSSEnabled": true,
        "isForked": true
    },
    "text_shadow": {
        "br": 0,
        "color": "000000",
        "x": 0,
        "y": 0
    },
    "top_left_border_color": "000000ff",
    "top_left_border_radius": 10,
    "top_left_border_width": 0,
    "top_right_border_color": "000000ff",
    "top_right_border_radius": 10,
    "top_right_border_width": 0,
    "use_native": "false",
    "vizChannel": "default",
    "wType": "VBox"
}