{
    "DNDConfig": null,
    "_enabled_": false,
    "_margin_": [
        0,
        0,
        0,
        2
    ],
    "_padding_": [
        0,
        3,
        0,
        3
    ],
    "_skin_": "s060d2c7732e4ddc941e7342d3a67251",
    "_text_": "Search",
    "canUpdateUI": true,
    "containerweight": 100,
    "contentalignment": 5,
    "desktopweb": {
        "@class": "com.kony.gen.viz.model.component.property.button.DesktopWebButtonProperty",
        "_margin_": [
            0,
            0,
            1,
            4
        ],
        "_padding_": [
            0,
            0,
            0,
            0
        ],
        "displayText": true,
        "margin": [
            0,
            0,
            1,
            4
        ],
        "marginInPixel": false,
        "padding": [
            0,
            0,
            0,
            0
        ],
        "paddingInPixel": false,
        "render": true
    },
    "displaytext": true,
    "focusskin": "s8977b41f4a54bcbb450f3aa1955ec17",
    "hexpand": true,
    "id": "btnSrch",
    "ide_onClick": "p2kwiet2012247639145_btnSrch_onClick_seq0",
    "info": null,
    "isvisible": true,
    "kiosk": {
        "@class": "com.kony.gen.viz.model.component.property.button.KioskButtonProperty",
        "_margin_": [
            0,
            0,
            0,
            2
        ],
        "_padding_": [
            0,
            0,
            0,
            0
        ],
        "margin": [
            0,
            0,
            0,
            2
        ],
        "marginInPixel": false,
        "padding": [
            0,
            0,
            0,
            0
        ],
        "paddingInPixel": false,
        "render": true
    },
    "kuid": "p2kwiet2012247639110",
    "margininpixel": false,
    "name": "kony.ui.Button",
    "paddinginpixel": false,
    "parent": "vbox86759868332233",
    "pf": "frmIBATMBranch",
    "spa": {
        "@class": "com.kony.gen.viz.model.component.property.button.SPAButtonProperty",
        "displayText": true
    },
    "texti18n": "FindTMB_Search",
    "vexpand": false,
    "wType": "Button",
    "widgetalignment": 5
}