{
    "@class": "com.kony.gen.viz.model.container.KVizHBox",
    "DNDConfig": null,
    "_margin_": [
        0,
        0,
        0,
        0
    ],
    "_orientation_": 1,
    "_padding_": [
        0,
        0,
        0,
        0
    ],
    "_percent_": true,
    "_position_": 3,
    "_skin_": "s4b064ceb159420780a9f91bba8275ba",
    "allboxes": [],
    "canUpdateUI": true,
    "children": [
        "vbxSlider"
    ],
    "containerId": true,
    "containerweight": 100,
    "contextmenu": null,
    "id": "hboxMainSlider",
    "info": null,
    "iscustomlayout": false,
    "isvisible": true,
    "kuid": "de90fe792ab04cc0ae9949c0703029aa",
    "layouttype": 0,
    "name": "kony.ui.Box",
    "parent": "vBoxSliderMain",
    "pf": "segSliderSoSmart",
    "retaincontentalignment": false,
    "retainflexpositionproperties": false,
    "templateType": "forms",
    "wType": "HBox",
    "widgetalignment": 1
}