{
    "DNDConfig": null,
    "_enabled_": false,
    "_margin_": [
        2,
        1,
        0,
        1
    ],
    "_padding_": [
        0,
        0,
        0,
        0
    ],
    "_skin_": "sb04015ee60645479aa5a6c2fb3e3efc",
    "_text_": "Label",
    "_wrapping_": 2,
    "canUpdateUI": true,
    "containerweight": 100,
    "contentalignment": 4,
    "desktopweb": {
        "@class": "com.kony.gen.viz.model.component.property.label.DesktopWebLabelProperty",
        "_margin_": [
            2,
            1,
            0,
            1
        ],
        "margin": [
            2,
            1,
            0,
            1
        ],
        "marginInPixel": false,
        "psp": {
            "textCopyable": false
        },
        "render": true
    },
    "hexpand": true,
    "id": "lblSortType",
    "info": null,
    "isvisible": true,
    "kiosk": {
        "@class": "com.kony.gen.viz.model.component.property.label.KioskLabelProperty",
        "_margin_": [
            2,
            1,
            0,
            1
        ],
        "margin": [
            2,
            1,
            0,
            1
        ],
        "marginInPixel": false,
        "render": true
    },
    "kuid": "p2kwiet2012247650651",
    "margininpixel": false,
    "name": "kony.ui.Label",
    "paddinginpixel": false,
    "parent": "vbox201224764834",
    "pf": "vbox201224764834",
    "spa": {
        "@class": "com.kony.gen.viz.model.component.property.label.SPALabelProperty",
        "psp": {
            "textCopyable": false
        }
    },
    "tooltip": "",
    "vexpand": false,
    "wType": "Label",
    "widgetalignment": 5
}