{
    "@class": "com.kony.gen.viz.model.component.KVizLabel",
    "DNDConfig": null,
    "__parentReadjusting__": false,
    "_height_": {
        "type": "ref",
        "value": "preferred"
    },
    "_left_": {
        "type": "string",
        "value": "3%"
    },
    "_margin_": [
        1,
        1,
        1,
        1
    ],
    "_padding_": [
        0,
        0,
        0,
        0
    ],
    "_skin_": "s5cf37d6078542798d8bb12412a44696",
    "_text_": "5,500,000",
    "_top_": {
        "type": "string",
        "value": "-8dp"
    },
    "_width_": {
        "type": "ref",
        "value": "preferred"
    },
    "_wrapping_": 2,
    "android": {
        "textStyle": {
            "letterSpacing": 0,
            "strikeThrough": false
        }
    },
    "canUpdateUI": true,
    "containerweight": 100,
    "contentalignment": 4,
    "id": "lblcurntportfolioVal",
    "info": null,
    "ipad": {
        "psp": {
            "wrapping": 2
        }
    },
    "iphone": {
        "psp": {
            "wrapping": 2
        }
    },
    "isvisible": true,
    "kuid": "c18cf7f5c20e4edb8de7969382347176",
    "name": "kony.ui.Label",
    "parent": "CopyflexCurntportfolio0eb7a3067130242",
    "pf": "frmMFSummary",
    "textstyle": {},
    "tooltip": "",
    "wType": "Label",
    "zindex": 1
}