{
    "DNDConfig": null,
    "__parentReadjusting__": false,
    "_height_": {
        "type": "string",
        "value": "80dp"
    },
    "_margin_": [
        0,
        0,
        0,
        0
    ],
    "_orientation_": 6,
    "_padding_": [
        0,
        0,
        0,
        0
    ],
    "_percent_": true,
    "_skin_": "s32e7506de204cd29116c57918149439",
    "_width_": {
        "type": "string",
        "value": "100%"
    },
    "allboxes": [],
    "autogrowmode": 0,
    "canUpdateUI": true,
    "children": [
        "flxWorkingCirle",
        "lblWorkInfo",
        "flxBottomWI",
        "imgIconWorkingInfo"
    ],
    "clipbounds": true,
    "containerweight": 100,
    "enablescrolling": true,
    "id": "flexWorkInfo",
    "info": null,
    "isvisible": true,
    "kuid": "fbcb51b229b54d40b7fe317145c62236",
    "layouttype": 2,
    "name": "kony.ui.FlexContainer",
    "parent": "flexPersonalOuter",
    "pf": "frmLoanApplicationForm",
    "snapgridsize": 10,
    "snaptogrid": true,
    "wType": "FlexContainer",
    "widgetalignment": 1,
    "zindex": 1
}