{
    "DNDConfig": null,
    "_enabled_": false,
    "_margin_": [
        0,
        6,
        0,
        0
    ],
    "_padding_": [
        0,
        0,
        0,
        0
    ],
    "_skin_": "s544ff2444ca4b3c98aaa140e001d856",
    "_text_": "",
    "canUpdateUI": true,
    "containerweight": 11,
    "contentalignment": 6,
    "desktopweb": {
        "@class": "com.kony.gen.viz.model.component.property.button.DesktopWebButtonProperty",
        "displayText": true,
        "render": true
    },
    "displaytext": true,
    "focusskin": "sffa72737cf2457fb77cafcf8f10603c",
    "hexpand": false,
    "id": "button474288733632",
    "ide_onClick": "p2kwiet2012247640786_button474288733632_onClick_seq0",
    "info": null,
    "isvisible": true,
    "kiosk": {
        "@class": "com.kony.gen.viz.model.component.property.button.KioskButtonProperty",
        "render": true
    },
    "kuid": "p2kwiet2012247640729",
    "margininpixel": false,
    "name": "kony.ui.Button",
    "paddinginpixel": false,
    "parent": "hbox474288733629",
    "pf": "frmIBCMChgMobNoTxnLimit",
    "spa": {
        "@class": "com.kony.gen.viz.model.component.property.button.SPAButtonProperty",
        "displayText": true
    },
    "vexpand": false,
    "wType": "Button",
    "widgetalignment": 6
}