{
    "DNDConfig": null,
    "_enabled_": false,
    "_margin_": [
        35,
        13,
        0,
        0
    ],
    "_padding_": [
        0,
        0,
        0,
        0
    ],
    "_skin_": "s544ff2444ca4b3c98aaa140e001d856",
    "_text_": "",
    "canUpdateUI": true,
    "containerweight": 12,
    "contentalignment": 5,
    "desktopweb": {
        "@class": "com.kony.gen.viz.model.component.property.button.DesktopWebButtonProperty",
        "displayText": true,
        "render": true
    },
    "displaytext": true,
    "focusskin": "sffa72737cf2457fb77cafcf8f10603c",
    "hexpand": true,
    "id": "button449081826392311",
    "ide_onClick": "p2kwiet2012247640786_button449081826392311_onClick_seq0",
    "info": null,
    "isvisible": true,
    "kiosk": {
        "@class": "com.kony.gen.viz.model.component.property.button.KioskButtonProperty",
        "render": true
    },
    "kuid": "p2kwiet2012247640747",
    "margininpixel": false,
    "name": "kony.ui.Button",
    "paddinginpixel": false,
    "parent": "hbox474288733651",
    "pf": "frmIBCMChgMobNoTxnLimit",
    "spa": {
        "@class": "com.kony.gen.viz.model.component.property.button.SPAButtonProperty",
        "displayText": true
    },
    "vexpand": false,
    "wType": "Button",
    "widgetalignment": 5
}