{
    "DNDConfig": null,
    "_enabled_": false,
    "_margin_": [
        0,
        0,
        0,
        0
    ],
    "_padding_": [
        0,
        0,
        0,
        0
    ],
    "_skin_": "s6c282c3bdeb474f95ebb858357750fe",
    "_text_": "Print",
    "canUpdateUI": true,
    "containerweight": 9,
    "contentalignment": 4,
    "desktopweb": {
        "@class": "com.kony.gen.viz.model.component.property.link.DesktopWebLinkProperty",
        "render": true
    },
    "focusskin": "s88c6e4bc9b14fbaa47455a3aa5af337",
    "hexpand": true,
    "id": "link502735421210940",
    "ide_onClick": "p2kwiet2012247647951_link502735421210940_onClick_seq0",
    "info": null,
    "isvisible": true,
    "kiosk": {
        "@class": "com.kony.gen.viz.model.component.property.link.KioskLinkProperty",
        "render": true
    },
    "kuid": "p2kwiet2012247647928",
    "margininpixel": false,
    "name": "kony.ui.Link",
    "paddinginpixel": false,
    "parent": "NOTUSEDhbxTnCHdr",
    "pf": "frmIBSSSTnC",
    "spa": {
        "@class": "com.kony.gen.viz.model.component.property.link.SPALinkProperty"
    },
    "texti18n": "keyIBPrint",
    "vexpand": false,
    "wType": "Link",
    "widgetalignment": 4
}