{
    "@class": "com.kony.gen.viz.model.component.KVizLabel",
    "DNDConfig": null,
    "__parentReadjusting__": false,
    "_height_": {
        "type": "string",
        "value": "15%"
    },
    "_left_": {
        "type": "string",
        "value": "5.00%"
    },
    "_margin_": [
        1,
        1,
        1,
        1
    ],
    "_padding_": [
        0,
        0,
        0,
        0
    ],
    "_skin_": "s7841a04af654d96a8cf95255092c496",
    "_text_": "๋ษ์ฌษฺ๋๋ฌ์ฏฒโ?ฆ์ฺษ็ ์ษ๋ศฆ์ฏศษ๋์ โ์ฌฺ๋ษฆศ",
    "_top_": {
        "type": "string",
        "value": "35.05%"
    },
    "_width_": {
        "type": "string",
        "value": "69.33%"
    },
    "_wrapping_": 2,
    "android": {
        "textStyle": {
            "letterSpacing": 0,
            "strikeThrough": false
        }
    },
    "canUpdateUI": true,
    "containerId": true,
    "containerweight": 100,
    "contentalignment": 4,
    "id": "lblProductDesc",
    "info": null,
    "ipad": {
        "psp": {
            "wrapping": 2
        }
    },
    "iphone": {
        "psp": {
            "wrapping": 2
        }
    },
    "isvisible": true,
    "kuid": "e46ea054d3de48b6a8890b5b6dc5249f",
    "name": "kony.ui.Label",
    "parent": "FlexContainer0bf08262d62464a",
    "pf": "tmpCreditRow",
    "tooltip": "",
    "wType": "Label",
    "zindex": 2
}