{
    "DNDConfig": null,
    "_enabled_": false,
    "_margin_": [
        3,
        3,
        3,
        3
    ],
    "_padding_": [
        0,
        0,
        8,
        5
    ],
    "_skin_": "s3078a7e949b453491538f9eb9b4f666",
    "_text_": "",
    "canUpdateUI": true,
    "containerweight": 2,
    "contentalignment": 5,
    "desktopweb": {
        "@class": "com.kony.gen.viz.model.component.property.button.DesktopWebButtonProperty",
        "_margin_": [
            30,
            10,
            0,
            10
        ],
        "_padding_": [
            0,
            0,
            0,
            25
        ],
        "displayText": true,
        "margin": [
            30,
            10,
            0,
            10
        ],
        "marginInPixel": false,
        "padding": [
            0,
            0,
            0,
            25
        ],
        "paddingInPixel": false,
        "render": true
    },
    "displaytext": true,
    "focusskin": "s94b540087294553bb11a65d8e23b49e",
    "hexpand": true,
    "id": "btnRcConfAddAccount",
    "ide_onClick": "p2kwiet2012247644952_btnRcConfAddAccount_onClick_seq0",
    "info": null,
    "isvisible": true,
    "kiosk": {
        "@class": "com.kony.gen.viz.model.component.property.button.KioskButtonProperty",
        "render": true
    },
    "kuid": "p2kwiet2012247644908",
    "margininpixel": false,
    "name": "kony.ui.Button",
    "paddinginpixel": false,
    "parent": "hboxAddRcConfAccountsTitle",
    "pf": "frmIBMyReceipentsAddBankAccnt",
    "spa": {
        "@class": "com.kony.gen.viz.model.component.property.button.SPAButtonProperty",
        "displayText": true
    },
    "vexpand": false,
    "wType": "Button",
    "widgetalignment": 6
}