{
    "@class": "com.kony.gen.viz.model.component.KVizButton",
    "DNDConfig": null,
    "_margin_": [
        0,
        0,
        0,
        0
    ],
    "_padding_": [
        4,
        2,
        4,
        2
    ],
    "_skin_": "s82e417e6b0f42b3bfcb23a8fd2672a0",
    "_text_": "0",
    "canUpdateUI": true,
    "containerweight": 33,
    "contentalignment": 5,
    "displaytext": true,
    "focusskin": "s82e417e6b0f42b3bfcb23a8fd2672a0",
    "id": "btnZero",
    "info": null,
    "iscustomlayout": false,
    "isvisible": true,
    "kuid": "a33394e76013488fac342b5e3b8760f2",
    "margininpixel": false,
    "name": "kony.ui.Button",
    "paddInPixel": [
        25.6,
        25.6,
        25.6,
        25.6
    ],
    "paddinginpixel": false,
    "parent": "CopyHBox0af21345f2da445",
    "pf": "popupEnterAccessPin",
    "retaincontentalignment": false,
    "retainflexpositionproperties": false,
    "wType": "Button"
}