{
    "DNDConfig": null,
    "_enabled_": false,
    "_margin_": [
        0,
        0,
        0,
        0
    ],
    "_orientation_": 2,
    "_position_": 3,
    "_resize_": true,
    "_skin_": "sd8830aa54674b7c88e2bc24ab3f9828",
    "allboxes": [],
    "borderCollapse": false,
    "canUpdateUI": true,
    "children": [
        "hbxHeader",
        "hbox101450027629826",
        "hbxSuccess",
        "Fromaccount",
        "hbxFrom",
        "headerLine",
        "hbxTo",
        "lblTransferDet",
        "hbxMEACustDetails",
        "lblPeaSlipLater",
        "hbox589607987325261",
        "hbxHideBtn",
        "hbxAmountDetailsMEA",
        "hbox589607987325296",
        "hbox589607987325318",
        "hbox589607987325324",
        "hbox589607987325330",
        "hbxScheduleDetails",
        "hbxAdv",
        "hbxBtn"
    ],
    "containerweight": 49,
    "desktopweb": {
        "@class": "com.kony.gen.viz.model.container.property.vbox.DesktopWebVBoxProperty",
        "_padding_": [
            0,
            0,
            0,
            0
        ],
        "padding": [
            0,
            0,
            0,
            0
        ],
        "paddingInPixel": false,
        "render": true
    },
    "focusskin": "sd8830aa54674b7c88e2bc24ab3f9828",
    "id": "vbxConfirm",
    "info": null,
    "isvisible": true,
    "kiosk": {
        "@class": "com.kony.gen.viz.model.container.property.vbox.KioskVBoxProperty",
        "render": true
    },
    "kuid": "p2kwiet2012247639799",
    "layouttype": 0,
    "margininpixel": false,
    "name": "kony.ui.Box",
    "parent": "hboxReceipentsLevel1",
    "pf": "frmIBBillPaymentCompletenow",
    "spa": {
        "@class": "com.kony.gen.viz.model.container.property.vbox.SPAVBoxProperty"
    },
    "templateType": "forms",
    "wType": "VBox",
    "widgetalignment": 1
}