{
    "DNDConfig": null,
    "_enabled_": false,
    "_margin_": [
        0,
        0,
        0,
        0
    ],
    "_skin_": "se8b14e75ed14d658bda36aa266aa782",
    "_text_": "",
    "canUpdateUI": true,
    "containerweight": 50,
    "contentalignment": 5,
    "desktopweb": {
        "@class": "com.kony.gen.viz.model.component.property.button.DesktopWebButtonProperty",
        "_margin_": [
            0,
            0,
            0,
            0
        ],
        "_padding_": [
            0,
            0,
            0,
            0
        ],
        "displayText": true,
        "margin": [
            0,
            0,
            0,
            0
        ],
        "marginInPixel": false,
        "padding": [
            0,
            0,
            0,
            0
        ],
        "paddingInPixel": false,
        "render": true
    },
    "displaytext": true,
    "focusskin": "s5acbd7611124b5db2432a29feceb493",
    "hexpand": true,
    "id": "button476047582115263",
    "ide_onClick": "p2kwiet2012247638053_button476047582115263_onClick_seq0",
    "info": null,
    "isvisible": true,
    "kiosk": {
        "@class": "com.kony.gen.viz.model.component.property.button.KioskButtonProperty",
        "render": true
    },
    "kuid": "p2kwiet2012247638022",
    "margininpixel": false,
    "name": "kony.ui.Button",
    "parent": "hbox476047582115261",
    "pf": "frmApplyMbviaIBConf",
    "spa": {
        "@class": "com.kony.gen.viz.model.component.property.button.SPAButtonProperty",
        "displayText": true
    },
    "texti18n": "keyCancelButton",
    "vexpand": false,
    "wType": "Button",
    "widgetalignment": 4
}