{
    "DNDConfig": null,
    "_enabled_": false,
    "_margin_": [
        2,
        0,
        0,
        0
    ],
    "_padding_": [
        0,
        3,
        0,
        3
    ],
    "_skin_": "s5acbd7611124b5db2432a29feceb493",
    "_text_": "",
    "canUpdateUI": true,
    "containerweight": 49,
    "contentalignment": 5,
    "desktopweb": {
        "@class": "com.kony.gen.viz.model.component.property.button.DesktopWebButtonProperty",
        "_padding_": [
            0,
            3,
            0,
            3
        ],
        "displayText": true,
        "padding": [
            0,
            3,
            0,
            3
        ],
        "paddingInPixel": false,
        "render": true
    },
    "displaytext": true,
    "focusskin": "sfa8adc8f9d844e4ba21b93d33bed075",
    "hexpand": true,
    "id": "btnNextPin",
    "ide_onClick": "p2kwiet2012247646924_btnNextPin_onClick_seq0",
    "info": null,
    "isvisible": true,
    "kiosk": {
        "@class": "com.kony.gen.viz.model.component.property.button.KioskButtonProperty",
        "render": true
    },
    "kuid": "p2kwiet2012247646838",
    "margininpixel": false,
    "name": "kony.ui.Button",
    "paddinginpixel": false,
    "parent": "hbxBtnNext",
    "pf": "frmIBPointRedemptionConfirmation",
    "spa": {
        "@class": "com.kony.gen.viz.model.component.property.button.SPAButtonProperty",
        "displayText": true
    },
    "texti18n": "keyConfirm",
    "vexpand": false,
    "wType": "Button",
    "widgetalignment": 5
}