{
    "AS_TextField_aff9deaca7a94b9d84ab7f02e4cdaea3": {
        "id": "AS_TextField_aff9deaca7a94b9d84ab7f02e4cdaea3",
        "type": "ACTION_SEQUENCE",
        "params": [{
            "name": "eventobject",
            "value": "eventobject"
        }, {
            "name": "changedtext",
            "value": "changedtext"
        }],
        "language": "js",
        "actions": [{
            "id": "INVOKE_FUNCTION__ide_onEndEditing_i84bb6c83ed647e198b97ec0d3165657",
            "type": "INVOKE_FUNCTION",
            "sequenceKUID": "ehFrmIBTransferNowConfirmation_tbxToken_onEndEditing",
            "display": "ehFrmIBTransferNowConfirmation_tbxToken_onEndEditing",
            "inputparams": [{
                "name": "eventobject",
                "value": " eventobject"
            }, {
                "name": "changedtext",
                "value": " changedtext"
            }],
            "source": "module"
        }]
    }
}