{
    "AS_TextField_d027acd7370b48b18c105cc28a92b780": {
        "id": "AS_TextField_d027acd7370b48b18c105cc28a92b780",
        "type": "ACTION_SEQUENCE",
        "params": [{
            "datatype": "collection",
            "name": "eventobject"
        }, {
            "datatype": "string",
            "name": "changedtext"
        }],
        "contextObj": {
            "name": "frmIBMFSelPurchaseFundsEntry",
            "type": "forms",
            "platform": "",
            "KUID": "a4c9156f38ff4a00aa6c215dd09045fe"
        },
        "language": "js",
        "actions": [{
            "id": "INVOKE_FUNCTION___a241ff1ec9c84043b0dbc024ecaeede0",
            "type": "INVOKE_FUNCTION",
            "sequenceKUID": "frmIBMFSelPurchaseFundsEntry_EnterAmnt_onBeginEditing",
            "display": "frmIBMFSelPurchaseFundsEntry_EnterAmnt_onBeginEditing",
            "inputparams": [{
                "name": "eventobject"
            }, {
                "name": "changedtext"
            }],
            "parentId": null,
            "callbackType": null,
            "disabled": null,
            "source": "module"
        }]
    }
}