{
    "AS_Button_f5daa6f3dc414518b9dcc0169f4e2213": {
        "id": "AS_Button_f5daa6f3dc414518b9dcc0169f4e2213",
        "type": "ACTION_SEQUENCE",
        "name": "frmIBMFSelRedeemFund_btnAll_onClick",
        "params": [{
            "datatype": "collection",
            "name": "eventobject"
        }],
        "contextObj": {
            "name": "frmIBMFSelRedeemFund",
            "type": "forms",
            "platform": "",
            "KUID": "ica24d4c3b9c43be8936f80f9c4bb780"
        },
        "language": "js",
        "actions": [{
            "id": "ADD_SNIPPET__i3276ac0ddb144e280c031c26d0feced",
            "type": "ADD_SNIPPET",
            "codeSnippet": "frmIBMFSelRedeemFund_onClickBtnAll();",
            "parentId": null,
            "callbackType": null
        }]
    }
}