{
    "AS_Form_f6be6843f3384bb5b0dcf35d32a2a549": {
        "id": "AS_Form_f6be6843f3384bb5b0dcf35d32a2a549",
        "type": "ACTION_SEQUENCE",
        "name": "frmIBMFSuitTest_postShow",
        "params": [{
            "datatype": "collection",
            "name": "eventobject"
        }],
        "contextObj": {
            "name": "frmIBMFSuitTest",
            "type": "forms",
            "platform": null,
            "KUID": "ce11c28ff1c040fb8e1e49b18b64505d"
        },
        "language": "js",
        "actions": [{
            "id": "NAMED_ACTION___ide_postShow_d29495121131491eab57456168eced7a",
            "type": "NAMED_ACTION",
            "sequenceKUID": "AS_NamedActions_ec5785c44af14a65bc06c9d185002707",
            "display": "addMenuIBAction",
            "inputparams": [],
            "callbackType": null,
            "disabled": null,
            "isMasterInstanceAction": null
        }, {
            "id": "INVOKE_FUNCTION___f9828d63884c4e5da425d1beab9b63af",
            "type": "INVOKE_FUNCTION",
            "sequenceKUID": "setFocusOnBtnAccountSum",
            "display": "setFocusOnBtnAccountSum",
            "inputparams": [{
                "name": "currentFormId",
                "value": "kony.application.getCurrentForm()"
            }],
            "parentId": null,
            "callbackType": null,
            "disabled": null,
            "source": "module"
        }]
    }
}