{
    "AS_Button_hbd885c956704850a602672c42b98b70": {
        "id": "AS_Button_hbd885c956704850a602672c42b98b70",
        "type": "ACTION_SEQUENCE",
        "name": "frmIBMFTnC_btnNext_onClick",
        "params": [{
            "datatype": "collection",
            "name": "eventobject"
        }],
        "contextObj": {
            "name": "frmIBMFTnC",
            "type": "forms",
            "platform": "",
            "KUID": "g0f93308893141da9ff3ce7e00d7a851"
        },
        "language": "js",
        "actions": [{
            "id": "ADD_SNIPPET__f73f506d858e4411bea73bd2d237dc36",
            "type": "ADD_SNIPPET",
            "codeSnippet": "frmIBMFTnC_onClickNext();",
            "parentId": null,
            "callbackType": null
        }]
    }
}