{
    "AS_Button_d4426f777d954804bba9eb8eb0ca3661": {
        "id": "AS_Button_d4426f777d954804bba9eb8eb0ca3661",
        "type": "ACTION_SEQUENCE",
        "name": "frmIBDebitCardActivateAssignPIN_fourth",
        "params": [{
            "name": "eventobject",
            "value": "eventobject"
        }],
        "language": "js",
        "actions": [{
            "id": "INVOKE_FUNCTION__ide_onClick_hebfeb5ad17444b6af00bb27ae882187",
            "type": "INVOKE_FUNCTION",
            "sequenceKUID": "toggleKeyPad",
            "display": "toggleKeyPad",
            "inputparams": [{
                "name": "command",
                "value": "false"
            }],
            "source": "module"
        }]
    }
}