{
    "AS_Button_cbe6e503919b44bba5ac3b4e77b0cc4c": {
        "id": "AS_Button_cbe6e503919b44bba5ac3b4e77b0cc4c",
        "type": "ACTION_SEQUENCE",
        "name": "frmIBDebitCardActivateAssignPIN_fourthConfirm",
        "params": [{
            "name": "eventobject",
            "value": "eventobject"
        }],
        "language": "js",
        "actions": [{
            "id": "INVOKE_FUNCTION__ide_onClick_ad4e9ee8ae944c07acad48e80c96a1b7",
            "type": "INVOKE_FUNCTION",
            "sequenceKUID": "toggleKeyPad",
            "display": "toggleKeyPad",
            "inputparams": [{
                "name": "command",
                "value": "true"
            }],
            "source": "module"
        }]
    }
}