{
    "AS_Form_b643f7a3136c4921b03f7b3b7c01ede6": {
        "id": "AS_Form_b643f7a3136c4921b03f7b3b7c01ede6",
        "type": "ACTION_SEQUENCE",
        "name": "frmIBMFSuitReview_postShow",
        "params": [{
            "datatype": "collection",
            "name": "eventobject"
        }],
        "contextObj": {
            "name": "frmIBMFSuitReview",
            "type": "forms",
            "platform": null,
            "KUID": "d87a2a3a971c4a9980de5c68a357ef5e"
        },
        "language": "js",
        "actions": [{
            "id": "NAMED_ACTION___ide_postShow_d39a1d43cda048d2a6353270b04c0dba",
            "type": "NAMED_ACTION",
            "sequenceKUID": "AS_NamedActions_ec5785c44af14a65bc06c9d185002707",
            "display": "addMenuIBAction",
            "inputparams": [],
            "callbackType": null,
            "disabled": null,
            "isMasterInstanceAction": null
        }, {
            "id": "INVOKE_FUNCTION___e3f9c87989594680931408991a1821a2",
            "type": "INVOKE_FUNCTION",
            "sequenceKUID": "setFocusOnBtnAccountSum",
            "display": "setFocusOnBtnAccountSum",
            "inputparams": [{
                "name": "currentFormId",
                "value": "kony.application.getCurrentForm()"
            }],
            "parentId": null,
            "callbackType": null,
            "disabled": null,
            "source": "module"
        }]
    }
}