{
    "AS_Button_aa7613d5efde48e997cf8bc7a37930e4": {
        "id": "AS_Button_aa7613d5efde48e997cf8bc7a37930e4",
        "type": "ACTION_SEQUENCE",
        "name": "frmIBDebitCardActivateAssignPIN_btnConfirmFifthPin",
        "params": [{
            "datatype": "collection",
            "name": "eventobject"
        }],
        "contextObj": {
            "name": "frmIBDebitCardActivateAssignPIN",
            "type": "forms",
            "platform": "",
            "KUID": "p2kwiet2012247642323"
        },
        "language": "js",
        "actions": [{
            "id": "INVOKE_FUNCTION___bde55487f84a436b9b6fa0a387e3c3f0",
            "type": "INVOKE_FUNCTION",
            "sequenceKUID": "toggleKeyPad",
            "display": "toggleKeyPad",
            "inputparams": [{
                "name": "command",
                "value": "true"
            }],
            "parentId": null,
            "source": "module"
        }]
    }
}