{
    "p2kwiet2012247640897_button476047582115263_onClick_seq0": {
        "id": "p2kwiet2012247640897_button476047582115263_onClick_seq0",
        "type": "ACTION_SEQUENCE",
        "params": [{
            "name": "eventobject",
            "value": "eventobject"
        }],
        "language": "js",
        "actions": [{
            "id": "expression_onClick_29310201224768347",
            "type": "ADD_SNIPPET",
            "codeSnippet": "frmIBCMMyProfile.lblRequestHeader.setVisibility(false);\n frmIBCMMyProfile.hbxListBox.setVisibility(false);\n frmIBCMMyProfile.hbxData.setVisibility(false);\n frmIBCMMyProfile.hbximage.setVisibility(true);\n frmIBCMMyProfile.lnkHeader.setVisibility(false);"
        }, {
            "id": "navigation_onClick_76750201224761306",
            "type": "NAVIGATE_TO_FORM",
            "formId": "frmIBCMMyProfile",
            "formKUID": "p2kwiet2012247641731",
            "mappings": {},
            "mappingsOrder": [],
            "parentId": "",
            "enableMappingEditor": true,
            "package": ""
        }, {
            "id": "expression_onClick_91634201224761280",
            "type": "ADD_SNIPPET",
            "codeSnippet": "TMBUtil.DestroyForm(frmIBCMChgPwd);"
        }]
    }
}