{
    "p2kwiet2012247640615_frmIBChequeServiceViewReturnedCheque_preshow_seq0": {
        "id": "p2kwiet2012247640615_frmIBChequeServiceViewReturnedCheque_preshow_seq0",
        "type": "ACTION_SEQUENCE",
        "params": [{
            "name": "eventobject",
            "value": "eventobject"
        }, {
            "name": "neworientation",
            "value": "neworientation"
        }],
        "language": "js",
        "actions": [{
            "id": "expression_preshow_1282720122476926",
            "type": "ADD_SNIPPET",
            "codeSnippet": "var textcheque =frmIBChequeServiceViewReturnedCheque.label47336710533361.text;\n textcheque = textcheque.replace(\".\", \"\").replace(\":\", \"\")\n frmIBChequeServiceViewReturnedCheque.label47336710533361.text = kony.i18n.getLocalizedString(\"AccountNo\");\n \n var textchequeProd =frmIBChequeServiceViewReturnedCheque.lblProd.text;\n textchequeProd = textchequeProd.replace(\":\", \"\")\n frmIBChequeServiceViewReturnedCheque.lblProd.text = kony.i18n.getLocalizedString(\"Product\");\n \n frmIBChequeServiceViewReturnedCheque.lblAlert.setVisibility(false);"
        }]
    }
}