{
    "p2kwiet2012247644098_txtCCNum2_DESKTOPWEB_onBeginEditing_seq0": {
        "id": "p2kwiet2012247644098_txtCCNum2_DESKTOPWEB_onBeginEditing_seq0",
        "type": "ACTION_SEQUENCE",
        "params": [{
            "name": "eventobject",
            "value": "eventobject"
        }, {
            "name": "changedtext",
            "value": "changedtext"
        }],
        "language": "js",
        "actions": [{
            "id": "expression_onBeginEditing_49409201224767170",
            "type": "ADD_SNIPPET",
            "codeSnippet": "frmIBMyAccnts.txtCCNum2.skin=\"txtBottomBorderFocus\";\n "
        }]
    }
}