{
    "p2kwiet2012247642405_btnConfirm_onClick_seq0": {
        "id": "p2kwiet2012247642405_btnConfirm_onClick_seq0",
        "type": "ACTION_SEQUENCE",
        "params": [{
            "name": "eventobject",
            "value": "eventobject"
        }],
        "language": "js",
        "actions": [{
            "id": "customcode_onClick_7599320122476608",
            "type": "INVOKE_FUNCTION",
            "sequenceKUID": "confirmOTPForDebitCardActivate",
            "display": "confirmOTPForDebitCardActivate",
            "inputparams": [],
            "source": "module"
        }]
    }
}