{
    "p2kwiet2012247641322_frmIBCMConfirmationPwd_postshow_seq0": {
        "id": "p2kwiet2012247641322_frmIBCMConfirmationPwd_postshow_seq0",
        "type": "ACTION_SEQUENCE",
        "params": [{
            "name": "eventobject",
            "value": "eventobject"
        }, {
            "name": "neworientation",
            "value": "neworientation"
        }],
        "language": "js",
        "actions": [{
            "id": "customcode_postshow_96111201224761832",
            "type": "INVOKE_FUNCTION",
            "sequenceKUID": "addIBMenu",
            "display": "addIBMenu",
            "inputparams": [],
            "source": "module"
        }, {
            "id": "customcode_postshow_89728201224763391",
            "type": "INVOKE_FUNCTION",
            "sequenceKUID": "segAboutMeLoad",
            "display": "segAboutMeLoad",
            "inputparams": [],
            "source": "module"
        }, {
            "id": "customcode_postshow_39692201224764385",
            "type": "INVOKE_FUNCTION",
            "sequenceKUID": "pagespecificSubMenu",
            "display": "pagespecificSubMenu",
            "inputparams": [],
            "source": "module"
        }, {
            "id": "expression_postshow_2554201224767471",
            "type": "ADD_SNIPPET",
            "codeSnippet": "frmIBCMConfirmationPwd.txtOTP.maxTextLength = 6;\n \n frmIBCMConfirmationPwd.link508395714289050.hoverSkin=\"lnkMyReqHisFoc\";"
        }, {
            "id": "customcode_postshow_23357201224766527",
            "type": "INVOKE_FUNCTION",
            "sequenceKUID": "IBCMCommonMyProfilePreShow",
            "display": "IBCMCommonMyProfilePreShow",
            "inputparams": [],
            "source": "module"
        }, {
            "id": "customcode_postshow_31765201224766865",
            "type": "INVOKE_FUNCTION",
            "sequenceKUID": "myProfileAnyIDLinkShowHideIB",
            "display": "myProfileAnyIDLinkShowHideIB",
            "inputparams": [],
            "source": "module"
        }]
    }
}