{
    "p2kwiet2012247646206_txtNickName_DESKTOPWEB_onBeginEditing_seq0": {
        "id": "p2kwiet2012247646206_txtNickName_DESKTOPWEB_onBeginEditing_seq0",
        "type": "ACTION_SEQUENCE",
        "params": [{
            "name": "eventobject",
            "value": "eventobject"
        }, {
            "name": "changedtext",
            "value": "changedtext"
        }],
        "language": "js",
        "actions": [{
            "id": "expression_onBeginEditing_92428201224768048",
            "type": "ADD_SNIPPET",
            "codeSnippet": "frmIBOpenNewSavingsCareAcc.hbox867539252327807.skin=\"hbxProperFocus\";"
        }]
    }
}