{
    "p2kwiet2012247645428_btnConfirmBillerNext_onClick_seq0": {
        "id": "p2kwiet2012247645428_btnConfirmBillerNext_onClick_seq0",
        "type": "ACTION_SEQUENCE",
        "params": [{
            "name": "eventobject",
            "value": "eventobject"
        }],
        "language": "js",
        "actions": [{
            "id": "expression_onClick_67531201224769159",
            "type": "ADD_SNIPPET",
            "codeSnippet": "frmIBMyTopUpsHome.txtotp.text=\"\";"
        }, {
            "id": "expression_onClick_2888920122476166",
            "type": "ADD_SNIPPET",
            "codeSnippet": "frmIBMyTopUpsHome.imgTMBLogo.setVisibility(false);\n frmIBMyTopUpsHome.hbxBillersAddContainer.setVisibility(false);\n frmIBMyTopUpsHome.hbxBillersConfirmContainer.setVisibility(true);\n frmIBMyTopUpsHome.hbxOtpBox.setVisibility(true)\n frmIBMyTopUpsHome.hbxCanConfBtnContainer.setVisibility(true);\n frmIBMyTopUpsHome.hbxBillersEditContainer.setVisibility(false);\n frmIBMyTopUpsHome.hbxBillersViewContainer.setVisibility(false);\n frmIBMyTopUpsHome.btnConfirmBillerNext.setVisibility(false);\n "
        }, {
            "id": "customcode_onClick_31093201224763269",
            "type": "INVOKE_FUNCTION",
            "sequenceKUID": "onAddBillTopUpNextIB",
            "display": "onAddBillTopUpNextIB",
            "inputparams": [],
            "source": "module"
        }, {
            "id": "expression_onClick_87605201224762240",
            "type": "ADD_SNIPPET",
            "codeSnippet": "frmIBMyTopUpsHome.txtotp.setFocus(true);"
        }]
    }
}