{
    "p2kwiet2012247642852_btnTnCEmail_onClick_seq0": {
        "id": "p2kwiet2012247642852_btnTnCEmail_onClick_seq0",
        "type": "ACTION_SEQUENCE",
        "params": [{
            "name": "eventobject",
            "value": "eventobject"
        }],
        "language": "js",
        "actions": [{
            "id": "customcode_onClick_62623201224768207",
            "type": "INVOKE_FUNCTION",
            "sequenceKUID": "onClickEmailTnCIBEditSavingCare",
            "display": "onClickEmailTnCIBEditSavingCare",
            "inputparams": [],
            "source": "module"
        }]
    }
}