{
    "p2kwiet2012247649303_textRecNoteEmail_onTextChange_seq0": {
        "id": "p2kwiet2012247649303_textRecNoteEmail_onTextChange_seq0",
        "type": "ACTION_SEQUENCE",
        "params": [{
            "datatype": "collection",
            "name": "eventobject"
        }],
        "language": "js",
        "actions": [{
            "id": "customcode_onTextChange_59909201224767250",
            "type": "INVOKE_FUNCTION",
            "sequenceKUID": "notAllowEmojiChars",
            "display": "notAllowEmojiChars",
            "inputparams": [{
                "name": "eventObj",
                "value": "frmIBTranferLP.textRecNoteEmail"
            }],
            "source": "module"
        }]
    }
}