{
    "p2kwiet2012247648709_button101450027636_onClick_seq0": {
        "id": "p2kwiet2012247648709_button101450027636_onClick_seq0",
        "type": "ACTION_SEQUENCE",
        "params": [{
            "name": "eventobject",
            "value": "eventobject"
        }],
        "language": "js",
        "actions": [{
            "id": "customcode_onClick_51364201224764872",
            "type": "INVOKE_FUNCTION",
            "sequenceKUID": "editTopUpPayment",
            "display": "editTopUpPayment",
            "inputparams": [],
            "source": "module"
        }]
    }
}