{
    "p2kwiet2012247644560_linknextfuture_onClick_seq0": {
        "id": "p2kwiet2012247644560_linknextfuture_onClick_seq0",
        "type": "ACTION_SEQUENCE",
        "params": [{
            "name": "eventobject",
            "value": "eventobject"
        }],
        "language": "js",
        "actions": [{
            "id": "customcode_onClick_5967320122476360",
            "type": "INVOKE_FUNCTION",
            "sequenceKUID": "nextPageloadInFutureTrans",
            "display": "nextPageloadInFutureTrans",
            "inputparams": [{
                "name": "nextpage",
                "value": "frmIBMyActivities.link5future.text "
            }],
            "source": "module"
        }]
    }
}