{
    "p2kwiet2012247643877_btnOrderToBProceed_onClick_seq0": {
        "id": "p2kwiet2012247643877_btnOrderToBProceed_onClick_seq0",
        "type": "ACTION_SEQUENCE",
        "params": [{
            "name": "eventobject",
            "value": "eventobject"
        }],
        "language": "js",
        "actions": [{
            "id": "customcode_onClick_66003201224766571",
            "type": "INVOKE_FUNCTION",
            "sequenceKUID": "viewMFFullStatementIB",
            "display": "viewMFFullStatementIB",
            "inputparams": [{
                "name": "viewType",
                "value": "viewType = \"O\""
            }],
            "source": "module"
        }]
    }
}