{
    "p2kwiet2012247642762_btnOTPReq_onClick_seq0": {
        "id": "p2kwiet2012247642762_btnOTPReq_onClick_seq0",
        "type": "ACTION_SEQUENCE",
        "params": [{
            "name": "eventobject",
            "value": "eventobject"
        }],
        "language": "js",
        "actions": [{
            "id": "expression_onClick_20825201224767378",
            "type": "ADD_SNIPPET",
            "codeSnippet": "\n if(frmIBEditFutureTopUpPrecnf.btnOTPReq.text == kony.i18n.getLocalizedString(\"keyRequest\")){\n kony.print(\"-------------testing11111----------------: \")\n callGenRefNoServiceForEditTP();\n gblSwitchToken = true;\n }else if(frmIBEditFutureTopUpPrecnf.btnOTPReq.text == kony.i18n.getLocalizedString(\"keySwitchToSMS\")){\n kony.print(\"-------------testing2222----------------: \")\n frmIBEditFutureTopUpPrecnf.labelkeyOTP.text = kony.i18n.getLocalizedString(\"keyOTP\");\n frmIBEditFutureTopUpPrecnf.labelkeyOTPMsg.text = kony.i18n.getLocalizedString(\"keyotpmsgreq\");\n frmIBEditFutureTopUpPrecnf.btnOTPReq.text = kony.i18n.getLocalizedString(\"keyRequest\");\n gblSwitchToken = true;\n callGenRefNoServiceForEditTP();\n }\n frmIBEditFutureTopUpPrecnf.txtBxOTP.setFocus(true);"
        }]
    }
}