{
    "p2kwiet2012247640468_btnGoto_onClick_seq0": {
        "id": "p2kwiet2012247640468_btnGoto_onClick_seq0",
        "type": "ACTION_SEQUENCE",
        "params": [{
            "name": "eventobject",
            "value": "eventobject"
        }],
        "language": "js",
        "actions": [{
            "id": "customcode_onClick_48091201224767798",
            "type": "INVOKE_FUNCTION",
            "sequenceKUID": "onclickActivationCompleteStart",
            "display": "onclickActivationCompleteStart",
            "inputparams": [],
            "source": "module"
        }, {
            "id": "expression_onClick_4607720122476169",
            "type": "ADD_SNIPPET",
            "codeSnippet": "gblRetryCountRequestOTP =\"0\";\n gblChequeConfirm= \"\";"
        }]
    }
}