{
    "p2kwiet2012247639145_frmIBATMBranch_postshow_seq0": {
        "id": "p2kwiet2012247639145_frmIBATMBranch_postshow_seq0",
        "type": "ACTION_SEQUENCE",
        "params": [{
            "name": "eventobject",
            "value": "eventobject"
        }, {
            "name": "neworientation",
            "value": "neworientation"
        }],
        "language": "js",
        "actions": [{
            "id": "customcode_postshow_31382201224767861",
            "type": "INVOKE_FUNCTION",
            "sequenceKUID": "setHeaderPrePostLogin",
            "display": "setHeaderPrePostLogin",
            "inputparams": [],
            "source": "module"
        }, {
            "id": "expression_postshow_39856201224765130",
            "type": "ADD_SNIPPET",
            "codeSnippet": "document.getElementById(\"frmIBATMBranch_scrollbox864947284161140\").className = \"kwt100 hide scrBoxBills\";\n if(gblLoggedIn){\n addIBMenu();\n footerPagesMenu();\n } \n else\n addIBLogin();\n \n "
        }]
    }
}