{
    "p2kwiet2012247640786_btnOTPReq_onClick_seq0": {
        "id": "p2kwiet2012247640786_btnOTPReq_onClick_seq0",
        "type": "ACTION_SEQUENCE",
        "params": [{
            "name": "eventobject",
            "value": "eventobject"
        }],
        "language": "js",
        "actions": [{
            "id": "expression_onClick_9908420122476274",
            "type": "ADD_SNIPPET",
            "codeSnippet": "var currform=kony.application.getCurrentForm(); \n currform.txtBxOTP.text=\"\";\n \n "
        }, {
            "id": "customcode_onClick_74265201224765546",
            "type": "INVOKE_FUNCTION",
            "sequenceKUID": "requestButtonForOTPIBmobile",
            "display": "requestButtonForOTPIBmobile",
            "inputparams": [],
            "source": "module"
        }]
    }
}