{
    "p2kwiet2012247638905_frmIBAnyIDRegistration_onhide_seq0": {
        "id": "p2kwiet2012247638905_frmIBAnyIDRegistration_onhide_seq0",
        "type": "ACTION_SEQUENCE",
        "params": [{
            "name": "eventobject",
            "value": "eventobject"
        }, {
            "name": "neworientation",
            "value": "neworientation"
        }],
        "language": "js",
        "actions": [{
            "id": "expression_onhide_54690201224766398",
            "type": "ADD_SNIPPET",
            "codeSnippet": "frmIBAnyIDRegistration.hbxwaterWheel.isVisible=true;\n frmIBAnyIDRegistration.hbxAccountList.isVisible=false;"
        }]
    }
}