{
    "p2kwiet2012247648059_txtPassword_DESKTOPWEB_onBeginEditing_seq0": {
        "id": "p2kwiet2012247648059_txtPassword_DESKTOPWEB_onBeginEditing_seq0",
        "type": "ACTION_SEQUENCE",
        "params": [{
            "name": "eventobject",
            "value": "eventobject"
        }, {
            "name": "changedtext",
            "value": "changedtext"
        }],
        "language": "js",
        "actions": [{
            "id": "expression_onBeginEditing_8250201224769515",
            "type": "ADD_SNIPPET",
            "codeSnippet": "frmIBPreLogin.hbxPassword.skin = \"hbxFocusInPreLogin\""
        }]
    }
}