{
    "p2kwiet2012247647951_link502735421210910_onClick_seq0": {
        "id": "p2kwiet2012247647951_link502735421210910_onClick_seq0",
        "type": "ACTION_SEQUENCE",
        "params": [{
            "name": "eventobject",
            "value": "eventobject"
        }],
        "language": "js",
        "actions": [{
            "id": "expression_onClick_45971201224764753",
            "type": "ADD_SNIPPET",
            "codeSnippet": "onClickEmailTnC('SendtoSave')"
        }]
    }
}