{
    "p2kwiet2012247647346_segAccountDetails_onRowClick_seq0": {
        "id": "p2kwiet2012247647346_segAccountDetails_onRowClick_seq0",
        "type": "ACTION_SEQUENCE",
        "params": [{
            "name": "eventobject",
            "value": "eventobject"
        }, {
            "name": "sectionNumber",
            "value": "sectionNumber"
        }, {
            "name": "rowNumber",
            "value": "rowNumber"
        }],
        "language": "js",
        "actions": [{
            "id": "customcode_onRowClick_23784201224766386",
            "type": "INVOKE_FUNCTION",
            "sequenceKUID": "showIBAccountDetails",
            "display": "showIBAccountDetails",
            "inputparams": [],
            "source": "module"
        }, {
            "id": "expression_onRowClick_23550201224767922",
            "type": "ADD_SNIPPET",
            "codeSnippet": "frmIBAccntSummary.imgProfile.setVisibility(false);"
        }, {
            "id": "expression_onRowClick_44657201224762755",
            "type": "ADD_SNIPPET",
            "codeSnippet": "try\n {\n kony.timer.cancel(\"imagedisplaycheck\");\n }\n catch(e){\n }\n kony.timer.schedule(\"imagedisplaycheck\", imageDsplayQuick, 5, false)\n "
        }]
    }
}