{
    "p2kwiet2012247649745_btnMenuAboutMe_onClick_seq0": {
        "id": "p2kwiet2012247649745_btnMenuAboutMe_onClick_seq0",
        "type": "ACTION_SEQUENCE",
        "params": [{
            "name": "eventobject",
            "value": "eventobject"
        }],
        "language": "js",
        "actions": [{
            "id": "customcode_onClick_18293201224768091",
            "type": "INVOKE_FUNCTION",
            "sequenceKUID": "segAboutMeLoad",
            "display": "segAboutMeLoad",
            "inputparams": [],
            "source": "module"
        }, {
            "id": "expression_onClick_9335720122476713",
            "type": "ADD_SNIPPET",
            "codeSnippet": "nameofform = kony.application.getCurrentForm();\n nameofform.btnMenuAboutMe.skin = \"btnIBMenuAboutMe\";\n nameofform.btnMenuAboutMe.hoverSkin = \"btnIBMenuAboutMe\";\n gblMenuSelection = 1;"
        }]
    }
}