{
    "p2kwiet2012247647721_btnOTPReq_onClick_seq0": {
        "id": "p2kwiet2012247647721_btnOTPReq_onClick_seq0",
        "type": "ACTION_SEQUENCE",
        "params": [{
            "name": "eventobject",
            "value": "eventobject"
        }],
        "language": "js",
        "actions": [{
            "id": "customcode_onClick_38934201224764676",
            "type": "INVOKE_FUNCTION",
            "sequenceKUID": "requestButtonForOTPIBForS2S",
            "display": "requestButtonForOTPIBForS2S",
            "inputparams": [],
            "source": "module"
        }]
    }
}