{
    "p2kwiet2012247640615_frmIBChequeServiceViewReturnedCheque_postshow_seq0": {
        "id": "p2kwiet2012247640615_frmIBChequeServiceViewReturnedCheque_postshow_seq0",
        "type": "ACTION_SEQUENCE",
        "params": [{
            "name": "eventobject",
            "value": "eventobject"
        }, {
            "name": "neworientation",
            "value": "neworientation"
        }],
        "language": "js",
        "actions": [{
            "id": "customcode_postshow_98582201224768606",
            "type": "INVOKE_FUNCTION",
            "sequenceKUID": "addIBMenu",
            "display": "addIBMenu",
            "inputparams": [],
            "source": "module"
        }, {
            "id": "customcode_postshow_84849201224768613",
            "type": "INVOKE_FUNCTION",
            "sequenceKUID": "segConvenientServicesLoad",
            "display": "segConvenientServicesLoad",
            "inputparams": [],
            "source": "module"
        }, {
            "id": "customcode_postshow_77567201224765600",
            "type": "INVOKE_FUNCTION",
            "sequenceKUID": "pagespecificSubMenu",
            "display": "pagespecificSubMenu",
            "inputparams": [],
            "source": "module"
        }, {
            "id": "customcode_postshow_51941201224768271",
            "type": "INVOKE_FUNCTION",
            "sequenceKUID": "showReturnChequedata",
            "display": "showReturnChequedata",
            "inputparams": [],
            "source": "module"
        }, {
            "id": "customcode_postshow_5839201224768536",
            "type": "INVOKE_FUNCTION",
            "sequenceKUID": "getMonthCycleIB",
            "display": "getMonthCycleIB",
            "inputparams": [],
            "source": "module"
        }]
    }
}