{
    "p2kwiet2012247640409_btnBPCancel_onClick_seq0": {
        "id": "p2kwiet2012247640409_btnBPCancel_onClick_seq0",
        "type": "ACTION_SEQUENCE",
        "params": [{
            "name": "eventobject",
            "value": "eventobject"
        }],
        "language": "js",
        "actions": [{
            "id": "customcode_onClick_50174201224768915",
            "type": "INVOKE_FUNCTION",
            "sequenceKUID": "cancelEditFutureBPonEditPage",
            "display": "cancelEditFutureBPonEditPage",
            "inputparams": [],
            "source": "module"
        }, {
            "id": "expression_onClick_5585120122476948",
            "type": "ADD_SNIPPET",
            "codeSnippet": "frmIBBillPaymentView.lblBPStartOnDateVal.padding=[0,0,0,0];"
        }]
    }
}