{
    "p2kwiet2012247644730_hbxMoreSug_onClick_seq0": {
        "id": "p2kwiet2012247644730_hbxMoreSug_onClick_seq0",
        "type": "ACTION_SEQUENCE",
        "params": [{
            "name": "eventobject",
            "value": "eventobject"
        }],
        "language": "js",
        "actions": [{
            "id": "customcode_onClick_26270201224768046",
            "type": "INVOKE_FUNCTION",
            "sequenceKUID": "onMyTopUpSelectMoreDynamicIB",
            "display": "onMyTopUpSelectMoreDynamicIB",
            "inputparams": [{
                "name": "ArgTable",
                "value": ""
            }],
            "source": "module"
        }]
    }
}