{
    "p2kwiet2012247642345_frmIBDebitCardActivateComplete_postshow_seq0": {
        "id": "p2kwiet2012247642345_frmIBDebitCardActivateComplete_postshow_seq0",
        "type": "ACTION_SEQUENCE",
        "params": [{
            "name": "eventobject",
            "value": "eventobject"
        }, {
            "name": "neworientation",
            "value": "neworientation"
        }],
        "language": "js",
        "actions": [{
            "id": "customcode_postshow_93795201224764646",
            "type": "INVOKE_FUNCTION",
            "sequenceKUID": "addIBMenu",
            "display": "addIBMenu",
            "inputparams": [],
            "source": "module"
        }, {
            "id": "expression_postshow_67063201224761200",
            "type": "ADD_SNIPPET",
            "codeSnippet": "if(kony.i18n.getCurrentLocale() == \"th_TH\")\n frmIBDebitCardActivateComplete.btnMenuMyAccountSummary.skin=\"btnIBMenuMyAccountSummaryFocusThai\";\n else\n frmIBDebitCardActivateComplete.btnMenuMyAccountSummary.skin=\"btnIBMenuMyAccountSummaryFocus\";\n "
        }]
    }
}