{
    "p2kwiet2012247640979_button474288733659_onClick_seq0": {
        "id": "p2kwiet2012247640979_button474288733659_onClick_seq0",
        "type": "ACTION_SEQUENCE",
        "params": [{
            "name": "eventobject",
            "value": "eventobject"
        }],
        "language": "js",
        "actions": [{
            "id": "expression_onClick_46910201224765863",
            "type": "ADD_SNIPPET",
            "codeSnippet": "gblShowPwd = 1;\n frmIBCMChgPwd.tbxTranscCrntPwd.text = \"\"\n frmIBCMChgPwd.txtPassword.text = \"\"\n frmIBCMChgPwd.txtRetypePwd.text = \"\""
        }, {
            "id": "navigation_onClick_85496201224768681",
            "type": "NAVIGATE_TO_FORM",
            "formId": "frmIBCMChgPwd",
            "formKUID": "p2kwiet2012247640897",
            "mappings": {},
            "mappingsOrder": [],
            "parentId": "",
            "enableMappingEditor": true,
            "package": ""
        }]
    }
}