{
    "p2kwiet2012247649303_textRecNoteEmail_DESKTOPWEB_onKeyUp_seq0": {
        "id": "p2kwiet2012247649303_textRecNoteEmail_DESKTOPWEB_onKeyUp_seq0",
        "type": "ACTION_SEQUENCE",
        "params": [],
        "language": "js",
        "actions": [{
            "id": "customcode_onKeyUp_8776320122476618",
            "type": "INVOKE_FUNCTION",
            "sequenceKUID": "notAllowEmojiChars",
            "display": "notAllowEmojiChars",
            "inputparams": [{
                "name": "eventObj",
                "value": "frmIBTranferLP.textRecNoteEmail"
            }],
            "source": "module"
        }]
    }
}