{
    "p2kwiet2012247638386_btnTransfer_onClick_seq0": {
        "id": "p2kwiet2012247638386_btnTransfer_onClick_seq0",
        "type": "ACTION_SEQUENCE",
        "params": [{
            "name": "eventobject",
            "value": "eventobject"
        }],
        "language": "js",
        "actions": [{
            "id": "customcode_onClick_54440201224763404",
            "type": "INVOKE_FUNCTION",
            "sequenceKUID": "IBmoveToTransfers",
            "display": "IBmoveToTransfers",
            "inputparams": [],
            "source": "module"
        }]
    }
}