{
    "p2kwiet2012247645428_button477860030164893_onClick_seq0": {
        "id": "p2kwiet2012247645428_button477860030164893_onClick_seq0",
        "type": "ACTION_SEQUENCE",
        "params": [{
            "name": "eventobject",
            "value": "eventobject"
        }],
        "language": "js",
        "actions": [{
            "id": "expression_onClick_37261201224767711",
            "type": "ADD_SNIPPET",
            "codeSnippet": "frmIBMyTopUpsHome.hbxTokenEntry.setVisibility(false);\n frmIBMyTopUpsHome.hbxOTPEntry.setVisibility(true);\n frmIBMyTopUpsHome.lblOTPReqMsg.text = kony.i18n.getLocalizedString(\"keyotpmsgreq\");\n frmIBMyTopUpsHome.txtotp.setFocus(true);\n gblTokenSwitchFlag = false;\n gblSwitchToken = true;\n startBillTopUpOTPRequestBackground();\n \n \n \n "
        }]
    }
}