{
    "p2kwiet2012247644560_link2_onClick_seq0": {
        "id": "p2kwiet2012247644560_link2_onClick_seq0",
        "type": "ACTION_SEQUENCE",
        "params": [{
            "name": "eventobject",
            "value": "eventobject"
        }],
        "language": "js",
        "actions": [{
            "id": "customcode_onClick_31159201224763371",
            "type": "INVOKE_FUNCTION",
            "sequenceKUID": "onNextPrevLinkClick",
            "display": "onNextPrevLinkClick",
            "inputparams": [{
                "name": "obj",
                "value": "eventobject"
            }],
            "source": "module"
        }]
    }
}