{
    "p2kwiet2012247642852_linkMore3_onClick_seq0": {
        "id": "p2kwiet2012247642852_linkMore3_onClick_seq0",
        "type": "ACTION_SEQUENCE",
        "params": [{
            "name": "eventobject",
            "value": "eventobject"
        }],
        "language": "js",
        "actions": [{
            "id": "customcode_onClick_21303201224762354",
            "type": "INVOKE_FUNCTION",
            "sequenceKUID": "addBeneficaryEntry",
            "display": "addBeneficaryEntry",
            "inputparams": [],
            "source": "module"
        }]
    }
}