{
    "p2kwiet2012247641578_hbox475208533100909_onClick_seq0": {
        "id": "p2kwiet2012247641578_hbox475208533100909_onClick_seq0",
        "type": "ACTION_SEQUENCE",
        "params": [{
            "name": "eventobject",
            "value": "eventobject"
        }],
        "language": "js",
        "actions": [{
            "id": "expression_onClick_75874201224762184",
            "type": "ADD_SNIPPET",
            "codeSnippet": "gblAddressFlag=3;\n gblMyProfileAddressFlag = \"subdistrict\";\n "
        }]
    }
}