{
    "p2kwiet2012247645428_btnConfirmBillerAdd_onClick_seq0": {
        "id": "p2kwiet2012247645428_btnConfirmBillerAdd_onClick_seq0",
        "type": "ACTION_SEQUENCE",
        "params": [{
            "name": "eventobject",
            "value": "eventobject"
        }],
        "language": "js",
        "actions": [{
            "id": "decision_onClick_23947201224761646",
            "type": "IF_CONDITION",
            "conditions": [{
                "leftValueType": "expression",
                "leftValue": "kony.string.equals(gblOTPLockedForBiller, \"04\") "
            }],
            "criteria": "all"
        }, {
            "id": "decision_onClick_12742201224765558",
            "type": "ELSE_CONDITION",
            "conditions": [],
            "criteria": "all"
        }, {
            "id": "alert_onClick_57335201224765126",
            "type": "SHOW_ALERT",
            "alertType": "constants.ALERT_TYPE_ERROR",
            "alertTitle": "",
            "yesLabel": "Ok",
            "noLabel": "No",
            "alertMessage": "kony.i18n.getLocalizedString(\"Valid_MoreThan50\")",
            "messageType": "expression",
            "parentId": "decision_onClick_34030201224763738",
            "alertTitlei18n": "",
            "yesLabeli18n": "",
            "noLabeli18n": "",
            "alertMessagei18n": "",
            "iconPosition": "constants.ALERT_ICON_POSITION_LEFT"
        }, {
            "id": "expression_onClick_45761201224765702",
            "type": "ADD_SNIPPET",
            "codeSnippet": "alert(kony.i18n.getLocalizedString(\"ECVrfyOTPErr\"))\n ",
            "parentId": "decision_onClick_23947201224761646"
        }, {
            "id": "expression_onClick_55951201224769607",
            "type": "ADD_SNIPPET",
            "codeSnippet": "gblAddBillerFromPay = false;\n \n frmIBMyTopUpsHome.imgTMBLogo.setVisibility(false);\n //frmIBMyTopUpsHome.hbxTMBLogo.setVisibility(false);\n frmIBMyTopUpsHome.hbxBillersAddContainer.setVisibility(true);\n frmIBMyTopUpsHome.hbxBillersConfirmContainer.setVisibility(false);\n frmIBMyTopUpsHome.hbxBillersEditContainer.setVisibility(false);\n frmIBMyTopUpsHome.hbxBillersViewContainer.setVisibility(false);\n frmIBMyTopUpsHome.hbxCanConfBtnContainer.setVisibility(false);\n frmIBMyTopUpsHome.imgArrowAddBiller.setVisibility(true);\n frmIBMyTopUpsHome.imgArrowSegBiller.setVisibility(false);\n frmIBMyTopUpsHome.hbxBillersCompleteContainer.setVisibility(false);\n \n frmIBMyTopUpsHome.txtAddBillerNickName.text=\"\";\n frmIBMyTopUpsHome.txtAddBillerRef1.text=\"\";\n frmIBMyTopUpsHome.lblAddBillerName.text=\"\";\n frmIBMyTopUpsHome.lblAddBillerRef1.text=kony.i18n.getLocalizedString(\"keyRef1\");\n frmIBMyTopUpsHome.imgAddBillerLogo.src=\"empty.png\";\n frmIBMyTopUpsHome.txtAddBillerNickName.setEnabled(false);\n frmIBMyTopUpsHome.txtAddBillerRef1.setEnabled(false);\n \n \n ",
            "parentId": "decision_onClick_9247920122476187"
        }, {
            "id": "decision_onClick_9247920122476187",
            "type": "IF_CONDITION",
            "conditions": [{
                "leftValueType": "expression",
                "leftValue": "checkMaxBillerCountTopupIB()"
            }],
            "parentId": "decision_onClick_12742201224765558",
            "criteria": "all"
        }, {
            "id": "decision_onClick_34030201224763738",
            "type": "ELSE_CONDITION",
            "conditions": [],
            "parentId": "decision_onClick_12742201224765558",
            "criteria": "all"
        }]
    }
}