{
    "p2kwiet2012247648339_btnRet_onClick_seq0": {
        "id": "p2kwiet2012247648339_btnRet_onClick_seq0",
        "type": "ACTION_SEQUENCE",
        "params": [{
            "name": "eventobject",
            "value": "eventobject"
        }],
        "language": "js",
        "actions": [{
            "id": "customcode_onClick_36371201224763955",
            "type": "INVOKE_FUNCTION",
            "sequenceKUID": "onReturnBtnClick",
            "display": "onReturnBtnClick",
            "inputparams": [],
            "source": "module"
        }]
    }
}