{
    "p2kwiet2012247638227_link2_onClick_seq0": {
        "id": "p2kwiet2012247638227_link2_onClick_seq0",
        "type": "ACTION_SEQUENCE",
        "params": [{
            "name": "eventobject",
            "value": "eventobject"
        }],
        "language": "js",
        "actions": [{
            "id": "expression_onClick_65253201224762651",
            "type": "ADD_SNIPPET",
            "codeSnippet": "frmIBAccntFullStatement.link2.skin=lnkNormal;\n frmIBAccntFullStatement.link1.skin=lnkIB18pxBlueUnderline;\n frmIBAccntFullStatement.link3.skin=lnkIB18pxBlueUnderline;\n frmIBAccntFullStatement.link4.skin=lnkIB18pxBlueUnderline;\n frmIBAccntFullStatement.link5.skin=lnkIB18pxBlueUnderline;\n loadsegdataInStmt(frmIBAccntFullStatement.link2.text);"
        }]
    }
}