{
    "p2kwiet2012247651202_btnEngE8_onClick_seq0": {
        "id": "p2kwiet2012247651202_btnEngE8_onClick_seq0",
        "type": "ACTION_SEQUENCE",
        "params": [{
            "name": "eventobject",
            "value": "eventobject"
        }],
        "language": "js",
        "actions": [{
            "id": "customcode_onClick_31375201224766061",
            "type": "INVOKE_FUNCTION",
            "sequenceKUID": "langchange",
            "display": "langchange",
            "inputparams": [{
                "name": "lang",
                "value": "\"en_US\""
            }],
            "source": "module"
        }, {
            "id": "expression_onClick_4850120122476507",
            "type": "ADD_SNIPPET",
            "codeSnippet": "hbxiE8.btnEngE8.skin = \"btnEngLangOn\";\n hbxiE8.btnThaiE8.skin = \"btnThaiLangOff\";\n hbxiE8.btnEngE8.skin = \"btnEngLangOn\";\n hbxiE8.btnThaiE8.skin = \"btnThaiLangOff\";\n if(!kony.appinit.isIE8) {\n frmIBPreLogin.txtUserId.placeholder = kony.i18n.getLocalizedString(\"keyUserIDPreLogin\");\n frmIBPreLogin.txtPassword.placeholder = kony.i18n.getLocalizedString(\"keyPasswordPlaceHolder\");\n }hbxiE8.lnkChrome.text=kony.i18n.getLocalizedString(\"Chrome\");\n hbxiE8.lnkSafari.text=kony.i18n.getLocalizedString(\"Safari\");\n hbxiE8.lnkMozilla.text=kony.i18n.getLocalizedString(\"Mozilla\");\n hbxiE8.lnkE.text=kony.i18n.getLocalizedString(\"Internet\");\n hbxClose.btnClose.text=kony.i18n.getLocalizedString(\"Close\");\n hbxiE8.lblDesc.text=kony.i18n.getLocalizedString(\"ie8Desc\");\n "
        }]
    }
}