{
    "p2kwiet2012247645253_frmIBMyReceipentsFBContactConf_postshow_seq0": {
        "id": "p2kwiet2012247645253_frmIBMyReceipentsFBContactConf_postshow_seq0",
        "type": "ACTION_SEQUENCE",
        "params": [{
            "name": "eventobject",
            "value": "eventobject"
        }, {
            "name": "neworientation",
            "value": "neworientation"
        }],
        "language": "js",
        "actions": [{
            "id": "customcode_postshow_27111201224763965",
            "type": "INVOKE_FUNCTION",
            "sequenceKUID": "addIBMenu",
            "display": "addIBMenu",
            "inputparams": [],
            "source": "module"
        }, {
            "id": "customcode_postshow_72931201224767282",
            "type": "INVOKE_FUNCTION",
            "sequenceKUID": "setDatatoReceipentsList",
            "display": "setDatatoReceipentsList",
            "inputparams": [{
                "name": "form",
                "value": "\"7\""
            }],
            "source": "module"
        }, {
            "id": "customcode_postshow_16122201224762653",
            "type": "INVOKE_FUNCTION",
            "sequenceKUID": "pagespecificSubMenu",
            "display": "pagespecificSubMenu",
            "inputparams": [],
            "source": "module"
        }, {
            "id": "customcode_postshow_48977201224766229",
            "type": "INVOKE_FUNCTION",
            "sequenceKUID": "doRcCacheRefresh",
            "display": "doRcCacheRefresh",
            "inputparams": [],
            "source": "module"
        }, {
            "id": "customcode_postshow_92179201224769545",
            "type": "INVOKE_FUNCTION",
            "sequenceKUID": "campaginService",
            "display": "campaginService",
            "inputparams": [{
                "name": "widgetName",
                "value": "\"imgAddRecFB\""
            }, {
                "name": "formName",
                "value": "\"frmIBMyReceipentsFBContactConf\""
            }, {
                "name": "appChannel",
                "value": "\"I\""
            }],
            "source": "module"
        }]
    }
}