{
    "p2kwiet2012247640409_btnCancel1_onClick_seq0": {
        "id": "p2kwiet2012247640409_btnCancel1_onClick_seq0",
        "type": "ACTION_SEQUENCE",
        "params": [{
            "name": "eventobject",
            "value": "eventobject"
        }],
        "language": "js",
        "actions": [{
            "id": "expression_onClick_22681201224765244",
            "type": "ADD_SNIPPET",
            "codeSnippet": "frmIBBillPaymentView.lblBPStartOnDateVal.text = gblTempBPStartOnDate\n frmIBBillPaymentView.lblEndOnDateVal.text = gblTempBPEndOnDate\n frmIBBillPaymentView.lblBPRepeatAsVal.text = gblTempBPRepeatAs\n \n repeatAsIB = gblTemprepeatAsBP;\n endFreqSave = gblTempendFreqSaveBP;"
        }, {
            "id": "customcode_onClick_60296201224763076",
            "type": "INVOKE_FUNCTION",
            "sequenceKUID": "resetEditFutureBP",
            "display": "resetEditFutureBP",
            "inputparams": [],
            "source": "module"
        }, {
            "id": "expression_onClick_47836201224761508",
            "type": "ADD_SNIPPET",
            "codeSnippet": "frmIBBillPaymentView.imgTMB.setVisibility(true);"
        }]
    }
}