{
    "p2kwiet2012247643144_btnEStmtRDCOfficeAddr_onClick_seq0": {
        "id": "p2kwiet2012247643144_btnEStmtRDCOfficeAddr_onClick_seq0",
        "type": "ACTION_SEQUENCE",
        "params": [{
            "name": "eventobject",
            "value": "eventobject"
        }],
        "language": "js",
        "actions": [{
            "id": "customcode_onClick_87011201224766411",
            "type": "INVOKE_FUNCTION",
            "sequenceKUID": "onClickEStmtChooseAddressButtonIB",
            "display": "onClickEStmtChooseAddressButtonIB",
            "inputparams": [{
                "name": "widgetName",
                "value": "\"btnOfficeAddr\""
            }, {
                "name": "productName",
                "value": "\"EStmtRDC\""
            }],
            "source": "module"
        }]
    }
}