{
    "p2kwiet2012247645956_txtDSAmountSel_DESKTOPWEB_onEndEditing_seq0": {
        "id": "p2kwiet2012247645956_txtDSAmountSel_DESKTOPWEB_onEndEditing_seq0",
        "type": "ACTION_SEQUENCE",
        "params": [{
            "name": "eventobject",
            "value": "eventobject"
        }, {
            "name": "changedtext",
            "value": "changedtext"
        }],
        "language": "js",
        "actions": [{
            "id": "expression_onEndEditing_72505201224766193",
            "type": "ADD_SNIPPET",
            "codeSnippet": "frmIBOpenNewSavingsAcc.hbox5026759291321494.skin=\"hbxProper\"\n gblFinActivityLogOpenAct[\"dreamEditAmount\"] = frmIBOpenNewSavingsAcc.txtDSAmountSel.text.replace(\"/\", \"\").replace(kony.i18n.getLocalizedString(\"keyCalendarMonth\"), \"\").replace(kony.i18n.getLocalizedString(\"currencyThaiBaht\"),\"\");"
        }]
    }
}