{
    "p2kwiet2012247644245_btnhistory_onClick_seq0": {
        "id": "p2kwiet2012247644245_btnhistory_onClick_seq0",
        "type": "ACTION_SEQUENCE",
        "params": [{
            "name": "eventobject",
            "value": "eventobject"
        }],
        "language": "js",
        "actions": [{
            "id": "expression_onClick_70512201224767125",
            "type": "ADD_SNIPPET",
            "codeSnippet": "kony.print(\"history\");\n frmIBMyActivities.hbxhistory.setVisibility(true);\n frmIBMyActivities.hbxfuture.setVisibility(false);\n frmIBMyActivities.btnfuture.skin = btnDic;\n frmIBMyActivities.btnhistory.skin = btnIB289;\n frmIBMyActivities.hbxbottom.setVisibility(true);\n frmIBMyActivities.hbxbottomfuture.setVisibility(false);\n "
        }, {
            "id": "customcode_onClick_3523020122476911",
            "type": "INVOKE_FUNCTION",
            "sequenceKUID": "setSegHistoryTempData",
            "display": "setSegHistoryTempData",
            "inputparams": [],
            "source": "module"
        }]
    }
}