{
    "p2kwiet2012247641918_txtPassword_DESKTOPWEB_onEndEditing_seq0": {
        "id": "p2kwiet2012247641918_txtPassword_DESKTOPWEB_onEndEditing_seq0",
        "type": "ACTION_SEQUENCE",
        "params": [{
            "name": "eventobject",
            "value": "eventobject"
        }, {
            "name": "changedtext",
            "value": "changedtext"
        }],
        "language": "js",
        "actions": [{
            "id": "expression_onEndEditing_89275201224761687",
            "type": "ADD_SNIPPET",
            "codeSnippet": "frmIBCreateUserID.hbxPassword.skin=\"hbxIBbottomborder\"\n frmIBCreateUserID.vbxRules.setVisibility(false);\n //frmIBCreateUserID.hbxPasswordRulesBubble.setVisibility(false)\n "
        }]
    }
}