{
    "p2kwiet2012247641211_frmIBCMConfirmation_preshow_seq0": {
        "id": "p2kwiet2012247641211_frmIBCMConfirmation_preshow_seq0",
        "type": "ACTION_SEQUENCE",
        "params": [{
            "name": "eventobject",
            "value": "eventobject"
        }, {
            "name": "neworientation",
            "value": "neworientation"
        }],
        "language": "js",
        "actions": [{
            "id": "expression_preshow_82211201224767692",
            "type": "ADD_SNIPPET",
            "codeSnippet": "frmIBCMConfirmation.lblOTPinCurr.text = \"\";\n frmIBCMConfirmation.lblPlsReEnter.text = \"\"; \n "
        }, {
            "id": "expression_preshow_82523201224761048",
            "type": "ADD_SNIPPET",
            "codeSnippet": "frmIBCMConfirmation.txtOTP.maxTextLength = 6;\n frmIBCMConfirmation.lblIncorrectOtpMsg.text = \"\";\n frmIBCMConfirmation.image2474288733627.setVisibility(false);"
        }, {
            "id": "expression_preshow_64897201224762978",
            "type": "ADD_SNIPPET",
            "codeSnippet": "frmIBCMConfirmation.txtOTP.text=\"\"\n "
        }, {
            "id": "expression_preshow_52739201224762546",
            "type": "ADD_SNIPPET",
            "codeSnippet": "gblCMMore == 0\n "
        }, {
            "id": "expression_preshow_92315201224765693",
            "type": "ADD_SNIPPET",
            "codeSnippet": "gblCMHide == 0"
        }]
    }
}