{
    "p2kwiet2012247650520_btnRepeatYearly_onClick_seq0": {
        "id": "p2kwiet2012247650520_btnRepeatYearly_onClick_seq0",
        "type": "ACTION_SEQUENCE",
        "params": [{
            "name": "eventobject",
            "value": "eventobject"
        }],
        "language": "js",
        "actions": [{
            "id": "expression_onClick_98027201224768200",
            "type": "ADD_SNIPPET",
            "codeSnippet": "futuredate.btnRepeatOnce.skin = \"btnNormal\"\n futuredate.btnRepeatDaily.skin = \"btnNormal\"\n futuredate.btnRepeatWeekly.skin = \"btnNormal\"\n futuredate.btnRepeatMonthly.skin = \"btnNormal\"\n futuredate.btnRepeatYearly.skin = \"btnFocusBlue\""
        }]
    }
}