{
    "p2kwiet2012247647043_btnNextPin_onClick_seq0": {
        "id": "p2kwiet2012247647043_btnNextPin_onClick_seq0",
        "type": "ACTION_SEQUENCE",
        "params": [{
            "name": "eventobject",
            "value": "eventobject"
        }],
        "language": "js",
        "actions": [{
            "id": "navigation_onClick_32084201224763204",
            "type": "NAVIGATE_TO_FORM",
            "formId": "frmIBPointRedemptionTnC",
            "formKUID": "p2kwiet2012247647068",
            "mappings": {},
            "mappingsOrder": [],
            "parentId": "",
            "enableMappingEditor": true,
            "package": ""
        }]
    }
}