{
    "p2kwiet2012247642497_lblMnthlySavingVal_DESKTOPWEB_onEndEditing_seq0": {
        "id": "p2kwiet2012247642497_lblMnthlySavingVal_DESKTOPWEB_onEndEditing_seq0",
        "type": "ACTION_SEQUENCE",
        "params": [{
            "name": "eventobject",
            "value": "eventobject"
        }, {
            "name": "changedtext",
            "value": "changedtext"
        }],
        "language": "js",
        "actions": [{
            "id": "expression_onEndEditing_84242201224765059",
            "type": "ADD_SNIPPET",
            "codeSnippet": "frmIBDreamSAvingEdit.lblMnthlySavingVal.skin = \"txtIB20pxBlack\"\n \n gblSpecial=\"0\"\n frmIBDreamSAvingEdit.hbox86679531833761.skin=\"hbxProper\""
        }, {
            "id": "customcode_onEndEditing_7783201224765329",
            "type": "INVOKE_FUNCTION",
            "sequenceKUID": "calculateMnthCalculatorIB",
            "display": "calculateMnthCalculatorIB",
            "inputparams": [],
            "source": "module"
        }]
    }
}