{
    "p2kwiet2012247639197_frmIBBankAssuranceSummary_preshow_seq0": {
        "id": "p2kwiet2012247639197_frmIBBankAssuranceSummary_preshow_seq0",
        "type": "ACTION_SEQUENCE",
        "params": [{
            "name": "eventobject",
            "value": "eventobject"
        }, {
            "name": "neworientation",
            "value": "neworientation"
        }],
        "language": "js",
        "actions": [{
            "id": "expression_preshow_93315201224768060",
            "type": "ADD_SNIPPET",
            "codeSnippet": "frmIBBankAssuranceSummary.label449290336722095.text = kony.i18n.getLocalizedString(\"BA_Acc_Summary_Title\");\n frmIBBankAssuranceSummary.lblnvestment.text = kony.i18n.getLocalizedString(\"BA_lbl_Total_Sum_Insured\");\n frmIBBankAssuranceSummary.segAccountDetails.setData(updateLocaleDataSegBankAssurance(frmIBBankAssuranceSummary.segAccountDetails.data));\n \n // BA Details\n frmIBBankAssuranceSummary.BtnTaxDoc.text = kony.i18n.getLocalizedString(\"BA_Tax_doc\");\n frmIBBankAssuranceSummary.btnPayBill.text = kony.i18n.getLocalizedString(\"PayBill\");;\n frmIBBankAssuranceSummary.label449290336675636.text = kony.i18n.getLocalizedString(\"BA_lbl_Policy_details\");\n "
        }]
    }
}