{
    "p2kwiet2012247650732_hbox47417063034233_onClick_seq0": {
        "id": "p2kwiet2012247650732_hbox47417063034233_onClick_seq0",
        "type": "ACTION_SEQUENCE",
        "params": [{
            "name": "eventobject",
            "value": "eventobject"
        }],
        "language": "js",
        "actions": [{
            "id": "expression_onClick_21236201224769706",
            "type": "ADD_SNIPPET",
            "codeSnippet": "popupbiller.hbox47417063034266.setVisibility(true);"
        }]
    }
}