{
    "p2kwiet2012247638905_btnTnCDownloadPDF_onClick_seq0": {
        "id": "p2kwiet2012247638905_btnTnCDownloadPDF_onClick_seq0",
        "type": "ACTION_SEQUENCE",
        "params": [{
            "name": "eventobject",
            "value": "eventobject"
        }],
        "language": "js",
        "actions": [{
            "id": "expression_onClick_40060201224765150",
            "type": "ADD_SNIPPET",
            "codeSnippet": "onClickDownloadTnC('pdf','AnyIDRegistration');"
        }]
    }
}