{
    "p2kwiet2012247645740_txtODTargetAmt_DESKTOPWEB_onBeginEditing_seq0": {
        "id": "p2kwiet2012247645740_txtODTargetAmt_DESKTOPWEB_onBeginEditing_seq0",
        "type": "ACTION_SEQUENCE",
        "params": [{
            "name": "eventobject",
            "value": "eventobject"
        }, {
            "name": "changedtext",
            "value": "changedtext"
        }],
        "language": "js",
        "actions": [{
            "id": "expression_onBeginEditing_86213201224763775",
            "type": "ADD_SNIPPET",
            "codeSnippet": "gblSpecial=\"2\"\n "
        }, {
            "id": "expression_onBeginEditing_14492201224769957",
            "type": "ADD_SNIPPET",
            "codeSnippet": "var textAmount = frmIBOpenNewDreamAcc.txtODTargetAmt.text\n frmIBOpenNewDreamAcc.txtODTargetAmt.text = textAmount.replace(kony.i18n.getLocalizedString(\"currencyThaiBaht\"), \"\");\n frmIBOpenNewDreamAcc.vbxBPRight.hbxImage.setVisibility(false);\n frmIBOpenNewDreamAcc.vbxBPRight.hbxBuildMyDream.setVisibility(false);\n frmIBOpenNewDreamAcc.hbxCoverflow.setVisibility(true);\n frmIBOpenNewDreamAcc.txtODMnthSavAmt.setEnabled(true);\n frmIBOpenNewDreamAcc.txtODMyDream.setEnabled(true);\n frmIBOpenNewDreamAcc.vbxBPRight.skin=\"vbxRightColumnGrey\"\n frmIBOpenNewDreamAcc.vbxBPMiddleRight.skin=\"vbxMidRight689px\"\n frmIBOpenNewDreamAcc.image24573708914676.setVisibility(false);\n frmIBOpenNewDreamAcc.image2867539252331117.setVisibility(true);\n frmIBOpenNewDreamAcc.hbxPictureIt.skin=\"hbxProper\"\n frmIBOpenNewDreamAcc.hbxNickVal.skin=\"hbxProper\"\n frmIBOpenNewDreamAcc.hboxTarget.skin=\"hbxProperFocus\"\n frmIBOpenNewDreamAcc.hboxMonthlySaving.skin=\"hbxProper\"\n frmIBOpenNewDreamAcc.hboxMonthsToDream.skin=\"hbxProper\"\n \n /*\n \n if(isiPad)\n {\n document.getElementById(\"frmIBOpenNewDreamAcc_txtODTargetAmt\").type = \"number\"; \n }\n */\n \n \n "
        }, {
            "id": "customcode_onBeginEditing_46133201224762752",
            "type": "INVOKE_FUNCTION",
            "sequenceKUID": "disablealphaDream",
            "display": "disablealphaDream",
            "inputparams": [],
            "source": "module"
        }]
    }
}