{
    "p2kwiet2012247638782_frmIBAnyIdAnnoucment_preshow_seq0": {
        "id": "p2kwiet2012247638782_frmIBAnyIdAnnoucment_preshow_seq0",
        "type": "ACTION_SEQUENCE",
        "params": [{
            "name": "eventobject",
            "value": "eventobject"
        }, {
            "name": "neworientation",
            "value": "neworientation"
        }],
        "language": "js",
        "actions": [{
            "id": "customcode_preshow_49171201224767927",
            "type": "INVOKE_FUNCTION",
            "sequenceKUID": "registerForTimeOutIB",
            "display": "registerForTimeOutIB",
            "inputparams": [],
            "source": "module"
        }, {
            "id": "customcode_preshow_13577201224765913",
            "type": "INVOKE_FUNCTION",
            "sequenceKUID": "settingAnyIdAnnoucementPageKeys",
            "display": "settingAnyIdAnnoucementPageKeys",
            "inputparams": [],
            "source": "module"
        }]
    }
}