{
    "p2kwiet2012247639415_btnEditConfirm_onClick_seq0": {
        "id": "p2kwiet2012247639415_btnEditConfirm_onClick_seq0",
        "type": "ACTION_SEQUENCE",
        "params": [{
            "name": "eventobject",
            "value": "eventobject"
        }],
        "language": "js",
        "actions": [{
            "id": "expression_onClick_65304201224769627",
            "type": "ADD_SNIPPET",
            "codeSnippet": "frmIBBeepAndBillApplyCW.show();\n frmIBBeepAndBillApplyCW.txtAddBillerNickName.text = frmIBBeepAndBillConfAndComp.lblBillerName.text\n frmIBBeepAndBillApplyCW.txtAddBillerRef1.text = frmIBBeepAndBillConfAndComp.lblViewBillerRef1Value.text;\n frmIBBeepAndBillApplyCW.txtAddBillerRef2.text = frmIBBeepAndBillConfAndComp.lblViewBillerRef2Value.text;"
        }]
    }
}