{
    "p2kwiet2012247649002_frmIBTopUpLandingPage_preshow_seq0": {
        "id": "p2kwiet2012247649002_frmIBTopUpLandingPage_preshow_seq0",
        "type": "ACTION_SEQUENCE",
        "params": [{
            "name": "eventobject",
            "value": "eventobject"
        }, {
            "name": "neworientation",
            "value": "neworientation"
        }],
        "language": "js",
        "actions": [{
            "id": "expression_preshow_92541201224768206",
            "type": "ADD_SNIPPET",
            "codeSnippet": "//frmIBTopUpLandingPage.hbxRef1TopUpScreen.setVisibility(false);\n "
        }, {
            "id": "customcode_preshow_40550201224767616",
            "type": "INVOKE_FUNCTION",
            "sequenceKUID": "IBTopUpcurrentSystemDate",
            "display": "IBTopUpcurrentSystemDate",
            "inputparams": [],
            "source": "module"
        }, {
            "id": "customcode_preshow_15656201224769924",
            "type": "INVOKE_FUNCTION",
            "sequenceKUID": "clearfrmIBTopUpLandingPage",
            "display": "clearfrmIBTopUpLandingPage",
            "inputparams": [],
            "source": "module"
        }]
    }
}