{
    "p2kwiet2012247649128_btnTPOnDate_onClick_seq0": {
        "id": "p2kwiet2012247649128_btnTPOnDate_onClick_seq0",
        "type": "ACTION_SEQUENCE",
        "params": [{
            "name": "eventobject",
            "value": "eventobject"
        }],
        "language": "js",
        "actions": [{
            "id": "expression_onClick_21378201224765346",
            "type": "ADD_SNIPPET",
            "codeSnippet": "frmIBTopUpViewNEdit.hbxTPexecutiontimes.setVisibility(false);\n frmIBTopUpViewNEdit.hbxTPUntil.setVisibility(true);\n frmIBTopUpViewNEdit.lineSchTPClose.setVisibility(false);\n \n \n \n "
        }, {
            "id": "customcode_onClick_57562201224767047",
            "type": "INVOKE_FUNCTION",
            "sequenceKUID": "endingScheduleForTP",
            "display": "endingScheduleForTP",
            "inputparams": [{
                "name": "eventObject",
                "value": "eventobject"
            }],
            "source": "module"
        }]
    }
}