{
    "p2kwiet2012247638053_frmApplyMbviaIBConf_preshow_seq0": {
        "id": "p2kwiet2012247638053_frmApplyMbviaIBConf_preshow_seq0",
        "type": "ACTION_SEQUENCE",
        "params": [{
            "name": "eventobject",
            "value": "eventobject"
        }, {
            "name": "neworientation",
            "value": "neworientation"
        }],
        "language": "js",
        "actions": [{
            "id": "expression_preshow_42452201224763063",
            "type": "ADD_SNIPPET",
            "codeSnippet": "frmApplyMbviaIBConf.hbox476047582127699.setVisibility(false);\n frmApplyMbviaIBConf.hbxOTPsnt.setVisibility(false);\n frmApplyMbviaIBConf.textbox247428873338513.text = \"\";\n \n frmApplyMbviaIBConf.lblOTPinCurr.text = \"\";\n frmApplyMbviaIBConf.lblPlsReEnter.text = \"\"; \n \n \n "
        }, {
            "id": "customcode_preshow_56897201224768277",
            "type": "INVOKE_FUNCTION",
            "sequenceKUID": "handleLocaleChangeIBApplyServiceConf",
            "display": "handleLocaleChangeIBApplyServiceConf",
            "inputparams": [],
            "source": "module"
        }]
    }
}