{
    "p2kwiet2012247644245_link4future_onClick_seq0": {
        "id": "p2kwiet2012247644245_link4future_onClick_seq0",
        "type": "ACTION_SEQUENCE",
        "params": [{
            "name": "eventobject",
            "value": "eventobject"
        }],
        "language": "js",
        "actions": [{
            "id": "expression_onClick_22503201224762193",
            "type": "ADD_SNIPPET",
            "codeSnippet": "frmIBMyActivities.link4future.skin=lnkNormal;\n frmIBMyActivities.link2future.skin=lnkIB18pxBlueUnderline;\n frmIBMyActivities.link3future.skin=lnkIB18pxBlueUnderline;\n frmIBMyActivities.link5future.skin=lnkIB18pxBlueUnderline;\n frmIBMyActivities.link1future.skin=lnkIB18pxBlueUnderline;\n loadsegdataInFutureTrans(frmIBMyActivities.link4future.text);"
        }]
    }
}