{
    "p2kwiet2012247650663_popSplitTransfers_init_seq0": {
        "id": "p2kwiet2012247650663_popSplitTransfers_init_seq0",
        "type": "ACTION_SEQUENCE",
        "params": [{
            "name": "eventobject",
            "value": "eventobject"
        }, {
            "name": "neworientation",
            "value": "neworientation"
        }],
        "language": "js",
        "actions": [{
            "id": "expression_init_53956201224767585",
            "type": "ADD_SNIPPET",
            "codeSnippet": "popSplitTransfers.enabledForIdleTimeout = true"
        }]
    }
}