{
    "p2kwiet2012247642852_btnTnCPrint_onClick_seq0": {
        "id": "p2kwiet2012247642852_btnTnCPrint_onClick_seq0",
        "type": "ACTION_SEQUENCE",
        "params": [{
            "name": "eventobject",
            "value": "eventobject"
        }],
        "language": "js",
        "actions": [{
            "id": "variable_onClick_92866201224762229",
            "type": "ADD_LOCAL_VARIABLE",
            "name": "pdfFlowType",
            "valuetype": "constant",
            "datatype": "string",
            "value": "\"\""
        }, {
            "id": "customcode_onClick_6393420122476141",
            "type": "INVOKE_FUNCTION",
            "sequenceKUID": "callTermsAndConditionForEditBeneficiaryIB",
            "display": "callTermsAndConditionForEditBeneficiaryIB",
            "inputparams": [{
                "name": "showPdf",
                "value": "true"
            }],
            "source": "module"
        }]
    }
}