{
    "p2kwiet2012247648472_button506459299456960_onClick_seq0": {
        "id": "p2kwiet2012247648472_button506459299456960_onClick_seq0",
        "type": "ACTION_SEQUENCE",
        "params": [{
            "name": "eventobject",
            "value": "eventobject"
        }],
        "language": "js",
        "actions": [{
            "id": "customcode_onClick_865620122476126",
            "type": "INVOKE_FUNCTION",
            "sequenceKUID": "cancelActivationPage",
            "display": "cancelActivationPage",
            "inputparams": [],
            "source": "module"
        }]
    }
}