{
    "p2kwiet2012247642405_tbxToken_DESKTOPWEB_onEndEditing_seq0": {
        "id": "p2kwiet2012247642405_tbxToken_DESKTOPWEB_onEndEditing_seq0",
        "type": "ACTION_SEQUENCE",
        "params": [{
            "name": "eventobject",
            "value": "eventobject"
        }, {
            "name": "changedtext",
            "value": "changedtext"
        }],
        "language": "js",
        "actions": [{
            "id": "customcode_onEndEditing_15229201224768592",
            "type": "INVOKE_FUNCTION",
            "sequenceKUID": "ehFrmIBTransferNowConfirmation_tbxToken_onEndEditing",
            "display": "ehFrmIBTransferNowConfirmation_tbxToken_onEndEditing",
            "inputparams": [{
                "name": "eventobject",
                "value": " eventobject"
            }, {
                "name": "changedtext",
                "value": " changedtext"
            }],
            "source": "module"
        }]
    }
}