{
    "p2kwiet2012247650663_btnCancel_onClick_seq0": {
        "id": "p2kwiet2012247650663_btnCancel_onClick_seq0",
        "type": "ACTION_SEQUENCE",
        "params": [{
            "name": "eventobject",
            "value": "eventobject"
        }],
        "language": "js",
        "actions": [{
            "id": "expression_onClick_33139201224768478",
            "type": "ADD_SNIPPET",
            "codeSnippet": "dismissLoadingScreenPopup();\n popSplitTransfers.dismiss();"
        }]
    }
}