{
    "p2kwiet2012247644245_btnfuture_onClick_seq0": {
        "id": "p2kwiet2012247644245_btnfuture_onClick_seq0",
        "type": "ACTION_SEQUENCE",
        "params": [{
            "name": "eventobject",
            "value": "eventobject"
        }],
        "language": "js",
        "actions": [{
            "id": "expression_onClick_44435201224766825",
            "type": "ADD_SNIPPET",
            "codeSnippet": "kony.print(\"frmIBMyActivities\");\n frmIBMyActivities.hbxhistory.setVisibility(false);\n frmIBMyActivities.hbxbottom.setVisibility(false);\n frmIBMyActivities.hbxfuture.setVisibility(true);\n frmIBMyActivities.hbxbottomfuture.setVisibility(true);\n frmIBMyActivities.btnfuture.skin = btnIB289;\n frmIBMyActivities.btnhistory.skin = btnDic;\n \n "
        }, {
            "id": "customcode_onClick_80311201224768403",
            "type": "INVOKE_FUNCTION",
            "sequenceKUID": "setSegFutureTempData",
            "display": "setSegFutureTempData",
            "inputparams": [],
            "source": "module"
        }]
    }
}