{
    "p2kwiet2012247640468_frmIBChequeServiceConfirmation_preshow_seq0": {
        "id": "p2kwiet2012247640468_frmIBChequeServiceConfirmation_preshow_seq0",
        "type": "ACTION_SEQUENCE",
        "params": [{
            "name": "eventobject",
            "value": "eventobject"
        }, {
            "name": "neworientation",
            "value": "neworientation"
        }],
        "language": "js",
        "actions": [{
            "id": "expression_preshow_43085201224765273",
            "type": "ADD_SNIPPET",
            "codeSnippet": "frmIBChequeServiceConfirmation.lblOTPinCurr.text = \"\";\n frmIBChequeServiceConfirmation.lblPlsReEnter.text = \"\"; \n "
        }, {
            "id": "expression_preshow_6784201224767630",
            "type": "ADD_SNIPPET",
            "codeSnippet": "frmIBChequeServiceConfirmation.image247502979411375.src= glb_selectedData.img1;\n \n frmIBChequeServiceConfirmation.txtotp.text=\"\"\n gblChequeConfirm=\"true\"\n frmIBChequeServiceConfirmation.btnGoto.setVisibility(false);\n frmIBChequeServiceConfirmation.hbxBtn.setVisibility(true);\n frmIBChequeServiceConfirmation.hbxOtpBox.setVisibility(true);\n frmIBChequeServiceConfirmation.hbxSuccess.setVisibility(false);\n frmIBChequeServiceConfirmation.lblSuccess.setVisibility(false); \n frmIBChequeServiceConfirmation.lblBillersConfirm.text=kony.i18n.getLocalizedString(\"Confirmation\");"
        }]
    }
}