{
    "p2kwiet2012247647022_txtMemberNumber_onTextChange_seq0": {
        "id": "p2kwiet2012247647022_txtMemberNumber_onTextChange_seq0",
        "type": "ACTION_SEQUENCE",
        "params": [{
            "name": "eventobject",
            "value": "eventobject"
        }, {
            "name": "changedtext",
            "value": "changedtext"
        }],
        "language": "js",
        "actions": [{
            "id": "customcode_onTextChange_46000201224766281",
            "type": "INVOKE_FUNCTION",
            "sequenceKUID": "checkNextEnableFromRewardsLandingIB",
            "display": "checkNextEnableFromRewardsLandingIB",
            "inputparams": [],
            "source": "module"
        }]
    }
}