{
    "p2kwiet2012247650520_btnRepeatDaily_onClick_seq0": {
        "id": "p2kwiet2012247650520_btnRepeatDaily_onClick_seq0",
        "type": "ACTION_SEQUENCE",
        "params": [{
            "name": "eventobject",
            "value": "eventobject"
        }],
        "language": "js",
        "actions": [{
            "id": "expression_onClick_41176201224763777",
            "type": "ADD_SNIPPET",
            "codeSnippet": "futuredate.btnRepeatOnce.skin = \"btnNormal\"\n futuredate.btnRepeatDaily.skin = \"btnFocusBlue\"\n futuredate.btnRepeatWeekly.skin = \"btnNormal\"\n futuredate.btnRepeatMonthly.skin = \"btnNormal\"\n futuredate.btnRepeatYearly.skin = \"btnNormal\""
        }]
    }
}