{
    "p2kwiet2012247640786_txtChangeMobileNumber_DESKTOPWEB_onKeyUp_seq0": {
        "id": "p2kwiet2012247640786_txtChangeMobileNumber_DESKTOPWEB_onKeyUp_seq0",
        "type": "ACTION_SEQUENCE",
        "params": [{
            "name": "eventobject",
            "value": "eventobject"
        }, {
            "name": "changedtext",
            "value": "changedtext"
        }],
        "language": "js",
        "actions": [{
            "id": "customcode_onKeyUp_4201224767502",
            "type": "INVOKE_FUNCTION",
            "sequenceKUID": "dontAllowNonNeumaric",
            "display": "dontAllowNonNeumaric",
            "inputparams": [{
                "name": "textbozId",
                "value": "frmIBCMChgMobNoTxnLimit.txtChangeMobileNumber"
            }],
            "source": "module"
        }, {
            "id": "expression_onKeyUp_7499201224764442",
            "type": "ADD_SNIPPET",
            "codeSnippet": "if(!kony.appinit.isIE8)\n { // your function not for IE8\n onEditMobileNumberIB(frmIBCMChgMobNoTxnLimit.txtChangeMobileNumber.text);\n } "
        }]
    }
}