{
    "p2kwiet2012247639935_frmIBBillPaymentConfirm_init_seq0": {
        "id": "p2kwiet2012247639935_frmIBBillPaymentConfirm_init_seq0",
        "type": "ACTION_SEQUENCE",
        "params": [{
            "name": "eventobject",
            "value": "eventobject"
        }, {
            "name": "neworientation",
            "value": "neworientation"
        }],
        "language": "js",
        "actions": [{
            "id": "customcode_init_8201201224763382",
            "type": "INVOKE_FUNCTION",
            "sequenceKUID": "eh_frmIBBillPaymentConfirm_init",
            "display": "eh_frmIBBillPaymentConfirm_init",
            "inputparams": [],
            "source": "module"
        }]
    }
}