{
    "p2kwiet2012247651202_btnEng_onClick_seq0": {
        "id": "p2kwiet2012247651202_btnEng_onClick_seq0",
        "type": "ACTION_SEQUENCE",
        "params": [{
            "name": "eventobject",
            "value": "eventobject"
        }],
        "language": "js",
        "actions": [{
            "id": "customcode_onClick_40577201224768731",
            "type": "INVOKE_FUNCTION",
            "sequenceKUID": "langchange",
            "display": "langchange",
            "inputparams": [{
                "name": "lang",
                "value": "\"en_US\""
            }],
            "source": "module"
        }, {
            "id": "expression_onClick_16882201224761328",
            "type": "ADD_SNIPPET",
            "codeSnippet": "hbxIBPreLogin.btnEng.skin = \"btnEngLangOn\";\n hbxIBPreLogin.btnThai.skin = \"btnThaiLangOff\";\n hbxIBPostLogin.btnEng.skin = \"btnEngLangOn\";\n hbxIBPostLogin.btnThai.skin = \"btnThaiLangOff\";\n if(!kony.appinit.isIE8) {\n frmIBPreLogin.txtUserId.placeholder = kony.i18n.getLocalizedString(\"keyUserIDPreLogin\");\n frmIBPreLogin.txtPassword.placeholder = kony.i18n.getLocalizedString(\"keyPasswordPlaceHolder\");\n }"
        }]
    }
}