{
    "p2kwiet2012247639803_frmIBBillPaymentCompletenow_postshow_seq0": {
        "id": "p2kwiet2012247639803_frmIBBillPaymentCompletenow_postshow_seq0",
        "type": "ACTION_SEQUENCE",
        "params": [{
            "name": "eventobject",
            "value": "eventobject"
        }, {
            "name": "neworientation",
            "value": "neworientation"
        }],
        "language": "js",
        "actions": [{
            "id": "customcode_postshow_9859220122476483",
            "type": "INVOKE_FUNCTION",
            "sequenceKUID": "eh_frmIBBillPaymentCompletenow_postshow",
            "display": "eh_frmIBBillPaymentCompletenow_postshow",
            "inputparams": [],
            "source": "module"
        }]
    }
}