{
    "p2kwiet2012247647346_linkMore_onClick_seq0": {
        "id": "p2kwiet2012247647346_linkMore_onClick_seq0",
        "type": "ACTION_SEQUENCE",
        "params": [{
            "name": "eventobject",
            "value": "eventobject"
        }],
        "language": "js",
        "actions": [{
            "id": "expression_onClick_7006320122476743",
            "type": "ADD_SNIPPET",
            "codeSnippet": "showLoadingScreenPopup();\n frmIBDateSlider.lblactivity.text = kony.i18n.getLocalizedString(\"MyActivitiesIB\");\n frmIBMyActivities.lblactivity.text = kony.i18n.getLocalizedString(\"MyActivitiesIB\");\n frmIBMyActivities.lblMyActivities.text = kony.i18n.getLocalizedString(\"MyActivitiesIB\");\n btncalenderOnClick();"
        }]
    }
}