{
    "p2kwiet2012247640409_btnBPReturn_onClick_seq0": {
        "id": "p2kwiet2012247640409_btnBPReturn_onClick_seq0",
        "type": "ACTION_SEQUENCE",
        "params": [{
            "name": "eventobject",
            "value": "eventobject"
        }],
        "language": "js",
        "actions": [{
            "id": "expression_onClick_32871201224769148",
            "type": "ADD_SNIPPET",
            "codeSnippet": "/*\n frmIBMyActivities.show();\n if(frmIBMyActivities.btncalender.focusSkin == btnIBTabBlue)\n showCalendar(gsSelectedDate,frmIBMyActivities);\n */\n IBMyActivitiesShowCalendar();"
        }]
    }
}