{
    "p2kwiet2012247646206_btnPopUpTermination_onClick_seq0": {
        "id": "p2kwiet2012247646206_btnPopUpTermination_onClick_seq0",
        "type": "ACTION_SEQUENCE",
        "params": [{
            "name": "eventobject",
            "value": "eventobject"
        }],
        "language": "js",
        "actions": [{
            "id": "decision_onClick_81725201224766044",
            "type": "IF_CONDITION",
            "conditions": [{
                "leftValueType": "expression",
                "leftValue": "gblOnClickCoverflow==\"SAVINGSCARE\""
            }],
            "criteria": "all"
        }, {
            "id": "decision_onClick_23944201224764677",
            "type": "ELSE_CONDITION",
            "conditions": [],
            "criteria": "all"
        }, {
            "id": "expression_onClick_42811201224763727",
            "type": "ADD_SNIPPET",
            "codeSnippet": "frmIBOpenNewSavingsCareAcc.coverFlowTP.onSelect=IBonclickSavingsCareAccountCoverFlow;\n frmIBOpenNewSavingsCareAccConfirmation.lblOASCOpenActVal.text=frmIBOpenNewSavingsCareAcc.txtAmount.text\n gblRetryCountRequestOTP = \"0\";",
            "parentId": "decision_onClick_81725201224766044"
        }, {
            "id": "customcode_onClick_33348201224769591",
            "type": "INVOKE_FUNCTION",
            "sequenceKUID": "IBonClickSavingCareLanding",
            "display": "IBonClickSavingCareLanding",
            "inputparams": [],
            "parentId": "decision_onClick_81725201224766044",
            "source": "module"
        }, {
            "id": "expression_onClick_960201224766800",
            "type": "ADD_SNIPPET",
            "codeSnippet": "alert(\"Please select an account\")",
            "parentId": "decision_onClick_23944201224764677"
        }]
    }
}