{
    "p2kwiet2012247638227_btnm1_onClick_seq0": {
        "id": "p2kwiet2012247638227_btnm1_onClick_seq0",
        "type": "ACTION_SEQUENCE",
        "params": [{
            "name": "eventobject",
            "value": "eventobject"
        }],
        "language": "js",
        "actions": [{
            "id": "expression_onClick_11477201224761951",
            "type": "ADD_SNIPPET",
            "codeSnippet": "setSortBtnSkin();\n totalGridData=[];\n startCCstatementserviceIB(\"billed\", \"1\" );\n frmIBAccntFullStatement.btnm1.skin = \"btnIBrndleftblueFullStatement\";\n frmIBAccntFullStatement.btnm2.skin = \"btnIBTabgreyFullStatement\";\n frmIBAccntFullStatement.btnm3.skin = \"btnIBTabgreyFullStatement\";\n frmIBAccntFullStatement.btnm4.skin = \"btnIBTabgreyFullStatement\";\n frmIBAccntFullStatement.btnm5.skin = \"btnIBTabgreyFullStatement\";\n frmIBAccntFullStatement.btnm6.skin = \"btnIBrndrightgreyFullStatement\";\n "
        }]
    }
}