{
    "p2kwiet2012247641578_tbxToken_DESKTOPWEB_onBeginEditing_seq0": {
        "id": "p2kwiet2012247641578_tbxToken_DESKTOPWEB_onBeginEditing_seq0",
        "type": "ACTION_SEQUENCE",
        "params": [{
            "name": "eventobject",
            "value": "eventobject"
        }, {
            "name": "changedtext",
            "value": "changedtext"
        }],
        "language": "js",
        "actions": [{
            "id": "expression_onBeginEditing_81919201224766478",
            "type": "ADD_SNIPPET",
            "codeSnippet": "frmIBCMEditMyProfile.hbxTokenEntry.skin=\"hbxOtpTextField\";"
        }]
    }
}