{
    "p2kwiet2012247644098_btnSave1_onClick_seq0": {
        "id": "p2kwiet2012247644098_btnSave1_onClick_seq0",
        "type": "ACTION_SEQUENCE",
        "params": [{
            "name": "eventobject",
            "value": "eventobject"
        }],
        "language": "js",
        "actions": [{
            "id": "customcode_onClick_59995201224768656",
            "type": "INVOKE_FUNCTION",
            "sequenceKUID": "showfrmViewAccntIB",
            "display": "showfrmViewAccntIB",
            "inputparams": [],
            "source": "module"
        }]
    }
}