{
    "p2kwiet2012247641860_btnContactUs_onClick_seq0": {
        "id": "p2kwiet2012247641860_btnContactUs_onClick_seq0",
        "type": "ACTION_SEQUENCE",
        "params": [{
            "name": "eventobject",
            "value": "eventobject"
        }],
        "language": "js",
        "actions": [{
            "id": "customcode_onClick_99378201224764314",
            "type": "INVOKE_FUNCTION",
            "sequenceKUID": "contactUsDisplayIB",
            "display": "contactUsDisplayIB",
            "inputparams": [],
            "source": "module"
        }, {
            "id": "expression_onClick_19076201224768552",
            "type": "ADD_SNIPPET",
            "codeSnippet": "frmIBContactUs.hbxCntImage.margin=[0,6,0,0];"
        }]
    }
}