{
    "p2kwiet2012247646427_hbxNickName_onClick_seq0": {
        "id": "p2kwiet2012247646427_hbxNickName_onClick_seq0",
        "type": "ACTION_SEQUENCE",
        "params": [{
            "name": "eventobject",
            "value": "eventobject"
        }],
        "language": "js",
        "actions": [{
            "id": "expression_onClick_47060201224765690",
            "type": "ADD_SNIPPET",
            "codeSnippet": "frmIBOpenNewTermDepositAcc.hboxOpenAmount.skin=NoSkin\n frmIBOpenNewTermDepositAcc.hbxPayingIntTo.skin=NoSkin\n //frmIBOpenNewTermDepositAcc.hbxAmount.skin=NoSkin\n //frmIBOpenNewTermDepositAcc.hbxNickName.skin=hboxBG\n frmIBOpenNewTermDepositAcc.imgOpenAmount.setVisibility(false)\n frmIBOpenNewTermDepositAcc.imgPayInterest.setVisibility(false)"
        }]
    }
}