{
    "p2kwiet2012247645597_txtChangeMobileNumber_DESKTOPWEB_onBeginEditing_seq0": {
        "id": "p2kwiet2012247645597_txtChangeMobileNumber_DESKTOPWEB_onBeginEditing_seq0",
        "type": "ACTION_SEQUENCE",
        "params": [{
            "name": "eventobject",
            "value": "eventobject"
        }, {
            "name": "changedtext",
            "value": "changedtext"
        }],
        "language": "js",
        "actions": [{
            "id": "expression_onBeginEditing_75226201224765822",
            "type": "ADD_SNIPPET",
            "codeSnippet": "var noniphendata = \"\";\n var txt = frmIBOpenAccountContactKYC.txtChangeMobileNumber.text\n var txtLen = frmIBOpenAccountContactKYC.txtChangeMobileNumber.text.length;\n \n for (i = 0; i < txtLen; i++)\n if (txt[i] != \"-\") noniphendata += txt[i];\n frmIBOpenAccountContactKYC.txtChangeMobileNumber.text = noniphendata;"
        }]
    }
}