{
    "p2kwiet2012247646755_btnConfirm_onClick_seq0": {
        "id": "p2kwiet2012247646755_btnConfirm_onClick_seq0",
        "type": "ACTION_SEQUENCE",
        "params": [{
            "name": "eventobject",
            "value": "eventobject"
        }],
        "language": "js",
        "actions": [{
            "id": "decision_onClick_7862420122476594",
            "type": "IF_CONDITION",
            "conditions": [{
                "leftValueType": "expression",
                "leftValue": "frmIBOpenProdMailAddressEdit.hbxOtpBox.isVisible==true"
            }],
            "criteria": "all"
        }, {
            "id": "decision_onClick_36318201224765523",
            "type": "ELSE_CONDITION",
            "conditions": [],
            "criteria": "all"
        }, {
            "id": "customcode_onClick_18329201224766121",
            "type": "INVOKE_FUNCTION",
            "sequenceKUID": "checkEditAddressChanged",
            "display": "checkEditAddressChanged",
            "inputparams": [],
            "parentId": "decision_onClick_6104920122476534",
            "source": "module"
        }, {
            "id": "customcode_onClick_7628201224769438",
            "type": "INVOKE_FUNCTION",
            "sequenceKUID": "validateOTPIBprofile",
            "display": "validateOTPIBprofile",
            "inputparams": [],
            "parentId": "decision_onClick_7862420122476594",
            "source": "module"
        }, {
            "id": "customcode_onClick_41694201224763640",
            "type": "INVOKE_FUNCTION",
            "sequenceKUID": "onMyProfileAddressNextIB",
            "display": "onMyProfileAddressNextIB",
            "inputparams": [],
            "parentId": "decision_onClick_16401201224769924",
            "source": "module"
        }, {
            "id": "decision_onClick_16401201224769924",
            "type": "IF_CONDITION",
            "conditions": [{
                "leftValueType": "expression",
                "leftValue": "frmIBOpenProdMailAddressEdit.hbxcnf2.isVisible==true"
            }],
            "parentId": "decision_onClick_36318201224765523",
            "criteria": "all"
        }, {
            "id": "decision_onClick_6104920122476534",
            "type": "ELSE_CONDITION",
            "conditions": [],
            "parentId": "decision_onClick_36318201224765523",
            "criteria": "all"
        }]
    }
}