{
    "p2kwiet2012247641418_button474139778230830_onClick_seq0": {
        "id": "p2kwiet2012247641418_button474139778230830_onClick_seq0",
        "type": "ACTION_SEQUENCE",
        "params": [{
            "name": "eventobject",
            "value": "eventobject"
        }],
        "language": "js",
        "actions": [{
            "id": "navigation_onClick_5037201224761846",
            "type": "NAVIGATE_TO_FORM",
            "formId": "frmIBCMEditMyProfile",
            "formKUID": "p2kwiet2012247641578",
            "mappings": {},
            "mappingsOrder": [],
            "parentId": "",
            "enableMappingEditor": true,
            "package": ""
        }]
    }
}