{
    "p2kwiet2012247651947_btnAddSuggBiller_onClick_seq0": {
        "id": "p2kwiet2012247651947_btnAddSuggBiller_onClick_seq0",
        "type": "ACTION_SEQUENCE",
        "params": [{
            "name": "eventobject",
            "value": "eventobject"
        }, {
            "name": "context",
            "value": "context"
        }],
        "language": "js",
        "actions": [{
            "id": "decision_onClick_2942201224767394",
            "type": "IF_CONDITION",
            "conditions": [{
                "leftValueType": "expression",
                "leftValue": "checkMaxBillerCount()"
            }],
            "criteria": "all"
        }, {
            "id": "decision_onClick_84381201224768024",
            "type": "ELSE_CONDITION",
            "conditions": [],
            "criteria": "all"
        }, {
            "id": "expression_onClick_35069201224762953",
            "type": "ADD_SNIPPET",
            "codeSnippet": "gblAddBillerFromPay = true;\n gblSuggestedBiller =false;\n frmIBMyTopUpsHome.show()",
            "parentId": "decision_onClick_2942201224767394"
        }, {
            "id": "alert_onClick_2257201224768047",
            "type": "SHOW_ALERT",
            "alertType": "constants.ALERT_TYPE_ERROR",
            "alertTitle": "",
            "yesLabel": "Ok",
            "noLabel": "No",
            "alertMessage": "kony.i18n.getLocalizedString(\"Valid_MoreThan50\")",
            "messageType": "expression",
            "parentId": "decision_onClick_84381201224768024",
            "alertTitlei18n": "",
            "yesLabeli18n": "",
            "noLabeli18n": "",
            "alertMessagei18n": "",
            "iconPosition": "constants.ALERT_ICON_POSITION_LEFT"
        }]
    }
}