{
    "p2kwiet2012247641322_tbxToken_DESKTOPWEB_onEndEditing_seq0": {
        "id": "p2kwiet2012247641322_tbxToken_DESKTOPWEB_onEndEditing_seq0",
        "type": "ACTION_SEQUENCE",
        "params": [{
            "name": "eventobject",
            "value": "eventobject"
        }, {
            "name": "changedtext",
            "value": "changedtext"
        }],
        "language": "js",
        "actions": [{
            "id": "expression_onEndEditing_6890720122476470",
            "type": "ADD_SNIPPET",
            "codeSnippet": "frmIBCMConfirmationPwd.hbxTokenEntry.skin=\"hbxOtpTextFieldNormal\";"
        }]
    }
}