{
    "p2kwiet2012247642497_btnToken_onClick_seq0": {
        "id": "p2kwiet2012247642497_btnToken_onClick_seq0",
        "type": "ACTION_SEQUENCE",
        "params": [{
            "name": "eventobject",
            "value": "eventobject"
        }],
        "language": "js",
        "actions": [{
            "id": "expression_onClick_18819201224768045",
            "type": "ADD_SNIPPET",
            "codeSnippet": "frmIBDreamSAvingEdit.hbxToken.setVisibility(false);\n frmIBDreamSAvingEdit.hbxOTPEntry.setVisibility(true);\n frmIBDreamSAvingEdit.hbxOTPBankRef.isVisible = true;\n frmIBDreamSAvingEdit.hbxOTPsnt.isVisible = true;\n frmIBDreamSAvingEdit.lblOTPMsgReq.isVisible = true;\n frmIBDreamSAvingEdit.lblOTPMsgReq.text=kony.i18n.getLocalizedString(\"keyotpmsgreq\");\n gblTokenSwitchFlag = false;\n gblSwitchToken = true;\n callOTPServiceDSMIB();\n frmIBDreamSAvingEdit.txtBxOTP.setFocus(true);"
        }]
    }
}