{
    "p2kwiet2012247644098_button447476809947_onClick_seq0": {
        "id": "p2kwiet2012247644098_button447476809947_onClick_seq0",
        "type": "ACTION_SEQUENCE",
        "params": [{
            "name": "eventobject",
            "value": "eventobject"
        }],
        "language": "js",
        "actions": [{
            "id": "expression_onClick_66827201224763565",
            "type": "ADD_SNIPPET",
            "codeSnippet": "\n if (getCRMLockStatus()) {\n curr_form=kony.application.getCurrentForm().id;\n popIBBPOTPLocked.show();\n }\n else{\n frmIBMyAccnts.hbxTMBImg.setVisibility(false);\n //frmIBMyAccnts.imgArrow.setVisibility(false);\n frmIBMyAccnts.hboxAddNewAccnt.setVisibility(false);\n frmIBMyAccnts.hbxViewAccnt.setVisibility(false);\n frmIBMyAccnts.hbxEditAccntNN.setVisibility(true);\n \n \n \n frmIBMyAccnts.txtbxEditAccntNN.text = frmIBMyAccnts.lblViewNickNameHdr.text;\n frmIBMyAccnts.txtbxEditAccntNN.setFocus(true);\n kony.print(\"frmIBMyAccnts.txtbxEditAccntNN.text 222 : \"+frmIBMyAccnts.txtbxEditAccntNN.text)\n \n }\n \n \n "
        }, {
            "id": "customcode_onClick_15470201224767083",
            "type": "INVOKE_FUNCTION",
            "sequenceKUID": "onClickEditMyaccount",
            "display": "onClickEditMyaccount",
            "inputparams": [],
            "source": "module"
        }]
    }
}