{
    "p2kwiet2012247643459_hbox475953308331_onClick_seq0": {
        "id": "p2kwiet2012247643459_hbox475953308331_onClick_seq0",
        "type": "ACTION_SEQUENCE",
        "params": [{
            "name": "eventobject",
            "value": "eventobject"
        }],
        "language": "js",
        "actions": [{
            "id": "customcode_onClick_68981201224769855",
            "type": "INVOKE_FUNCTION",
            "sequenceKUID": "IBTnCText",
            "display": "IBTnCText",
            "inputparams": [],
            "source": "module"
        }]
    }
}