{
    "p2kwiet2012247644098_button447476809946_onClick_seq0": {
        "id": "p2kwiet2012247644098_button447476809946_onClick_seq0",
        "type": "ACTION_SEQUENCE",
        "params": [{
            "name": "eventobject",
            "value": "eventobject"
        }],
        "language": "js",
        "actions": [{
            "id": "decision_onClick_58522201224764040",
            "type": "IF_CONDITION",
            "conditions": [{
                "leftValueType": "expression",
                "leftValue": "getCRMLockStatus()"
            }],
            "criteria": "all"
        }, {
            "id": "decision_onClick_45831201224765877",
            "type": "ELSE_CONDITION",
            "conditions": [],
            "criteria": "all"
        }, {
            "id": "expression_onClick_24503201224769568",
            "type": "ADD_SNIPPET",
            "codeSnippet": "curr_form=kony.application.getCurrentForm().id;\n popIBBPOTPLocked.show();",
            "parentId": "decision_onClick_58522201224764040"
        }, {
            "id": "expression_onClick_51517201224763690",
            "type": "ADD_SNIPPET",
            "codeSnippet": "kony.print(\"varFMA --> \"+varFMA + \"varFAMA -->: \"+varFAMA );\n \n if(gblsegID == \"segTMBAccntsList\"){\n \n popupDeleAccnt.lblConfoMsg.text = kony.i18n.getLocalizedString(\"keylblDelAcc\");\n \n }else{\n \n popupDeleAccnt.lblConfoMsg.text = kony.i18n.getLocalizedString(\"keylblDelAcc\");\n \n }\n popupDeleAccnt.button44747680938122.onClick =onclickDeleteMyaccountFlow;\n popupDeleAccnt.image244747680938084.setVisibility(true);\n popupDeleAccnt.button44747680938122.text = kony.i18n.getLocalizedString(\"keyYes\");\n popupDeleAccnt.image244747680938084.src = \"delredicon.png.png\";\n popupDeleAccnt.hbox44914510567887.setVisibility(true);",
            "parentId": "decision_onClick_45831201224765877"
        }, {
            "id": "navigation_onClick_66091201224765451",
            "type": "DISPLAY_POPUP",
            "popupId": "popupDeleAccnt",
            "popupKUID": "p2kwiet2012247650774",
            "mappings": {},
            "mappingsOrder": [],
            "parentId": "decision_onClick_45831201224765877",
            "enableMappingEditor": true
        }]
    }
}