{
    "p2kwiet2012247640786_tbxToken_DESKTOPWEB_onEndEditing_seq0": {
        "id": "p2kwiet2012247640786_tbxToken_DESKTOPWEB_onEndEditing_seq0",
        "type": "ACTION_SEQUENCE",
        "params": [{
            "name": "eventobject",
            "value": "eventobject"
        }, {
            "name": "changedtext",
            "value": "changedtext"
        }],
        "language": "js",
        "actions": [{
            "id": "expression_onEndEditing_9594320122476808",
            "type": "ADD_SNIPPET",
            "codeSnippet": "frmIBCMChgMobNoTxnLimit.hbxTokenEntry.skin=\"hbxOtpTextFieldNormal\""
        }]
    }
}