{
    "p2kwiet2012247649303_tbxXferNTR_onTextChange_seq0": {
        "id": "p2kwiet2012247649303_tbxXferNTR_onTextChange_seq0",
        "type": "ACTION_SEQUENCE",
        "params": [{
            "name": "eventobject",
            "value": "eventobject"
        }, {
            "name": "changedtext",
            "value": "changedtext"
        }],
        "language": "js",
        "actions": [{
            "id": "customcode_onTextChange_97708201224763738",
            "type": "INVOKE_FUNCTION",
            "sequenceKUID": "notAllowEmojiChars",
            "display": "notAllowEmojiChars",
            "inputparams": [{
                "name": "eventObj",
                "value": " eventobject"
            }],
            "source": "module"
        }]
    }
}