{
    "p2kwiet2012247649002_btnAfter_onClick_seq0": {
        "id": "p2kwiet2012247649002_btnAfter_onClick_seq0",
        "type": "ACTION_SEQUENCE",
        "params": [{
            "name": "eventobject",
            "value": "eventobject"
        }],
        "language": "js",
        "actions": [{
            "id": "customcode_onClick_95965201224761353",
            "type": "INVOKE_FUNCTION",
            "sequenceKUID": "IBOnClickAfterFutureTopUp",
            "display": "IBOnClickAfterFutureTopUp",
            "inputparams": [],
            "source": "module"
        }]
    }
}