{
    "p2kwiet2012247643720_calStartDate_onSelection_seq0": {
        "id": "p2kwiet2012247643720_calStartDate_onSelection_seq0",
        "type": "ACTION_SEQUENCE",
        "params": [{
            "name": "eventobject",
            "value": "eventobject"
        }, {
            "name": "isValidDateSelected",
            "value": "isValidDateSelected"
        }],
        "language": "js",
        "actions": []
    }
}