{
    "p2kwiet2012247641860_hbxFB3_onClick_seq0": {
        "id": "p2kwiet2012247641860_hbxFB3_onClick_seq0",
        "type": "ACTION_SEQUENCE",
        "params": [{
            "name": "eventobject",
            "value": "eventobject"
        }],
        "language": "js",
        "actions": [{
            "id": "customcode_onClick_9915320122476155",
            "type": "INVOKE_FUNCTION",
            "sequenceKUID": "onFeedbackSelection",
            "display": "onFeedbackSelection",
            "inputparams": [{
                "name": "eventobject",
                "value": "eventobject"
            }],
            "source": "module"
        }]
    }
}