{
    "p2kwiet2012247645129_link50273743118087_onClick_seq0": {
        "id": "p2kwiet2012247645129_link50273743118087_onClick_seq0",
        "type": "ACTION_SEQUENCE",
        "params": [{
            "name": "eventobject",
            "value": "eventobject"
        }],
        "language": "js",
        "actions": [{
            "id": "expression_onClick_19187201224765970",
            "type": "ADD_SNIPPET",
            "codeSnippet": "frmIBMyReceipentsAddBankAccnt.hboxTMBSelectAccnt.isVisible = true;\n frmIBMyReceipentsAddBankAccnt.hboxAddAccntConf.isVisible = false;\n \n if(gblAdd_Receipent_State != gblEXISTING_RC_EDITION){\n gblAdd_Receipent_State=gblNEW_RC_ADDITION_PRECONFIRM;\n }\n if(checkAccountCountBulkAddition() == MAX_BANK_ACCNT_BULK_ADD){\n return;\n }else{\n if(checkAccountCountBulkAddition()==1 && recipientAddFromTransfer){\n return;\n }\n clearDataOnRcBankAdditionForm();\n showLoadingScreenPopup();\n frmIBMyReceipentsAddBankAccnt.show();\n }\n "
        }]
    }
}