{
    "p2kwiet2012247640897_button474288733632_onClick_seq0": {
        "id": "p2kwiet2012247640897_button474288733632_onClick_seq0",
        "type": "ACTION_SEQUENCE",
        "params": [{
            "name": "eventobject",
            "value": "eventobject"
        }],
        "language": "js",
        "actions": [{
            "id": "expression_onClick_6670201224768997",
            "type": "ADD_SNIPPET",
            "codeSnippet": "editbuttonflag = \"profile\";\n showLoadingScreenPopup();\n editConfirm = false;\n gblAddressFlag = 1;\n gblMyProfileAddressFlag = \"state\";\n frmIBCMEditMyProfile.hbxRequest.setVisibility(false);\n frmIBCMEditMyProfile.arrowrequest.setVisibility(false);\n frmIBCMEditMyProfile.label475124774164.setVisibility(true);\n frmIBCMEditMyProfile.hboxEdit.setVisibility(true);\n frmIBCMEditMyProfile.hbxCancelSave.setVisibility(true);"
        }, {
            "id": "customcode_onClick_4468201224761233",
            "type": "INVOKE_FUNCTION",
            "sequenceKUID": "getIBEditProfileStatus",
            "display": "getIBEditProfileStatus",
            "inputparams": [],
            "source": "module"
        }]
    }
}