{
    "p2kwiet2012247639415_btnConfirm_onClick_seq0": {
        "id": "p2kwiet2012247639415_btnConfirm_onClick_seq0",
        "type": "ACTION_SEQUENCE",
        "params": [{
            "name": "eventobject",
            "value": "eventobject"
        }],
        "language": "js",
        "actions": [{
            "id": "decision_onClick_75739201224763109",
            "type": "IF_CONDITION",
            "conditions": [{
                "leftValueType": "expression",
                "leftValue": "frmIBBeepAndBillConfAndComp.btnConfirm.text == kony.i18n.getLocalizedString(\"keyConfirm\")"
            }],
            "criteria": "all"
        }, {
            "id": "decision_onClick_10154201224768505",
            "type": "ELSE_CONDITION",
            "conditions": [],
            "criteria": "all"
        }, {
            "id": "customcode_onClick_81826201224761650",
            "type": "INVOKE_FUNCTION",
            "sequenceKUID": "srvTokenSwitchingBB",
            "display": "srvTokenSwitchingBB",
            "inputparams": [],
            "parentId": "decision_onClick_48330201224764414",
            "source": "module"
        }, {
            "id": "customcode_onClick_31686201224768557",
            "type": "INVOKE_FUNCTION",
            "sequenceKUID": "verifyOTPBBComposite",
            "display": "verifyOTPBBComposite",
            "inputparams": [],
            "parentId": "decision_onClick_6380720122476879",
            "source": "module"
        }, {
            "id": "decision_onClick_6380720122476879",
            "type": "IF_CONDITION",
            "conditions": [{
                "leftValueType": "expression",
                "leftValue": "frmIBBeepAndBillConfAndComp.hbxBillersOTPContainer.isVisible == true || frmIBBeepAndBillConfAndComp.hbxToken.isVisible == true"
            }],
            "parentId": "decision_onClick_75739201224763109",
            "criteria": "all"
        }, {
            "id": "decision_onClick_48330201224764414",
            "type": "ELSE_CONDITION",
            "conditions": [],
            "parentId": "decision_onClick_75739201224763109",
            "criteria": "all"
        }, {
            "id": "expression_onClick_85182201224761959",
            "type": "ADD_SNIPPET",
            "codeSnippet": "isToAccSelected = false;\n getMyBillListIBBB()\n //frmIBBeepAndBillApply.show();\n frmIBBeepAndBillApply.imgAddBillerLogo.src = \"\"\n frmIBBeepAndBillApply.lblAddBillerCompCode.text = \"\"\n frmIBBeepAndBillApply.txtAddBillerNickName.text = \"\";\n frmIBBeepAndBillApply.txtAddBillerRef1.text = \"\";\n frmIBBeepAndBillApply.txtAddBillerRef2.text = \"\";\n frmIBBeepAndBillApply.tbxSearch.text = \"\";",
            "parentId": "decision_onClick_10154201224768505"
        }]
    }
}