{
    "p2kwiet2012247642852_btnNotSpecified_onClick_seq0": {
        "id": "p2kwiet2012247642852_btnNotSpecified_onClick_seq0",
        "type": "ACTION_SEQUENCE",
        "params": [{
            "name": "eventobject",
            "value": "eventobject"
        }],
        "language": "js",
        "actions": [{
            "id": "customcode_onClick_30661201224767165",
            "type": "INVOKE_FUNCTION",
            "sequenceKUID": "onClickNonSpecifyShowPopupIB",
            "display": "onClickNonSpecifyShowPopupIB",
            "inputparams": [],
            "source": "module"
        }]
    }
}