{
    "p2kwiet2012247643574_btnNext_onClick_seq0": {
        "id": "p2kwiet2012247643574_btnNext_onClick_seq0",
        "type": "ACTION_SEQUENCE",
        "params": [{
            "name": "eventobject",
            "value": "eventobject"
        }],
        "language": "js",
        "actions": [{
            "id": "customcode_onClick_78210201224767098",
            "type": "INVOKE_FUNCTION",
            "sequenceKUID": "tokenHnadlerEditFT",
            "display": "tokenHnadlerEditFT",
            "inputparams": [],
            "source": "module"
        }]
    }
}