{
    "p2kwiet2012247652425_btnDetals_onClick_seq0": {
        "id": "p2kwiet2012247652425_btnDetals_onClick_seq0",
        "type": "ACTION_SEQUENCE",
        "params": [{
            "name": "eventobject",
            "value": "eventobject"
        }],
        "language": "js",
        "actions": [{
            "id": "customcode_onClick_4082201224767577",
            "type": "INVOKE_FUNCTION",
            "sequenceKUID": "onClickDetailsIB",
            "display": "onClickDetailsIB",
            "inputparams": [],
            "source": "module"
        }]
    }
}