{
    "p2kwiet2012247645597_btnKYCBack_onClick_seq0": {
        "id": "p2kwiet2012247645597_btnKYCBack_onClick_seq0",
        "type": "ACTION_SEQUENCE",
        "params": [{
            "name": "eventobject",
            "value": "eventobject"
        }],
        "language": "js",
        "actions": [{
            "id": "customcode_onClick_55422201224767870",
            "type": "INVOKE_FUNCTION",
            "sequenceKUID": "loadTermsNConditionOpenAccount",
            "display": "loadTermsNConditionOpenAccount",
            "inputparams": [],
            "source": "module"
        }, {
            "id": "expression_onClick_1899820122476251",
            "type": "ADD_SNIPPET",
            "codeSnippet": "frmIBOpenProdDetnTnC.hbxImage.margin=[0,84,0,0];\n frmIBOpenProdDetnTnC.imgProductPackage.setVisibility(false);"
        }]
    }
}