{
    "p2kwiet2012247651117_btnThai_onClick_seq0": {
        "id": "p2kwiet2012247651117_btnThai_onClick_seq0",
        "type": "ACTION_SEQUENCE",
        "params": [{
            "name": "eventobject",
            "value": "eventobject"
        }],
        "language": "js",
        "actions": [{
            "id": "customcode_onClick_21897201224762232",
            "type": "INVOKE_FUNCTION",
            "sequenceKUID": "langchange",
            "display": "langchange",
            "inputparams": [{
                "name": "lang",
                "value": "\"th_TH\""
            }],
            "source": "module"
        }, {
            "id": "expression_onClick_38379201224766194",
            "type": "ADD_SNIPPET",
            "codeSnippet": "hbxIBPreLogin.btnEng.skin = \"btnEngLangOff\";\n hbxIBPreLogin.btnThai.skin = \"btnThaiLangOn\";\n hbxIBPostLogin.btnEng.skin = \"btnEngLangOff\";\n hbxIBPostLogin.btnThai.skin = \"btnThaiLangOn\";\n if(!kony.appinit.isIE8) {\n frmIBPreLogin.txtUserId.placeholder = kony.i18n.getLocalizedString(\"keyUserIDPreLogin\");\n frmIBPreLogin.txtPassword.placeholder = kony.i18n.getLocalizedString(\"keyPasswordPlaceHolder\");\n }"
        }]
    }
}