{
    "p2kwiet2012247644245_link3_onClick_seq0": {
        "id": "p2kwiet2012247644245_link3_onClick_seq0",
        "type": "ACTION_SEQUENCE",
        "params": [{
            "name": "eventobject",
            "value": "eventobject"
        }],
        "language": "js",
        "actions": [{
            "id": "customcode_onClick_12757201224769802",
            "type": "INVOKE_FUNCTION",
            "sequenceKUID": "loadsegdata",
            "display": "loadsegdata",
            "inputparams": [{
                "name": "page",
                "value": "frmIBMyActivities.link3.text "
            }],
            "source": "module"
        }, {
            "id": "expression_onClick_82406201224764556",
            "type": "ADD_SNIPPET",
            "codeSnippet": "frmIBMyActivities.link3.skin=lnkNormal;\n frmIBMyActivities.link2.skin=lnkIB18pxBlueUnderline;\n frmIBMyActivities.link1.skin=lnkIB18pxBlueUnderline;\n frmIBMyActivities.link4.skin=lnkIB18pxBlueUnderline;\n frmIBMyActivities.link5.skin=lnkIB18pxBlueUnderline;"
        }]
    }
}