{
    "p2kwiet2012247650632_button44747680938122_onClick_seq0": {
        "id": "p2kwiet2012247650632_button44747680938122_onClick_seq0",
        "type": "ACTION_SEQUENCE",
        "params": [{
            "name": "eventobject",
            "value": "eventobject"
        }],
        "language": "js",
        "actions": [{
            "id": "customcode_onClick_85010201224761286",
            "type": "INVOKE_FUNCTION",
            "sequenceKUID": "deleteFutureTPViewPage",
            "display": "deleteFutureTPViewPage",
            "inputparams": [],
            "source": "module"
        }, {
            "id": "expression_onClick_75502201224763196",
            "type": "ADD_SNIPPET",
            "codeSnippet": "popIBFutureTPDelete.dismiss()\n //frmIBMyActivities.show();"
        }]
    }
}