{
    "p2kwiet2012247647721_btnConfirmOTP_onClick_seq0": {
        "id": "p2kwiet2012247647721_btnConfirmOTP_onClick_seq0",
        "type": "ACTION_SEQUENCE",
        "params": [{
            "name": "eventobject",
            "value": "eventobject"
        }],
        "language": "js",
        "actions": [{
            "id": "customcode_onClick_99596201224768861",
            "type": "INVOKE_FUNCTION",
            "sequenceKUID": "checkBusinessHoursBeforeIBConfirm",
            "display": "checkBusinessHoursBeforeIBConfirm",
            "inputparams": [],
            "source": "module"
        }]
    }
}