{
    "p2kwiet2012247640268_btnOnDate_onClick_seq0": {
        "id": "p2kwiet2012247640268_btnOnDate_onClick_seq0",
        "type": "ACTION_SEQUENCE",
        "params": [{
            "name": "eventobject",
            "value": "eventobject"
        }],
        "language": "js",
        "actions": [{
            "id": "customcode_onClick_60552012247620",
            "type": "INVOKE_FUNCTION",
            "sequenceKUID": "IBOnClickOnDateFutureBills",
            "display": "IBOnClickOnDateFutureBills",
            "inputparams": [],
            "source": "module"
        }]
    }
}