{
    "p2kwiet2012247638227_btnback_onClick_seq0": {
        "id": "p2kwiet2012247638227_btnback_onClick_seq0",
        "type": "ACTION_SEQUENCE",
        "params": [{
            "name": "eventobject",
            "value": "eventobject"
        }],
        "language": "js",
        "actions": [{
            "id": "expression_onClick_23995201224764159",
            "type": "ADD_SNIPPET",
            "codeSnippet": "gblStmntSessionFlag= \"2\";\n if(gaccType == \"TD\")\n gaccType = \"CDA\";\n frmIBAccntFullStatement.dgcredit.removeAll();\n frmIBAccntFullStatement.dgfullstmt.removeAll();\n bindataIB=\"\";\n binlengthIB=\"\";\n //frmIBAccntFullStatement.destroy();\n "
        }, {
            "id": "navigation_onClick_90318201224763885",
            "type": "NAVIGATE_TO_FORM",
            "formId": "frmIBAccntSummary",
            "formKUID": "p2kwiet2012247638386",
            "mappings": {},
            "mappingsOrder": [],
            "parentId": "",
            "enableMappingEditor": true,
            "package": ""
        }]
    }
}