{
    "p2kwiet2012247638987_frmIBApplySoGooODComplete_postshow_seq0": {
        "id": "p2kwiet2012247638987_frmIBApplySoGooODComplete_postshow_seq0",
        "type": "ACTION_SEQUENCE",
        "params": [{
            "name": "eventobject",
            "value": "eventobject"
        }, {
            "name": "neworientation",
            "value": "neworientation"
        }],
        "language": "js",
        "actions": [{
            "id": "customcode_postshow_8998201224763854",
            "type": "INVOKE_FUNCTION",
            "sequenceKUID": "addIBMenu",
            "display": "addIBMenu",
            "inputparams": [],
            "source": "module"
        }, {
            "id": "customcode_postshow_9094201224761160",
            "type": "INVOKE_FUNCTION",
            "sequenceKUID": "pagespecificSubMenu",
            "display": "pagespecificSubMenu",
            "inputparams": [],
            "source": "module"
        }, {
            "id": "expression_postshow_5886520122476532",
            "type": "ADD_SNIPPET",
            "codeSnippet": "frmIBApplySoGooODComplete.hbxImage.margin=[0,0,0,0];"
        }, {
            "id": "customcode_postshow_7542520122476605",
            "type": "INVOKE_FUNCTION",
            "sequenceKUID": "setFocusOnBtnAccountSum",
            "display": "setFocusOnBtnAccountSum",
            "inputparams": [{
                "name": "currentFormId",
                "value": "kony.application.getCurrentForm()"
            }],
            "source": "module"
        }]
    }
}