{
    "p2kwiet2012247641578_txtemailvalue_DESKTOPWEB_onEndEditing_seq0": {
        "id": "p2kwiet2012247641578_txtemailvalue_DESKTOPWEB_onEndEditing_seq0",
        "type": "ACTION_SEQUENCE",
        "params": [{
            "name": "eventobject",
            "value": "eventobject"
        }, {
            "name": "changedtext",
            "value": "changedtext"
        }],
        "language": "js",
        "actions": [{
            "id": "expression_onEndEditing_47344201224764969",
            "type": "ADD_SNIPPET",
            "codeSnippet": "frmIBCMEditMyProfile.hbox473275839192817.skin=\"hbxIBbottomborder\";"
        }]
    }
}