{
    "p2kwiet2012247642497_lblDreamDescVal_DESKTOPWEB_onKeyUp_seq0": {
        "id": "p2kwiet2012247642497_lblDreamDescVal_DESKTOPWEB_onKeyUp_seq0",
        "type": "ACTION_SEQUENCE",
        "params": [{
            "name": "eventobject",
            "value": "eventobject"
        }, {
            "name": "changedtext",
            "value": "changedtext"
        }],
        "language": "js",
        "actions": [{
            "id": "expression_onKeyUp_96314201224768896",
            "type": "ADD_SNIPPET",
            "codeSnippet": "frmIBDreamSAvingEdit.lblTargetAmntVal.skin = \"txtNormalBG\";"
        }, {
            "id": "customcode_onKeyUp_77018201224768647",
            "type": "INVOKE_FUNCTION",
            "sequenceKUID": "allowOnlyAlphaNumeric",
            "display": "allowOnlyAlphaNumeric",
            "inputparams": [{
                "name": "textbozId",
                "value": "frmIBDreamSAvingEdit.lblDreamDescVal"
            }],
            "source": "module"
        }]
    }
}