{
    "p2kwiet2012247638386_lnkRedeemPoint_onClick_seq0": {
        "id": "p2kwiet2012247638386_lnkRedeemPoint_onClick_seq0",
        "type": "ACTION_SEQUENCE",
        "params": [{
            "name": "eventobject",
            "value": "eventobject"
        }],
        "language": "js",
        "actions": [{
            "id": "customcode_onClick_28998201224769642",
            "type": "INVOKE_FUNCTION",
            "sequenceKUID": "checkCustStatus",
            "display": "checkCustStatus",
            "inputparams": [],
            "source": "module"
        }]
    }
}