{
    "p2kwiet2012247649128_txtTPEditAmtValue_DESKTOPWEB_onBeginEditing_seq0": {
        "id": "p2kwiet2012247649128_txtTPEditAmtValue_DESKTOPWEB_onBeginEditing_seq0",
        "type": "ACTION_SEQUENCE",
        "params": [{
            "name": "eventobject",
            "value": "eventobject"
        }, {
            "name": "changedtext",
            "value": "changedtext"
        }],
        "language": "js",
        "actions": [{
            "id": "expression_onBeginEditing_41129201224768272",
            "type": "ADD_SNIPPET",
            "codeSnippet": "frmIBTopUpViewNEdit.hbxTPEditAmnt.skin=\"hbox320pxpaddingfocus\""
        }]
    }
}