{
    "p2kwiet2012247647435_btnFB_onClick_seq0": {
        "id": "p2kwiet2012247647435_btnFB_onClick_seq0",
        "type": "ACTION_SEQUENCE",
        "params": [{
            "name": "eventobject",
            "value": "eventobject"
        }],
        "language": "js",
        "actions": [{
            "id": "customcode_onClick_98415201224761945",
            "type": "INVOKE_FUNCTION",
            "sequenceKUID": "promotionShareOnFB",
            "display": "promotionShareOnFB",
            "inputparams": [],
            "source": "module"
        }]
    }
}