{
    "p2kwiet2012247641578_btnDist_onSelection_seq0": {
        "id": "p2kwiet2012247641578_btnDist_onSelection_seq0",
        "type": "ACTION_SEQUENCE",
        "params": [{
            "name": "eventobject",
            "value": "eventobject"
        }],
        "language": "js",
        "actions": [{
            "id": "expression_onSelection_95333201224768200",
            "type": "ADD_SNIPPET",
            "codeSnippet": "gblAddressFlag=2;\n gblMyProfileAddressFlag = \"district\";\n "
        }, {
            "id": "customcode_onSelection_12073201224769794",
            "type": "INVOKE_FUNCTION",
            "sequenceKUID": "IBonRowSelectAddrPopUp",
            "display": "IBonRowSelectAddrPopUp",
            "inputparams": [],
            "source": "module"
        }]
    }
}