{
    "p2kwiet2012247651117_link9808934127985_onClick_seq0": {
        "id": "p2kwiet2012247651117_link9808934127985_onClick_seq0",
        "type": "ACTION_SEQUENCE",
        "params": [{
            "name": "eventobject",
            "value": "eventobject"
        }],
        "language": "js",
        "actions": [{
            "id": "expression_onClick_37555201224761501",
            "type": "ADD_SNIPPET",
            "codeSnippet": "kony.application.openURL(\"http://windows.microsoft.com/en-us/internet-explorer/download-ie\");"
        }]
    }
}