{
    "p2kwiet2012247646924_frmIBPointRedemptionConfirmation_postshow_seq0": {
        "id": "p2kwiet2012247646924_frmIBPointRedemptionConfirmation_postshow_seq0",
        "type": "ACTION_SEQUENCE",
        "params": [{
            "name": "eventobject",
            "value": "eventobject"
        }, {
            "name": "neworientation",
            "value": "neworientation"
        }],
        "language": "js",
        "actions": [{
            "id": "customcode_postshow_33794201224765892",
            "type": "INVOKE_FUNCTION",
            "sequenceKUID": "addIBMenu",
            "display": "addIBMenu",
            "inputparams": [],
            "source": "module"
        }, {
            "id": "expression_postshow_12651201224765154",
            "type": "ADD_SNIPPET",
            "codeSnippet": "if(kony.i18n.getCurrentLocale() == \"th_TH\")\n frmIBPointRedemptionConfirmation.btnMenuMyAccountSummary.skin=\"btnIBMenuMyAccountSummaryFocusThai\";\n else\n frmIBPointRedemptionConfirmation.btnMenuMyAccountSummary.skin=\"btnIBMenuMyAccountSummaryFocus\";\n "
        }]
    }
}