{
    "p2kwiet2012247645428_btnCancel_onClick_seq0": {
        "id": "p2kwiet2012247645428_btnCancel_onClick_seq0",
        "type": "ACTION_SEQUENCE",
        "params": [{
            "name": "eventobject",
            "value": "eventobject"
        }],
        "language": "js",
        "actions": [{
            "id": "expression_onClick_74497201224768060",
            "type": "ADD_SNIPPET",
            "codeSnippet": "frmIBMyTopUpsHome.imgTMBLogo.setVisibility(true);\n //frmIBMyBillersHome.hbxTMBLogo.setVisibility(true);\n frmIBMyTopUpsHome.hbxBillersAddContainer.setVisibility(false);\n frmIBMyTopUpsHome.hbxBillersConfirmContainer.setVisibility(false);\n frmIBMyTopUpsHome.hbxBillersEditContainer.setVisibility(false);\n frmIBMyTopUpsHome.hbxBillersViewContainer.setVisibility(false);\n \n frmIBMyTopUpsHome.segBillersList.setVisibility(true);//added to come back to biller list\n frmIBMyTopUpsHome.hbxSugBillersContainer.setVisibility(false);\n \n frmIBMyTopUpsHome.tbxSearch.text = \"\";\n frmIBMyTopUpsHome.lblMyBills.setVisibility(false);\n frmIBMyTopUpsHome.hbxBillersCompleteContainer.setVisibility(false);\n frmIBMyTopUpsHome.imgArrowAddBiller.setVisibility(false);\n frmIBMyTopUpsHome.imgArrowSegBiller.setVisibility(false);\n \n \n frmIBMyTopUpsHome.segBillersConfirm.removeAll();//CLearing Confirm Seg data on click of cancel\n frmIBMyTopUpsHome.btnAddBiller.setEnabled(true);//Enabling add more since the segment is flushed\n frmIBMyTopUpsHome.btnConfirmBillerAdd.setEnabled(true);//Enabling add more since the segment is flushed\n frmIBMyTopUpsHome.segSuggestedBillersList.setEnabled(true);//Enabling add more since the segment is flushed"
        }]
    }
}