{
    "p2kwiet2012247643574_frmIBFTrnsrEditCnfmtn_preshow_seq0": {
        "id": "p2kwiet2012247643574_frmIBFTrnsrEditCnfmtn_preshow_seq0",
        "type": "ACTION_SEQUENCE",
        "params": [{
            "name": "eventobject",
            "value": "eventobject"
        }, {
            "name": "neworientation",
            "value": "neworientation"
        }],
        "language": "js",
        "actions": [{
            "id": "expression_preshow_9529201224767321",
            "type": "ADD_SNIPPET",
            "codeSnippet": "frmIBFTrnsrEditCnfmtn.lblOTPinCurr.text = \"\";\n frmIBFTrnsrEditCnfmtn.lblPlsReEnter.text = \"\"; \n "
        }, {
            "id": "expression_preshow_74349201224763998",
            "type": "ADD_SNIPPET",
            "codeSnippet": "varAvailBal = false;\n //frmIBFTrnsrEditCnfmtn.lblRemaining.text = kony.i18n.getLocalizedString(\"keyRemainingIB\")\n frmIBFTrnsrEditCnfmtn.txtBxOTPFT.text = \"\"\n \n "
        }, {
            "id": "customcode_preshow_1319201224765782",
            "type": "INVOKE_FUNCTION",
            "sequenceKUID": "frmIBFTrnsrEditCnfmtnPreShow",
            "display": "frmIBFTrnsrEditCnfmtnPreShow",
            "inputparams": [],
            "source": "module"
        }]
    }
}