{
    "p2kwiet2012247638782_btnCancels_onClick_seq0": {
        "id": "p2kwiet2012247638782_btnCancels_onClick_seq0",
        "type": "ACTION_SEQUENCE",
        "params": [{
            "name": "eventobject",
            "value": "eventobject"
        }],
        "language": "js",
        "actions": [{
            "id": "customcode_onClick_7165520122476185",
            "type": "INVOKE_FUNCTION",
            "sequenceKUID": "showfrmIBPostLoginDashboard",
            "display": "showfrmIBPostLoginDashboard",
            "inputparams": [],
            "source": "module"
        }]
    }
}