{
    "p2kwiet2012247648780_frmIBTopUpCW_postshow_seq0": {
        "id": "p2kwiet2012247648780_frmIBTopUpCW_postshow_seq0",
        "type": "ACTION_SEQUENCE",
        "params": [{
            "name": "eventobject",
            "value": "eventobject"
        }, {
            "name": "neworientation",
            "value": "neworientation"
        }],
        "language": "js",
        "actions": [{
            "id": "customcode_postshow_57893201224764265",
            "type": "INVOKE_FUNCTION",
            "sequenceKUID": "addIBMenu",
            "display": "addIBMenu",
            "inputparams": [],
            "source": "module"
        }, {
            "id": "customcode_postshow_81023201224769241",
            "type": "INVOKE_FUNCTION",
            "sequenceKUID": "callcrmProfileInqForTopUP",
            "display": "callcrmProfileInqForTopUP",
            "inputparams": [],
            "source": "module"
        }, {
            "id": "expression_postshow_54845201224768706",
            "type": "ADD_SNIPPET",
            "codeSnippet": "if(kony.i18n.getCurrentLocale() != \"th_TH\")\n frmIBTopUpCW.btnMenuTopUp.skin = \"btnIBMenuTopUpFocus\";\n else \n frmIBTopUpCW.btnMenuTopUp.skin = \"btnIBMenuTopUpFocusThai\";"
        }, {
            "id": "customcode_postshow_28327201224764693",
            "type": "INVOKE_FUNCTION",
            "sequenceKUID": "addNumberCheckListner",
            "display": "addNumberCheckListner",
            "inputparams": [{
                "name": "widjet",
                "value": "\"txtAmount\""
            }],
            "source": "module"
        }]
    }
}