{
    "p2kwiet2012247650804_button475089374658701_onClick_seq0": {
        "id": "p2kwiet2012247650804_button475089374658701_onClick_seq0",
        "type": "ACTION_SEQUENCE",
        "params": [{
            "name": "eventobject",
            "value": "eventobject"
        }],
        "language": "js",
        "actions": [{
            "id": "expression_onClick_20528201224767973",
            "type": "ADD_SNIPPET",
            "codeSnippet": "frmIBMyReceipentsAddContactManually.image210107168135.src=\"avatar.png\";\n popupDisplayPicOptionsRecipients.dismiss();\n \n "
        }]
    }
}