{
    "p2kwiet2012247646755_btnPostalCode_onSelection_seq0": {
        "id": "p2kwiet2012247646755_btnPostalCode_onSelection_seq0",
        "type": "ACTION_SEQUENCE",
        "params": [{
            "name": "eventobject",
            "value": "eventobject"
        }],
        "language": "js",
        "actions": [{
            "id": "expression_onSelection_58930201224769307",
            "type": "ADD_SNIPPET",
            "codeSnippet": "gblAddressFlag=4;\n gblMyProfileAddressFlag = \"zipcode\";\n "
        }, {
            "id": "customcode_onSelection_92137201224761177",
            "type": "INVOKE_FUNCTION",
            "sequenceKUID": "IBonRowSelectOpenAccountAddr",
            "display": "IBonRowSelectOpenAccountAddr",
            "inputparams": [],
            "source": "module"
        }]
    }
}