{
    "p2kwiet2012247644098_txtNickNAme_DESKTOPWEB_onBeginEditing_seq0": {
        "id": "p2kwiet2012247644098_txtNickNAme_DESKTOPWEB_onBeginEditing_seq0",
        "type": "ACTION_SEQUENCE",
        "params": [{
            "name": "eventobject",
            "value": "eventobject"
        }, {
            "name": "changedtext",
            "value": "changedtext"
        }],
        "language": "js",
        "actions": [{
            "id": "expression_onBeginEditing_88620201224764033",
            "type": "ADD_SNIPPET",
            "codeSnippet": "frmIBMyAccnts.hbox447417227858.skin=\"hbxlightblue\";\n frmIBMyAccnts.txtNickNAme.skin=\"txtBoxTransparent\"\n frmIBMyAccnts.hbox447417227858.focusSkin=\"hbxlightblue\";\n \n \n //frmIBMyAccnts.txtNickNAme.skin= txtBottomBorderFocus;\n //frmIBMyAccnts.txtNickNAme.skin=txtNormal;\n \n //frmIBMyAccnts.hbox447417227858.skin= hbxIBbottomborderfocus;"
        }]
    }
}