{
    "p2kwiet2012247644730_btnAddMoreBiller_onClick_seq0": {
        "id": "p2kwiet2012247644730_btnAddMoreBiller_onClick_seq0",
        "type": "ACTION_SEQUENCE",
        "params": [{
            "name": "eventobject",
            "value": "eventobject"
        }],
        "language": "js",
        "actions": [{
            "id": "decision_onClick_57916201224766287",
            "type": "IF_CONDITION",
            "conditions": [{
                "leftValueType": "expression",
                "leftValue": "checkMaxBillerCount()"
            }],
            "criteria": "all"
        }, {
            "id": "decision_onClick_69317201224762504",
            "type": "ELSE_CONDITION",
            "conditions": [],
            "criteria": "all"
        }, {
            "id": "expression_onClick_89513201224766833",
            "type": "ADD_SNIPPET",
            "codeSnippet": "frmIBMyBillersHome.imgTMBLogo.setVisibility(false);\n //frmIBMyBillersHome.hbxTMBLogo.setVisibility(false);\n frmIBMyBillersHome.hbxBillersAddContainer.setVisibility(true);\n frmIBMyBillersHome.hbxBillersConfirmContainer.setVisibility(false);\n frmIBMyBillersHome.hbxBillersEditContainer.setVisibility(false);\n frmIBMyBillersHome.hbxBillersViewContainer.setVisibility(false);\n frmIBMyBillersHome.hbxCanConfBtnContainer.setVisibility(false);\n frmIBMyBillersHome.hbxBillersCompleteContainer.setVisibility(false);\n frmIBMyBillersHome.lblAddBillerName.text=\"\";\n frmIBMyBillersHome.txtAddBillerNickName.text=\"\";\n frmIBMyBillersHome.txtAddBillerRef1.text=\"\";\n frmIBMyBillersHome.lblAddBillerRef1.text=kony.i18n.getLocalizedString(\"keyRef1\");\n frmIBMyBillersHome.imgAddBillerLogo.src=\"empty.png\";\n frmIBMyBillersHome.imgArrowAddBiller.setVisibility(true);\n frmIBMyBillersHome.imgArrowSegBiller.setVisibility(false);\n frmIBMyBillersHome.txtAddBillerNickName.setEnabled(false);\n frmIBMyBillersHome.txtAddBillerRef1.setEnabled(false);\n \n frmIBMyBillersHome.lblAddBillerRef2.text=kony.i18n.getLocalizedString(\"keyRef2\");\n frmIBMyBillersHome.txtAddBillerRef2.text=\"\";\n frmIBMyBillersHome.txtAddBillerRef2.setEnabled(false);\n ",
            "parentId": "decision_onClick_57916201224766287"
        }, {
            "id": "alert_onClick_4116201224762584",
            "type": "SHOW_ALERT",
            "alertType": "constants.ALERT_TYPE_ERROR",
            "alertTitle": "",
            "yesLabel": "Ok",
            "noLabel": "No",
            "alertMessage": "\"+kony.i18n.getLocalizedString(\"Valid_MoreThan50\")+\"",
            "messageType": "constant",
            "parentId": "decision_onClick_69317201224762504",
            "alertTitlei18n": "",
            "yesLabeli18n": "",
            "noLabeli18n": "",
            "alertMessagei18n": "",
            "iconPosition": "constants.ALERT_ICON_POSITION_LEFT"
        }]
    }
}