{
    "p2kwiet2012247640665_btnsubmit_onClick_seq0": {
        "id": "p2kwiet2012247640665_btnsubmit_onClick_seq0",
        "type": "ACTION_SEQUENCE",
        "params": [{
            "name": "eventobject",
            "value": "eventobject"
        }],
        "language": "js",
        "actions": [{
            "id": "expression_onClick_97804201224767033",
            "type": "ADD_SNIPPET",
            "codeSnippet": "frmIBChequeServiceViewReturnedCheque.lblAlert.setVisibility(false);"
        }, {
            "id": "customcode_onClick_41088201224765025",
            "type": "INVOKE_FUNCTION",
            "sequenceKUID": "onSubmitbtnClickFromReturnCheque",
            "display": "onSubmitbtnClickFromReturnCheque",
            "inputparams": [],
            "source": "module"
        }]
    }
}