{
    "p2kwiet2012247649384_btnXferShowContact_onClick_seq0": {
        "id": "p2kwiet2012247649384_btnXferShowContact_onClick_seq0",
        "type": "ACTION_SEQUENCE",
        "params": [{
            "name": "eventobject",
            "value": "eventobject"
        }],
        "language": "js",
        "actions": [{
            "id": "customcode_onClick_3461920122476736",
            "type": "INVOKE_FUNCTION",
            "sequenceKUID": "ehFrmIBTransferCustomWidgetLP_btnXferShowContact_onClick",
            "display": "ehFrmIBTransferCustomWidgetLP_btnXferShowContact_onClick",
            "inputparams": [{
                "name": "eventobject",
                "value": "eventobject"
            }],
            "source": "module"
        }]
    }
}