{
    "p2kwiet2012247645129_button101071681313664_onClick_seq0": {
        "id": "p2kwiet2012247645129_button101071681313664_onClick_seq0",
        "type": "ACTION_SEQUENCE",
        "params": [{
            "name": "eventobject",
            "value": "eventobject"
        }],
        "language": "js",
        "actions": [{
            "id": "expression_onClick_2001201224761715",
            "type": "ADD_SNIPPET",
            "codeSnippet": "gblfbSelectionState = gblFB_SINGLE_SELECTION;\n gblRcIBFBState = \"RcManual\";"
        }, {
            "id": "expression_onClick_78316201224764151",
            "type": "ADD_SNIPPET",
            "codeSnippet": "gblFBIBStateTrack = true;\n frmIBMyReceipentsAddContactFB.show();"
        }]
    }
}