{
    "p2kwiet2012247641918_button507353026230982_onClick_seq0": {
        "id": "p2kwiet2012247641918_button507353026230982_onClick_seq0",
        "type": "ACTION_SEQUENCE",
        "params": [{
            "name": "eventobject",
            "value": "eventobject"
        }],
        "language": "js",
        "actions": [{
            "id": "expression_onClick_36838201224767806",
            "type": "ADD_SNIPPET",
            "codeSnippet": "frmIBCreateUserID.vbxArrow.margin = [4, 0, 0, 0];\n frmIBCreateUserID.vbxRules.margin=[0,0,0,0];\n var isIE8 = window.navigator.appVersion.match(/MSIE (\\d+)/) != null && RegExp.$1 == \"8\";\n if(isIE8)\n {\n document.getElementById(\"frmIBCreateUserID_imgarrow1_span\").style.margin = \"20px 0px 0px 0px\";\n frmIBCreateUserID.vbxRules.margin=[0,0,0,0];\n }"
        }, {
            "id": "decision_onClick_87297201224768049",
            "type": "IF_CONDITION",
            "conditions": [{
                "leftValueType": "expression",
                "leftValue": "frmIBCreateUserID.imgarrow1.isVisible"
            }],
            "criteria": "all"
        }, {
            "id": "decision_onClick_59253201224767065",
            "type": "ELSE_CONDITION",
            "conditions": [],
            "criteria": "all"
        }, {
            "id": "expression_onClick_42226201224769571",
            "type": "ADD_SNIPPET",
            "codeSnippet": "frmIBCreateUserID.vbxRules.skin = \"vbxBGGrey\"\n frmIBCreateUserID.imgarrow1.setVisibility(false);\n frmIBCreateUserID.imgarrow2.setVisibility(false);\n frmIBCreateUserID.hbxPassRules.setVisibility(false);\n frmIBCreateUserID.hbxUserIdRules.setVisibility(false);\n frmIBCreateUserID.vbxRules.setVisibility(false);",
            "parentId": "decision_onClick_87297201224768049"
        }, {
            "id": "expression_onClick_594201224766840",
            "type": "ADD_SNIPPET",
            "codeSnippet": "frmIBCreateUserID.vbxRules.skin = \"vbxBGGrey\"\n frmIBCreateUserID.vbxRules.setVisibility(true);\n frmIBCreateUserID.imgarrow1.setVisibility(true)\n frmIBCreateUserID.imgarrow2.setVisibility(false)\n var deviceInfo=kony.os.deviceInfo();\n if(deviceInfo[\"hastouchsupport\"] == true && deviceInfo[\"category\"] == \"Safari\")\n frmIBCreateUserID.scrollUserIdRules.containerHeight = 30 \n frmIBCreateUserID.hbxPassRules.setVisibility(false);\n frmIBCreateUserID.hbxUserIdRules.setVisibility(true);\n frmIBCreateUserID.hbxUserIDBubble.setVisibility(false);\n frmIBCreateUserID.hbxPasswordRulesBubble.setVisibility(false);",
            "parentId": "decision_onClick_59253201224767065"
        }]
    }
}