{
    "p2kwiet2012247638386_frmIBAccntSummary_postshow_seq0": {
        "id": "p2kwiet2012247638386_frmIBAccntSummary_postshow_seq0",
        "type": "ACTION_SEQUENCE",
        "params": [{
            "name": "eventobject",
            "value": "eventobject"
        }, {
            "name": "neworientation",
            "value": "neworientation"
        }],
        "language": "js",
        "actions": [{
            "id": "customcode_postshow_21627201224769780",
            "type": "INVOKE_FUNCTION",
            "sequenceKUID": "addIBMenu",
            "display": "addIBMenu",
            "inputparams": [],
            "source": "module"
        }, {
            "id": "expression_postshow_15689201224762624",
            "type": "ADD_SNIPPET",
            "codeSnippet": "syncIBMyAccountSummary();\n if(kony.i18n.getCurrentLocale() == \"th_TH\")\n frmIBAccntSummary.btnMenuMyAccountSummary.skin=\"btnIBMenuMyAccountSummaryFocusThai\";\n else\n frmIBAccntSummary.btnMenuMyAccountSummary.skin=\"btnIBMenuMyAccountSummaryFocus\";\n document.getElementById(\"frmIBAccntSummary_image25028248841260094_span\").className = \"imgRed\";\n frmIBAccntSummary.hbxAccountDetails.skin=\"hbxRed\";\n \n gblSliderMonth = 6;\n gblSelTransferMode = 1;\n gblDreamAcountCheck = \"true\";\n frmIBAccntSummary.lnkFullStatement.focusSkin=\"linkFullStatFoc\";\n frmIBAccntSummary.lnkFullStatement.hoverSkin=\"linkFullStatFoc\";\n frmIBAccntSummary.lnkMyActivities.focusSkin=\"linkMyActivitiesIconFoc\";\n frmIBAccntSummary.lnkMyActivities.hoverSkin=\"linkMyActivitiesIconFoc\";"
        }, {
            "id": "customcode_postshow_150201224767944",
            "type": "INVOKE_FUNCTION",
            "sequenceKUID": "swapSelectedIBAcctSkin",
            "display": "swapSelectedIBAcctSkin",
            "inputparams": [],
            "source": "module"
        }, {
            "id": "customcode_postshow_27407201224767264",
            "type": "INVOKE_FUNCTION",
            "sequenceKUID": "OTPcheckOnAccountSummary",
            "display": "OTPcheckOnAccountSummary",
            "inputparams": [],
            "source": "module"
        }]
    }
}