{
    "p2kwiet2012247639508_btnOTPReq_onClick_seq0": {
        "id": "p2kwiet2012247639508_btnOTPReq_onClick_seq0",
        "type": "ACTION_SEQUENCE",
        "params": [{
            "name": "eventobject",
            "value": "eventobject"
        }],
        "language": "js",
        "actions": [{
            "id": "expression_onClick_60908201224768484",
            "type": "ADD_SNIPPET",
            "codeSnippet": "reqOTPBB();"
        }]
    }
}