{
    "p2kwiet2012247648856_vbxHide_onClick_seq0": {
        "id": "p2kwiet2012247648856_vbxHide_onClick_seq0",
        "type": "ACTION_SEQUENCE",
        "params": [{
            "name": "eventobject",
            "value": "eventobject"
        }],
        "language": "js",
        "actions": [{
            "id": "expression_onClick_180820122476441",
            "type": "ADD_SNIPPET",
            "codeSnippet": "if (frmIBTopUpExecutedTxn.lblBBPaymentValue.isVisible)\n {\n frmIBTopUpExecutedTxn.lblBBPaymentValue.setVisibility(false);\n frmIBTopUpExecutedTxn.lblHide.text= kony.i18n.getLocalizedString(\"keyUnhide\");\n }\n else\n {\n frmIBTopUpExecutedTxn.lblBBPaymentValue.setVisibility(true);\n frmIBTopUpExecutedTxn.lblHide.text= kony.i18n.getLocalizedString(\"Hide\");\n }\n \n "
        }]
    }
}