{
    "p2kwiet2012247640268_hbox47514880277279_onClick_seq0": {
        "id": "p2kwiet2012247640268_hbox47514880277279_onClick_seq0",
        "type": "ACTION_SEQUENCE",
        "params": [{
            "name": "eventobject",
            "value": "eventobject"
        }],
        "language": "js",
        "actions": []
    }
}