{
    "p2kwiet2012247651270_btn5_onClick_seq0": {
        "id": "p2kwiet2012247651270_btn5_onClick_seq0",
        "type": "ACTION_SEQUENCE",
        "params": [{
            "name": "eventobject",
            "value": "eventobject"
        }],
        "language": "js",
        "actions": [{
            "id": "expression_onClick_79009201224761779",
            "type": "ADD_SNIPPET",
            "codeSnippet": "kony.print(\"btn5\");\n hbox59324032046854.btn5.skin = paginationOn;\n hbox59324032046854.btn1.skin = paginationOff;\n hbox59324032046854.btn2.skin = paginationOff;\n hbox59324032046854.btn3.skin = paginationOff;\n hbox59324032046854.btn4.skin = paginationOff;"
        }]
    }
}