{
    "p2kwiet2012247649303_txtTransLndSmsNEmail_DESKTOPWEB_onKeyUp_seq0": {
        "id": "p2kwiet2012247649303_txtTransLndSmsNEmail_DESKTOPWEB_onKeyUp_seq0",
        "type": "ACTION_SEQUENCE",
        "params": [{
            "name": "eventobject",
            "value": "eventobject"
        }, {
            "name": "changedtext",
            "value": "changedtext"
        }],
        "language": "js",
        "actions": [{
            "id": "customcode_onKeyUp_66867201224762761",
            "type": "INVOKE_FUNCTION",
            "sequenceKUID": "dontAllowNonNeumaric",
            "display": "dontAllowNonNeumaric",
            "inputparams": [{
                "name": "textbozId",
                "value": "frmIBTranferLP.txtTransLndSmsNEmail"
            }],
            "source": "module"
        }, {
            "id": "expression_onKeyUp_61852201224761909",
            "type": "ADD_SNIPPET",
            "codeSnippet": "if(!kony.appinit.isIE8)\n { // your function not for IE8\n onTextChangeToSMSMobileNoP2PIB(frmIBTranferLP.txtTransLndSmsNEmail.text);\n }"
        }]
    }
}