{
    "p2kwiet2012247642323_btnConfirmSecondPin_onClick_seq0": {
        "id": "p2kwiet2012247642323_btnConfirmSecondPin_onClick_seq0",
        "type": "ACTION_SEQUENCE",
        "params": [{
            "name": "eventobject",
            "value": "eventobject"
        }],
        "language": "js",
        "actions": [{
            "id": "customcode_onClick_55889201224762477",
            "type": "INVOKE_FUNCTION",
            "sequenceKUID": "toggleKeyPad",
            "display": "toggleKeyPad",
            "inputparams": [{
                "name": "command",
                "value": "true"
            }],
            "source": "module"
        }]
    }
}