{
    "p2kwiet2012247641860_button98089341292094_onClick_seq0": {
        "id": "p2kwiet2012247641860_button98089341292094_onClick_seq0",
        "type": "ACTION_SEQUENCE",
        "params": [{
            "name": "eventobject",
            "value": "eventobject"
        }],
        "language": "js",
        "actions": [{
            "id": "customcode_onClick_98054201224769896",
            "type": "INVOKE_FUNCTION",
            "sequenceKUID": "accountsummaryLangToggleIB",
            "display": "accountsummaryLangToggleIB",
            "inputparams": [],
            "source": "module"
        }]
    }
}