{
    "p2kwiet2012247638905_hbxMobileAccountDetails_onClick_seq0": {
        "id": "p2kwiet2012247638905_hbxMobileAccountDetails_onClick_seq0",
        "type": "ACTION_SEQUENCE",
        "params": [{
            "name": "eventobject",
            "value": "eventobject"
        }],
        "language": "js",
        "actions": [{
            "id": "expression_onClick_76732201224769391",
            "type": "ADD_SNIPPET",
            "codeSnippet": "clickFromCitizenAnyID=false;"
        }, {
            "id": "customcode_onClick_50226201224761154",
            "type": "INVOKE_FUNCTION",
            "sequenceKUID": "onClickAccountForAnyIDRegistration",
            "display": "onClickAccountForAnyIDRegistration",
            "inputparams": [],
            "source": "module"
        }]
    }
}