{
    "p2kwiet2012247641578_hbxchangepic_onClick_seq0": {
        "id": "p2kwiet2012247641578_hbxchangepic_onClick_seq0",
        "type": "ACTION_SEQUENCE",
        "params": [{
            "name": "eventobject",
            "value": "eventobject"
        }],
        "language": "js",
        "actions": [{
            "id": "navigation_onClick_67676201224767680",
            "type": "DISPLAY_POPUP",
            "popupId": "popupDisplayPicOptions",
            "popupKUID": "p2kwiet2012247650797",
            "mappings": {},
            "mappingsOrder": [],
            "enableMappingEditor": true
        }]
    }
}