{
    "TMBpostappinit": {
        "id": "TMBpostappinit",
        "type": "ACTION_SEQUENCE",
        "params": [{
            "name": "params",
            "value": "params"
        }],
        "language": "js",
        "actions": [{
            "id": "customcode_postappinit_4375720122476612",
            "type": "INVOKE_FUNCTION",
            "sequenceKUID": "disableRightClick",
            "display": "disableRightClick",
            "inputparams": [],
            "source": "module"
        }, {
            "id": "customcode_postappinit_4918620122476732",
            "type": "INVOKE_FUNCTION",
            "sequenceKUID": "IBcopyright_footer_display",
            "display": "IBcopyright_footer_display",
            "inputparams": [],
            "source": "module"
        }, {
            "id": "customcode_postappinit_34008201224763973",
            "type": "INVOKE_FUNCTION",
            "sequenceKUID": "IBAppTitle",
            "display": "IBAppTitle",
            "inputparams": [],
            "source": "module"
        }, {
            "id": "expression_postappinit_80995201224766775",
            "type": "ADD_SNIPPET",
            "codeSnippet": "flowSpa = false;"
        }, {
            "id": "ADD_SNIPPET__f64795051a8f4516be35c713e44ef22b",
            "type": "ADD_SNIPPET",
            "codeSnippet": "if (gblUnavailableFlag) {\n\treturn getIBStartupForm();\n}else{\n  \treturn frmIBPreLogin;\n}",
            "parentId": null,
            "callbackType": null
        }]
    }
}