{
    "DNDConfig": null,
    "__parentReadjusting__": false,
    "_height_": {
        "type": "string",
        "value": "100%"
    },
    "_margin_": [
        0,
        0,
        0,
        0
    ],
    "_orientation_": 6,
    "_padding_": [
        0,
        0,
        0,
        0
    ],
    "_percent_": true,
    "_skin_": "s4e4a93dc3bb42cfbd8eaf003f506c1a",
    "_width_": {
        "type": "string",
        "value": "55%"
    },
    "allboxes": [],
    "autogrowmode": 0,
    "canUpdateUI": true,
    "children": [
        "flxValue",
        "lblAmountTxt"
    ],
    "clipbounds": true,
    "containerweight": 100,
    "enablescrolling": true,
    "id": "flxAmountRIghtSection",
    "info": null,
    "isvisible": true,
    "kuid": "5a60b64887364425bc69f84890c7adeb",
    "layouttype": 4,
    "name": "kony.ui.FlexContainer",
    "parent": "flxAmountDetail",
    "pf": "frmBillPaymentEditFutureNew",
    "snapgridsize": 10,
    "snaptogrid": true,
    "wType": "FlexContainer",
    "widgetalignment": 1,
    "zindex": 1
}