{
    "DNDConfig": null,
    "_enabled_": false,
    "_margin_": [
        0,
        0,
        0,
        0
    ],
    "_padding_": [
        0,
        0,
        0,
        0
    ],
    "_skin_": "sf436a232b414fe6af77d8b75a3b2ad7",
    "_text_": "",
    "canUpdateUI": true,
    "containerweight": 57,
    "contentalignment": 5,
    "desktopweb": {
        "@class": "com.kony.gen.viz.model.component.property.button.DesktopWebButtonProperty",
        "displayText": true,
        "render": true
    },
    "displaytext": true,
    "focusskin": "s8977b41f4a54bcbb450f3aa1955ec17",
    "hexpand": true,
    "id": "btnToken",
    "ide_onClick": "p2kwiet2012247639415_btnToken_onClick_seq0",
    "info": null,
    "isvisible": true,
    "kiosk": {
        "@class": "com.kony.gen.viz.model.component.property.button.KioskButtonProperty",
        "render": true
    },
    "kuid": "p2kwiet2012247639360",
    "margininpixel": false,
    "name": "kony.ui.Button",
    "paddinginpixel": false,
    "parent": "hbxToken",
    "pf": "frmIBBeepAndBillConfAndComp",
    "spa": {
        "@class": "com.kony.gen.viz.model.component.property.button.SPAButtonProperty",
        "displayText": true
    },
    "texti18n": "keySwitchToSMS",
    "vexpand": false,
    "wType": "Button",
    "widgetalignment": 5
}