{
    "@class": "com.kony.gen.viz.model.container.KVizHBox",
    "DNDConfig": null,
    "_margin_": [
        0,
        0,
        0,
        0
    ],
    "_orientation_": 1,
    "_padding_": [
        0,
        0,
        0,
        0
    ],
    "_percent_": true,
    "_position_": 3,
    "_skin_": "s3cd729155364efe97d4fcd79c72daf8",
    "allboxes": [],
    "canUpdateUI": true,
    "children": [
        "CopyVBox0b05e53cd028549"
    ],
    "containerweight": 100,
    "contextmenu": null,
    "id": "CopyHBox0acd71123f3384a",
    "info": null,
    "isvisible": true,
    "kuid": "j7ea51e5cfba4984a0fe99d4fc9dc8e5",
    "layouttype": 0,
    "name": "kony.ui.Box",
    "parent": "CopyVBox0d880465647da46",
    "pf": "frmIBMFSelRedeemFund",
    "templateType": "forms",
    "wType": "HBox",
    "widgetalignment": 1
}