{
    "@class": "com.kony.gen.viz.model.component.KVizLink",
    "DNDConfig": null,
    "_margin_": [
        0,
        0,
        0,
        0
    ],
    "_padding_": [
        0,
        0,
        0,
        0
    ],
    "_skin_": "s4827b9a014c4c64aef88304ed4f0a0b",
    "_text_": "Portfolio",
    "canUpdateUI": true,
    "containerweight": 25,
    "contentalignment": 5,
    "desktopweb": {
        "psp": {
            "hoverSkin": "sfe01eb6e1f44a49a9ce0b8732982bdf"
        }
    },
    "id": "LinkPortfolio",
    "ide_onClick": "AS_Link_c6fd336b12bd40eb867074990424f578",
    "info": null,
    "isvisible": true,
    "kuid": "c1602ab1afc744c698e604a85f617768",
    "name": "kony.ui.Link",
    "paddInPixel": [
        0,
        0,
        0,
        0
    ],
    "parent": "HboxLinks",
    "pf": "frmIBMFSelRedeemFund",
    "wType": "Link",
    "widgetalignment": 5
}