{
    "@class": "com.kony.gen.viz.model.container.KVizSegment2",
    "DNDConfig": null,
    "_data_": [
        {
            "lblfundcodeval": {
                "@class": "com.viz.ide.model.segment.SimpleTextSegmentData",
                "text": "JBP LTF"
            },
            "lblunitholdernoval": {
                "@class": "com.viz.ide.model.segment.SimpleTextSegmentData",
                "text": "111-1111-1111-0"
            }
        },
        {
            "lblfundcodeval": {
                "@class": "com.viz.ide.model.segment.SimpleTextSegmentData",
                "text": "JBP LTF"
            },
            "lblunitholdernoval": {
                "@class": "com.viz.ide.model.segment.SimpleTextSegmentData",
                "text": "111-1111-1111-0"
            }
        },
        {
            "lblfundcodeval": {
                "@class": "com.viz.ide.model.segment.SimpleTextSegmentData",
                "text": "JBP LTF"
            },
            "lblunitholdernoval": {
                "@class": "com.viz.ide.model.segment.SimpleTextSegmentData",
                "text": "111-1111-1111-0"
            }
        },
        {
            "lblfundcodeval": {
                "@class": "com.viz.ide.model.segment.SimpleTextSegmentData",
                "text": "JBP LTF"
            },
            "lblunitholdernoval": {
                "@class": "com.viz.ide.model.segment.SimpleTextSegmentData",
                "text": "111-1111-1111-0"
            }
        },
        {
            "lblfundcodeval": {
                "@class": "com.viz.ide.model.segment.SimpleTextSegmentData",
                "text": "JBP LTF"
            },
            "lblunitholdernoval": {
                "@class": "com.viz.ide.model.segment.SimpleTextSegmentData",
                "text": "111-1111-1111-0"
            }
        },
        {
            "lblfundcodeval": {
                "@class": "com.viz.ide.model.segment.SimpleTextSegmentData",
                "text": "JBP LTF"
            },
            "lblunitholdernoval": {
                "@class": "com.viz.ide.model.segment.SimpleTextSegmentData",
                "text": "111-1111-1111-0"
            }
        }
    ],
    "_indicator_": "none",
    "_margin_": [
        0,
        0,
        0,
        0
    ],
    "_orientation_": 2,
    "_padding_": [
        0,
        0,
        0,
        0
    ],
    "canUpdateUI": true,
    "containerweight": 100,
    "counter": "05",
    "disabledSkins": {
        "rowSkin": "s01e0182a4d14a4da5e4e707eafeea1b"
    },
    "focusedindex": null,
    "focuseditem": null,
    "groupcells": false,
    "hasSections": false,
    "id": "SegmentSelectFund",
    "ide_onRowClick": "AS_Segment_ied393dc26144a0b8195e99ff78b6a67",
    "info": null,
    "ipad": {
        "psp": {
            "indicator": "rowselect"
        }
    },
    "iphone": {
        "psp": {
            "indicator": "rowselect"
        }
    },
    "isvisible": true,
    "kuid": "b615e547915b4e17b2847d5f223a209c",
    "masterdata": {},
    "name": "kony.ui.SegmentedUI2",
    "needpageindicator": true,
    "pageoffdotimage": "pageoffdot.png",
    "pageondotimage": "pageondot.png",
    "paginationconfig": {
        "position": "bottom"
    },
    "parent": "ScrollBox0c3656244fd0b49",
    "pf": "frmIBMFSelRedeemFund",
    "retainselection": false,
    "rowTemplateId": "fa0acfddb4c246ea97c3836cce8d528a",
    "rowcounter": 5,
    "rowfocusskin": "sbbc7f0678bf4c678c40fe82030b9661",
    "rowtemplate": "HBox0d5c6ac1f97a14c",
    "screenlevelwidget": false,
    "seccounter": 0,
    "sectionHeaderTemplateId": null,
    "sectionheaderskin": "s8bfadf7251c4abfa23d31af10ef7493",
    "selectedRows": null,
    "selectedState": false,
    "selectedindex": null,
    "selectedindices": null,
    "selecteditems": null,
    "selectedsectionindex": 0,
    "selectionbehavior": "default",
    "separatorcolor": "00588f28",
    "separatorrequired": true,
    "separatorthickness": 1,
    "showscrollbars": true,
    "viewtype": "tableview",
    "wType": "Segment",
    "widgetalignment": 5,
    "widgetdatamap": {
        "HBox0d5c6ac1f97a14c": "HBox0d5c6ac1f97a14c",
        "VBox0c74d5070a17c4d": "VBox0c74d5070a17c4d",
        "lblfundcodeval": "lblfundcodeval",
        "lblunitholdernoval": "lblunitholdernoval"
    },
    "widgetskin": "s01e0182a4d14a4da5e4e707eafeea1b"
}