{
    "@class": "com.kony.gen.viz.model.container.KVizVBox",
    "DNDConfig": null,
    "_margin_": [
        0,
        0,
        0,
        0
    ],
    "_orientation_": 2,
    "_padding_": [
        0,
        0,
        0,
        0
    ],
    "_percent_": true,
    "_position_": 3,
    "_skin_": "s0e13ed4077f481ab090dae6b2e595ed",
    "allboxes": [],
    "canUpdateUI": true,
    "children": [
        "HBox0f798ea21cd0645",
        "HBox0ffcda4dfeac74c",
        "HBox0fb99a0b2078f4b"
    ],
    "containerweight": 100,
    "contextmenu": null,
    "id": "VBox0c2776cd9422342",
    "info": null,
    "isvisible": true,
    "kuid": "e4dc4066fd68498da721ec8e3e726ff2",
    "layouttype": 0,
    "name": "kony.ui.Box",
    "paddInPixel": [
        0,
        0,
        0,
        0
    ],
    "parent": "HBox0gb98d0c4b5684e",
    "pf": "frmIBMFSelRedeemFund",
    "wType": "VBox",
    "widgetalignment": 1
}