{
    "DNDConfig": null,
    "_enabled_": false,
    "_margin_": [
        0,
        0,
        0,
        0
    ],
    "_padding_": [
        0,
        0,
        0,
        0
    ],
    "_render_": true,
    "_skin_": "s07f8174887f4d03b1c77175e0ba46d6",
    "_text_": "",
    "autocapitalize": "none",
    "autocomplete": false,
    "autocorrect": false,
    "autofilter": false,
    "canUpdateUI": true,
    "closebuttontext": "",
    "containerweight": 61,
    "contentalignment": 1,
    "desktopweb": {
        "@class": "com.kony.gen.viz.model.component.property.textarea2.DesktopWebTextArea2Property",
        "psp": {
            "hoverSkin": "s07f8174887f4d03b1c77175e0ba46d6"
        },
        "render": true
    },
    "focusskin": "s07f8174887f4d03b1c77175e0ba46d6",
    "hexpand": true,
    "id": "textarea210136690395040",
    "info": null,
    "isvisible": true,
    "keyboardactionlabel": "",
    "keyboardstyle": "A",
    "keyboardtype": "A",
    "kiosk": {
        "@class": "com.kony.gen.viz.model.component.property.textarea2.KioskTextArea2Property",
        "render": true
    },
    "kuid": "p2kwiet2012247649332",
    "margininpixel": false,
    "maxtextlength": 50,
    "mode": "A",
    "name": "kony.ui.TextArea2",
    "numberofvisiblelines": 2,
    "paddinginpixel": false,
    "parent": "hbox1011732624591",
    "pf": "frmIBTransferCustomWidgetLP",
    "securetextentry": false,
    "showclosebutton": false,
    "showoprogressindicator": true,
    "showprogressindicator": false,
    "spa": {
        "@class": "com.kony.gen.viz.model.component.property.textarea2.SPATextArea2Property",
        "autoCorrect": false
    },
    "textinputmode": "A",
    "vexpand": false,
    "viewtype": "default",
    "wType": "TextArea",
    "widgetalignment": 5
}