{
    "DNDConfig": null,
    "_enabled_": false,
    "_margin_": [
        0,
        0,
        0,
        0
    ],
    "_orientation_": 2,
    "_padding_": [
        0,
        0,
        0,
        0
    ],
    "_position_": 3,
    "_resize_": true,
    "_skin_": "sa53654b4113418f8dcb6d569eb3ef8f",
    "allboxes": [],
    "borderCollapse": false,
    "canUpdateUI": true,
    "children": [
        "lblXferToNameRcvd",
        "lblXferToContactRcvd",
        "lblXferToBankNameRcvd"
    ],
    "containerweight": 70,
    "desktopweb": {
        "@class": "com.kony.gen.viz.model.container.property.vbox.DesktopWebVBoxProperty",
        "_padding_": [
            3,
            0,
            0,
            0
        ],
        "padding": [
            3,
            0,
            0,
            0
        ],
        "paddingInPixel": false,
        "render": true
    },
    "donotUpdateContainerWeight": false,
    "id": "vbox1011732624560",
    "info": null,
    "isvisible": true,
    "kiosk": {
        "@class": "com.kony.gen.viz.model.container.property.vbox.KioskVBoxProperty",
        "render": true
    },
    "kuid": "p2kwiet2012247649322",
    "layouttype": 0,
    "margininpixel": false,
    "name": "kony.ui.Box",
    "paddInPixel": [
        8.82,
        0,
        0,
        0
    ],
    "paddinginpixel": false,
    "parent": "hbox47679117770859",
    "pf": "frmIBTransferCustomWidgetLP",
    "spa": {
        "@class": "com.kony.gen.viz.model.container.property.vbox.SPAVBoxProperty"
    },
    "templateType": "forms",
    "wType": "VBox",
    "widgetalignment": 2
}