{
    "DNDConfig": null,
    "_enabled_": false,
    "_margin_": [
        2,
        2,
        2,
        2
    ],
    "_orientation_": 1,
    "_padding_": [
        3,
        2,
        0,
        2
    ],
    "_percent_": true,
    "_position_": 3,
    "_resize_": true,
    "_skin_": "s138ce22f5614639a34ee4f333b26861",
    "allboxes": [],
    "borderCollapse": false,
    "canUpdateUI": true,
    "children": [
        "button1014589649274",
        "btnPrint",
        "fbBtn"
    ],
    "containerweight": 100,
    "desktopweb": {
        "@class": "com.kony.gen.viz.model.container.property.hbox.DesktopWebHBoxProperty",
        "_margin_": [
            2,
            0,
            2,
            2
        ],
        "_padding_": [
            0,
            2,
            0,
            2
        ],
        "_position_": 3,
        "margin": [
            2,
            0,
            2,
            2
        ],
        "marginInPixel": false,
        "padding": [
            0,
            2,
            0,
            2
        ],
        "paddingInPixel": false,
        "position": 3,
        "render": true
    },
    "id": "hbox101450027629826",
    "info": null,
    "isvisible": true,
    "kiosk": {
        "@class": "com.kony.gen.viz.model.container.property.hbox.KioskHBoxProperty",
        "_position_": 3,
        "position": 3,
        "render": true
    },
    "kuid": "p2kwiet2012247649400",
    "layoutalignment": 3,
    "layouttype": 0,
    "margininpixel": false,
    "name": "kony.ui.Box",
    "paddinginpixel": false,
    "parent": "vbox47327596557431",
    "pf": "frmIBTransferNowCompletion",
    "spa": {
        "@class": "com.kony.gen.viz.model.container.property.hbox.SPAHBoxProperty"
    },
    "templateType": "forms",
    "wType": "HBox",
    "widgetalignment": 5
}