{
    "DNDConfig": null,
    "_enabled_": false,
    "_margin_": [
        0,
        0,
        0,
        0
    ],
    "_skin_": "s1235cd7f0674336a70baffc7717340a",
    "_text_": "",
    "_wrapping_": 2,
    "canUpdateUI": true,
    "containerweight": 100,
    "contentalignment": 1,
    "desktopweb": {
        "@class": "com.kony.gen.viz.model.component.property.label.DesktopWebLabelProperty",
        "_margin_": [
            7,
            7,
            0,
            79
        ],
        "_padding_": [
            0,
            0,
            0,
            0
        ],
        "margin": [
            7,
            7,
            0,
            79
        ],
        "marginInPixel": false,
        "padding": [
            0,
            0,
            0,
            0
        ],
        "paddingInPixel": false,
        "psp": {
            "textCopyable": false
        },
        "render": true
    },
    "hexpand": true,
    "id": "label86685405969636",
    "info": null,
    "isvisible": true,
    "kiosk": {
        "@class": "com.kony.gen.viz.model.component.property.label.KioskLabelProperty",
        "render": true
    },
    "kuid": "p2kwiet2012247645646",
    "margininpixel": false,
    "name": "kony.ui.Label",
    "parent": "vbxOpenActTerm",
    "pf": "frmIBOpenActSelProd",
    "spa": {
        "@class": "com.kony.gen.viz.model.component.property.label.SPALabelProperty",
        "psp": {
            "textCopyable": false
        }
    },
    "texti18n": "trmDeposit",
    "tooltip": "",
    "vexpand": false,
    "wType": "Label",
    "widgetalignment": 2
}