{
    "DNDConfig": null,
    "_enabled_": false,
    "_margin_": [
        0,
        0,
        0,
        0
    ],
    "_orientation_": 1,
    "_padding_": [
        0,
        0,
        0,
        0
    ],
    "_percent_": true,
    "_position_": 3,
    "_resize_": true,
    "_skin_": "sdb49f6964884200bd4e3caec9eef15f",
    "allboxes": [],
    "borderCollapse": false,
    "canUpdateUI": true,
    "children": [
        "imgBillerLogo",
        "vbox1013461214420",
        "imgBillersRtArrow"
    ],
    "containerweight": 100,
    "desktopweb": {
        "@class": "com.kony.gen.viz.model.container.property.hbox.DesktopWebHBoxProperty",
        "_padding_": [
            0,
            3,
            0,
            3
        ],
        "_position_": 3,
        "padding": [
            0,
            3,
            0,
            3
        ],
        "paddingInPixel": false,
        "position": 3,
        "psp": {
            "hoverSkin": "s4c81c3725b24c60a82c07f742ad2291"
        },
        "render": true
    },
    "focusskin": "s4c81c3725b24c60a82c07f742ad2291",
    "id": "hbxBillersRow",
    "info": null,
    "isvisible": true,
    "kiosk": {
        "@class": "com.kony.gen.viz.model.container.property.hbox.KioskHBoxProperty",
        "_position_": 3,
        "position": 3,
        "render": true
    },
    "kuid": "p2kwiet2012247651994",
    "layoutalignment": 3,
    "layouttype": 0,
    "margininpixel": false,
    "name": "kony.ui.Box",
    "paddinginpixel": false,
    "parent": "IBMyBillers",
    "pf": "IBMyBillers",
    "spa": {
        "@class": "com.kony.gen.viz.model.container.property.hbox.SPAHBoxProperty"
    },
    "templateType": "forms",
    "wType": "HBox",
    "widgetalignment": 1
}