{
    "@class": "com.kony.gen.viz.model.container.KVizGroup",
    "DNDConfig": null,
    "_height_": {
        "type": "ref",
        "value": "preferred"
    },
    "_margin_": [
        0,
        0,
        0,
        0
    ],
    "_opacity_": 100,
    "_orientation_": 6,
    "_padding_": [
        0,
        0,
        0,
        10
    ],
    "_percent_": true,
    "_skin_": "sb9f9a23779f4782a81354c32f5e2433",
    "_spacing_": 2,
    "_width_": "100%",
    "allboxes": [],
    "canUpdateUI": true,
    "children": [
        "lblAccountNickName",
        "grpAmount",
        "lblAmountNumberOld",
        "lblBalanceType"
    ],
    "clipbounds": true,
    "containerId": true,
    "containerweight": 100,
    "enablescrolling": true,
    "id": "Group0dda36f66c64f4f",
    "info": null,
    "isTemplate": true,
    "isvisible": true,
    "kuid": "ee542bee16b240e492b08ead6b654225",
    "layouttype": 4,
    "name": "kony.ui.Group",
    "paddinginpixel": true,
    "parent": "tmpAccounts",
    "pf": "tmpAccounts",
    "snapgridsize": 10,
    "snaptogrid": false,
    "wType": "Group",
    "widgetalignment": 1
}