{
    "@class": "com.kony.gen.viz.model.component.KVizButton",
    "DNDConfig": null,
    "__parentReadjusting__": false,
    "_height_": {
        "type": "string",
        "value": "30dp"
    },
    "_left_": {
        "type": "string",
        "value": "20dp"
    },
    "_margin_": [
        6,
        6,
        6,
        6
    ],
    "_padding_": [
        0,
        0,
        0,
        0
    ],
    "_skin_": "s2787c912eb1445396c02e08966028ba",
    "_text_": "",
    "_width_": {
        "type": "string",
        "value": "30dp"
    },
    "canUpdateUI": true,
    "centery": {
        "type": "string",
        "value": "50%"
    },
    "containerweight": 100,
    "contentalignment": 5,
    "disabledSkins": {
        "focusSkin": "sd73af8e5e69407b85e19faf41d7e6b7"
    },
    "displaytext": true,
    "id": "btnThai",
    "info": null,
    "iphone": {
        "psp": {
            "showProgressIndicator": false
        }
    },
    "isvisible": true,
    "kuid": "a2be79944d424b20a4be29888deb28a8",
    "name": "kony.ui.Button",
    "parent": "flxThai",
    "pf": "frmChangeLanguage",
    "showprogressindicator": false,
    "wType": "Button",
    "zindex": 1
}