{
    "DNDConfig": null,
    "_enabled_": false,
    "_margin_": [
        0,
        0,
        0,
        0
    ],
    "_orientation_": 1,
    "_padding_": [
        0,
        0,
        0,
        0
    ],
    "_skin_": "s7a5aaad88384288b2ca5cf87a955e28",
    "_title_": "",
    "addWidgetsdone": false,
    "allboxes": [],
    "canUpdateUI": true,
    "children": [
        "hbox44747680938013"
    ],
    "containerheightreference": 1,
    "containerweight": 21,
    "desktopweb": {
        "@class": "com.kony.gen.viz.model.container.property.form.DesktopWebFormProperty",
        "inTransitionConfig": {
            "popupTransition": "none"
        },
        "isModal": true,
        "outTransitionConfig": {
            "popupTransition": "none"
        },
        "psp": {
            "dockableAppMenu": true,
            "dockableFooter": true,
            "dockableHeader": true,
            "draggable": false,
            "minimizeOnLostFocus": false,
            "resizable": false,
            "titleBarConfig": {
                "closeIcon": "",
                "maxIcon": "",
                "minIcon": "",
                "titleBarSkin": "Skin Defaults"
            }
        },
        "render": true,
        "undefined": true
    },
    "displayorientation": 1,
    "enabledforidletimeout": false,
    "footeroverlap": false,
    "headeroverlap": false,
    "id": "popupFirstTimeActivation",
    "ide_init": "p2kwiet2012247650812_popupFirstTimeActivation_init_seq0",
    "info": null,
    "initdone": false,
    "intransitionconfig": {
        "formTransition": "None"
    },
    "invokedProperty": "footers",
    "ismodal": true,
    "isvisible": true,
    "kiosk": {
        "@class": "com.kony.gen.viz.model.container.property.form.KioskFormProperty",
        "inTransitionConfig": {
            "transitionSpeed": 0
        },
        "outTransitionConfig": {
            "transitionSpeed": 0
        },
        "psp": {
            "animateHeaderFooter": false
        },
        "render": true,
        "undefined": true
    },
    "kuid": "p2kwiet2012247650812",
    "layouttype": 0,
    "margininpixel": false,
    "menuposition": 2,
    "name": "kony.ui.Popup",
    "needappmenu": true,
    "outtransitionconfig": {
        "formTransition": "None"
    },
    "paddinginpixel": false,
    "percent": true,
    "retainscrollposition": false,
    "spa": {
        "@class": "com.kony.gen.viz.model.container.property.form.SPAFormProperty",
        "isModal": true,
        "psp": {
            "dockableAppMenu": true,
            "dockableFooter": true,
            "dockableHeader": true
        }
    },
    "titlebar": true,
    "transparencybehindthepopup": 40,
    "type": 3,
    "wType": "Popup",
    "widgetalignment": 1
}