{
    "@class": "com.kony.gen.viz.model.component.KVizButton",
    "DNDConfig": null,
    "__parentReadjusting__": false,
    "_height_": {
        "type": "string",
        "value": "99.50%"
    },
    "_left_": {
        "type": "string",
        "value": "49.98%"
    },
    "_margin_": [
        6,
        6,
        6,
        6
    ],
    "_padding_": [
        0,
        0,
        0,
        0
    ],
    "_skin_": "s7b820e1ee1243d0b1759fe1dd96e9f5",
    "_text_": "",
    "_top_": {
        "type": "string",
        "value": "0dp"
    },
    "_width_": {
        "type": "string",
        "value": "50%"
    },
    "canUpdateUI": true,
    "centery": {
        "type": "string",
        "value": "51.24%"
    },
    "containerweight": 100,
    "contentalignment": 5,
    "displaytext": true,
    "focusskin": "seb4c480f0f04e8cac66b414a107da76",
    "id": "btnGenerate",
    "info": null,
    "iphone": {
        "psp": {
            "showProgressIndicator": false
        }
    },
    "isvisible": false,
    "kuid": "hf86a34c6a1345219f4c381e2b46f99d",
    "name": "kony.ui.Button",
    "parent": "flexFooter",
    "pf": "frmMyQRInformation",
    "showprogressindicator": false,
    "texti18n": "btnGenerateQRCode",
    "wType": "Button",
    "zindex": 2
}