{
    "DNDConfig": null,
    "_enabled_": false,
    "_margin_": [
        0,
        0,
        0,
        0
    ],
    "_padding_": [
        0,
        0,
        0,
        0
    ],
    "_skin_": "se0492a5f9d043aeba02a0975034ba65",
    "_text_": "",
    "canUpdateUI": true,
    "containerweight": 50,
    "contentalignment": 5,
    "desktopweb": {
        "@class": "com.kony.gen.viz.model.component.property.button.DesktopWebButtonProperty",
        "displayText": true,
        "render": true
    },
    "displaytext": true,
    "focusskin": "s8a0ce131cd04929a4f72daba7e325d4",
    "hexpand": true,
    "id": "btnContactUs",
    "ide_onClick": "p2kwiet2012247641860_btnContactUs_onClick_seq0",
    "info": null,
    "isvisible": true,
    "kiosk": {
        "@class": "com.kony.gen.viz.model.component.property.button.KioskButtonProperty",
        "render": true
    },
    "kuid": "p2kwiet2012247641766",
    "margininpixel": false,
    "name": "kony.ui.Button",
    "paddinginpixel": false,
    "parent": "hbox506459299512370",
    "pf": "frmIBContactUs",
    "spa": {
        "@class": "com.kony.gen.viz.model.component.property.button.SPAButtonProperty",
        "displayText": true
    },
    "texti18n": "keyContactUs",
    "vexpand": false,
    "wType": "Button",
    "widgetalignment": 5
}