{
    "DNDConfig": null,
    "_enabled_": false,
    "_margin_": [
        0,
        1,
        0,
        1
    ],
    "_orientation_": 1,
    "_padding_": [
        0,
        0,
        0,
        0
    ],
    "_percent_": true,
    "_position_": 3,
    "_resize_": true,
    "_skin_": "sf409ee1080a41849cabfc6aa336e692",
    "allboxes": [],
    "borderCollapse": false,
    "canUpdateUI": true,
    "children": [
        "image2476822990294574",
        "btn3"
    ],
    "containerweight": 100,
    "desktopweb": {
        "@class": "com.kony.gen.viz.model.container.property.hbox.DesktopWebHBoxProperty",
        "_position_": 3,
        "position": 3,
        "render": true
    },
    "id": "hbxFB3",
    "ide_onClick": "p2kwiet2012247641860_hbxFB3_onClick_seq0",
    "info": null,
    "isvisible": false,
    "kiosk": {
        "@class": "com.kony.gen.viz.model.container.property.hbox.KioskHBoxProperty",
        "_position_": 3,
        "position": 3,
        "render": true
    },
    "kuid": "p2kwiet2012247641781",
    "layoutalignment": 3,
    "layouttype": 0,
    "margininpixel": false,
    "name": "kony.ui.Box",
    "paddinginpixel": false,
    "parent": "vbxConfirm",
    "pf": "frmIBContactUs",
    "spa": {
        "@class": "com.kony.gen.viz.model.container.property.hbox.SPAHBoxProperty"
    },
    "templateType": "forms",
    "wType": "HBox",
    "widgetalignment": 1
}