{
    "@class": "com.kony.gen.viz.model.component.KVizLine",
    "DNDConfig": null,
    "_margin_": [
        0,
        1,
        0,
        0
    ],
    "_padding_": [
        0,
        0,
        0,
        0
    ],
    "_skin_": "s39db7d025404e4b94521036cef4b99f",
    "_thickness_": 1,
    "canUpdateUI": true,
    "containerWeightLocked": false,
    "containerweight": 100,
    "id": "CopyLine0c5a92ff547734c",
    "info": null,
    "isvisible": true,
    "kuid": "d8da6c99f755462f8d5007388d092760",
    "margininpixel": false,
    "name": "kony.ui.Line",
    "parent": "CopyVBox0be820e40e4fe4d",
    "pf": "frmIBMFComplete",
    "wType": "Line"
}