{
    "@class": "com.kony.gen.viz.model.container.KVizVBox",
    "DNDConfig": null,
    "__markedForDelete__": true,
    "_margin_": [
        0,
        0,
        0,
        0
    ],
    "_orientation_": 2,
    "_padding_": [
        0,
        0,
        0,
        0
    ],
    "_percent_": true,
    "_position_": 3,
    "_skin_": "s0e13ed4077f481ab090dae6b2e595ed",
    "allboxes": [],
    "canUpdateUI": true,
    "children": [
        "lblselectAccnt",
        "lblselectAccntVal",
        "Line0b7eae55c48f545"
    ],
    "containerweight": 100,
    "contextmenu": null,
    "id": "VBox0f3da940daac64b",
    "info": null,
    "isvisible": true,
    "kuid": "g151c6081acb45baaeb4f1f9b6f9aac7",
    "layouttype": 0,
    "name": "kony.ui.Box",
    "paddInPixel": [
        0,
        0,
        0,
        0
    ],
    "parent": "HBox0f8605226cf804c",
    "pf": "frmIBMFComplete",
    "wType": "VBox",
    "widgetalignment": 1
}