{
    "DNDConfig": null,
    "_enabled_": false,
    "_margin_": [
        0,
        3,
        0,
        0
    ],
    "_orientation_": 1,
    "_padding_": [
        0,
        0,
        0,
        0
    ],
    "_percent_": true,
    "_position_": 3,
    "_resize_": true,
    "_skin_": "sd4664f088944426ada59291093f2ab5",
    "allboxes": [],
    "borderCollapse": false,
    "canUpdateUI": true,
    "children": [
        "vbox449081800174723",
        "vbox449081800174877"
    ],
    "containerweight": 100,
    "desktopweb": {
        "@class": "com.kony.gen.viz.model.container.property.hbox.DesktopWebHBoxProperty",
        "_padding_": [
            0,
            4,
            0,
            14
        ],
        "_position_": 3,
        "padding": [
            0,
            4,
            0,
            14
        ],
        "paddingInPixel": false,
        "position": 3,
        "render": true
    },
    "focusskin": "sd4664f088944426ada59291093f2ab5",
    "id": "hbox449081800174722",
    "info": null,
    "isvisible": true,
    "kiosk": {
        "@class": "com.kony.gen.viz.model.container.property.hbox.KioskHBoxProperty",
        "_position_": 3,
        "position": 3,
        "render": true
    },
    "kuid": "p2kwiet2012247647559",
    "layoutalignment": 3,
    "layouttype": 0,
    "margininpixel": false,
    "name": "kony.ui.Box",
    "paddinginpixel": false,
    "parent": "vbox447294339498946",
    "pf": "frmIBSSApply",
    "spa": {
        "@class": "com.kony.gen.viz.model.container.property.hbox.SPAHBoxProperty"
    },
    "templateType": "forms",
    "wType": "HBox",
    "widgetalignment": 1
}