{
    "DNDConfig": null,
    "_enabled_": false,
    "_margin_": [
        0,
        0,
        0,
        0
    ],
    "_orientation_": 2,
    "_padding_": [
        0,
        0,
        0,
        2
    ],
    "_position_": 3,
    "_resize_": true,
    "_skin_": "s97cc6c86bf047e2b52aaaa0fedee429",
    "allboxes": [],
    "borderCollapse": false,
    "canUpdateUI": true,
    "children": [
        "lblHdrIBApplySS",
        "hbox104235656425329",
        "line449290336567019",
        "hboxLinkedAcct",
        "hbox449081800174722",
        "hbxNoFix",
        "hbxCancelSave",
        "hbxNext"
    ],
    "containerweight": 50,
    "desktopweb": {
        "@class": "com.kony.gen.viz.model.container.property.vbox.DesktopWebVBoxProperty",
        "render": true
    },
    "id": "vbox447294339498946",
    "info": null,
    "isvisible": true,
    "kiosk": {
        "@class": "com.kony.gen.viz.model.container.property.vbox.KioskVBoxProperty",
        "render": true
    },
    "kuid": "p2kwiet2012247647588",
    "layouttype": 0,
    "margininpixel": false,
    "name": "kony.ui.Box",
    "paddinginpixel": false,
    "parent": "hbxSSMiddleRight",
    "pf": "frmIBSSApply",
    "spa": {
        "@class": "com.kony.gen.viz.model.container.property.vbox.SPAVBoxProperty"
    },
    "templateType": "forms",
    "wType": "VBox",
    "widgetalignment": 1
}