{
    "DNDConfig": null,
    "_enabled_": false,
    "_margin_": [
        0,
        0,
        0,
        0
    ],
    "_padding_": [
        0,
        0,
        0,
        0
    ],
    "_skin_": "s034c85f657b484b97cb6c86858549aa",
    "_text_": "more",
    "android": {
        "@class": "com.kony.gen.viz.model.component.property.link.AndroidLinkProperty",
        "_margin_": [
            8,
            8,
            8,
            0
        ],
        "_padding_": [
            2,
            0,
            0,
            0
        ],
        "margin": [
            8,
            8,
            8,
            0
        ],
        "marginInPixel": true,
        "padding": [
            2,
            0,
            0,
            0
        ],
        "paddingInPixel": false,
        "render": true
    },
    "canUpdateUI": true,
    "containerweight": 100,
    "contentalignment": 6,
    "focusskin": "s034c85f657b484b97cb6c86858549aa",
    "hexpand": true,
    "id": "btnMore",
    "ide_onClick": "p2kwiet2012247634671_btnMore_onClick_seq0",
    "info": null,
    "iphone": {
        "@class": "com.kony.gen.viz.model.component.property.link.IPhoneLinkProperty",
        "_margin_": [
            10,
            2,
            10,
            0
        ],
        "_padding_": [
            2,
            0,
            0,
            0
        ],
        "margin": [
            10,
            2,
            10,
            0
        ],
        "marginInPixel": false,
        "padding": [
            2,
            0,
            0,
            0
        ],
        "paddingInPixel": false,
        "psp": {
            "glowEffect": false
        },
        "render": true
    },
    "isvisible": true,
    "kuid": "p2kwiet2012247634657",
    "margininpixel": false,
    "name": "kony.ui.Link",
    "paddinginpixel": false,
    "parent": "sboxRight",
    "pf": "frmMyRecipientSelectFacebook",
    "spa": {
        "@class": "com.kony.gen.viz.model.component.property.link.SPALinkProperty"
    },
    "spaan": {
        "@class": "com.kony.gen.viz.model.component.property.link.SPAAndroidLinkProperty",
        "_margin_": [
            0,
            0,
            3,
            0
        ],
        "_padding_": [
            0,
            0,
            0,
            0
        ],
        "margin": [
            0,
            0,
            3,
            0
        ],
        "marginInPixel": false,
        "padding": [
            0,
            0,
            0,
            0
        ],
        "paddingInPixel": false,
        "render": true
    },
    "spabb": {
        "@class": "com.kony.gen.viz.model.component.property.link.SPABBLinkProperty",
        "_padding_": [
            0,
            0,
            0,
            0
        ],
        "padding": [
            0,
            0,
            0,
            0
        ],
        "paddingInPixel": false,
        "render": true
    },
    "spaip": {
        "@class": "com.kony.gen.viz.model.component.property.link.SPAIPhoneLinkProperty",
        "_padding_": [
            0,
            0,
            3,
            0
        ],
        "padding": [
            0,
            0,
            3,
            0
        ],
        "paddingInPixel": false,
        "render": true
    },
    "spawinphone8": {
        "@class": "com.kony.gen.viz.model.component.property.link.SPAWinPhone8LinkProperty",
        "render": true
    },
    "vexpand": false,
    "wType": "Link",
    "widgetalignment": 5,
    "winphone8": {
        "@class": "com.kony.gen.viz.model.component.property.link.WinPhone8LinkProperty",
        "_margin_": [
            1,
            1,
            1,
            1
        ],
        "_padding_": [
            1,
            1,
            1,
            1
        ],
        "margin": [
            1,
            1,
            1,
            1
        ],
        "marginInPixel": true,
        "padding": [
            1,
            1,
            1,
            1
        ],
        "paddingInPixel": true,
        "psp": {
            "enableCache": false
        },
        "render": true
    }
}