{
    "@class": "com.kony.gen.viz.model.component.KVizButton",
    "DNDConfig": null,
    "__parentReadjusting__": false,
    "_height_": {
        "type": "string",
        "value": "55%"
    },
    "_left_": {
        "type": "string",
        "value": "0dp"
    },
    "_margin_": [
        6,
        6,
        6,
        6
    ],
    "_padding_": [
        0,
        0,
        0,
        0
    ],
    "_skin_": "s26e209fba9b4493bb5a43da86d48c69",
    "_text_": "",
    "_width_": {
        "type": "string",
        "value": "90%"
    },
    "canUpdateUI": true,
    "centerx": {
        "type": "string",
        "value": "49.99%"
    },
    "centery": {
        "type": "string",
        "value": "50%"
    },
    "containerweight": 100,
    "contentalignment": 5,
    "displaytext": true,
    "focusskin": "s7d02bf2516c487c811aa027abb2252c",
    "id": "btnSubmit",
    "ide_onClick": "AS_Button_b234a194fc334174ada9424f02689d16",
    "info": null,
    "iphone": {
        "psp": {
            "showProgressIndicator": false
        }
    },
    "isvisible": false,
    "kuid": "cf4a8bbf8aac42489e1863d740355e34",
    "name": "kony.ui.Button",
    "parent": "flexFooter",
    "pf": "frmUVTransRejectMenu",
    "texti18n": "MF_ST_Btn_Sumit",
    "wType": "Button",
    "zindex": 1
}