{
    "DNDConfig": null,
    "_height_": {
        "type": "string",
        "value": "50dp"
    },
    "_margin_": [
        0,
        0,
        0,
        0
    ],
    "_orientation_": 6,
    "_padding_": [
        0,
        0,
        0,
        0
    ],
    "_percent_": true,
    "_skin_": "s918d2c198cc4b1b99c1a0fe1f4e0370",
    "allboxes": [],
    "autogrowmode": 0,
    "canUpdateUI": true,
    "children": [
        "lblorderDateVal",
        "lblTimeVal",
        "lbltransVal",
        "lblAmountVal"
    ],
    "clipbounds": true,
    "containerId": true,
    "containerweight": 100,
    "enablescrolling": true,
    "id": "FlexmainOrederProcessed",
    "info": null,
    "isTemplate": true,
    "isvisible": true,
    "kuid": "c559073cfa9746509d3dddd7a7910254",
    "layouttype": 3,
    "name": "kony.ui.FlexContainer",
    "parent": "TemplateOrderTobeProcess",
    "pf": "TemplateOrderTobeProcess",
    "snapgridsize": 10,
    "snaptogrid": true,
    "wType": "FlexContainer",
    "widgetalignment": 4
}