{
    "DNDConfig": null,
    "_base64_": null,
    "_enabled_": false,
    "_padding_": [
        0,
        0,
        0,
        0
    ],
    "_skin_": "s74407cc01df451c9a740ebe48f853eb",
    "_src_": "transparent.png",
    "_text_": "transparent.png",
    "canUpdateUI": true,
    "containerweight": 4,
    "contentalignment": 5,
    "context": {
        "channel": "desktop",
        "ispercent": true,
        "platform": "desktopweb",
        "templateType": "forms",
        "topLevelBox": false
    },
    "desktopweb": {
        "@class": "com.kony.gen.viz.model.component.property.image2.DesktopWebImage2Property",
        "_margin_": [
            27,
            0,
            0,
            0
        ],
        "_padding_": [
            210,
            0,
            0,
            0
        ],
        "margin": [
            27,
            0,
            0,
            0
        ],
        "marginInPixel": false,
        "padding": [
            210,
            0,
            0,
            0
        ],
        "paddingInPixel": false,
        "render": false
    },
    "hexpand": false,
    "id": "arrowXferScheduleField",
    "imagescalemode": 1,
    "info": null,
    "ispercent": true,
    "isvisible": false,
    "kiosk": {
        "@class": "com.kony.gen.viz.model.component.property.image2.KioskImage2Property",
        "render": true
    },
    "kuid": "p2kwiet2012247649208",
    "name": "kony.ui.Image2",
    "paddinginpixel": false,
    "parent": "hbxXferTransferRange",
    "pf": "frmIBTranferLP",
    "spa": {
        "@class": "com.kony.gen.viz.model.component.property.image2.SPAImage2Property"
    },
    "srcType": 1,
    "vexpand": false,
    "wType": "Image",
    "widgetalignment": 6
}