{
    "DNDConfig": null,
    "_enabled_": false,
    "_margin_": [
        0,
        0,
        0,
        0
    ],
    "_padding_": [
        0,
        0,
        0,
        0
    ],
    "_skin_": "seb5c493f184491b9af97bea7ba25eca",
    "_text_": "",
    "canUpdateUI": true,
    "containerweight": 7,
    "contentalignment": 5,
    "desktopweb": {
        "@class": "com.kony.gen.viz.model.component.property.button.DesktopWebButtonProperty",
        "_margin_": [
            0,
            26,
            3,
            0
        ],
        "_padding_": [
            0,
            8,
            0,
            8
        ],
        "displayText": true,
        "margin": [
            0,
            26,
            3,
            0
        ],
        "marginInPixel": false,
        "padding": [
            0,
            8,
            0,
            8
        ],
        "paddingInPixel": false,
        "render": true
    },
    "displaytext": true,
    "focusskin": "seb5c493f184491b9af97bea7ba25eca",
    "hexpand": false,
    "id": "btnTD",
    "ide_onClick": "p2kwiet2012247649303_btnTD_onClick_seq0",
    "info": null,
    "isvisible": false,
    "kiosk": {
        "@class": "com.kony.gen.viz.model.component.property.button.KioskButtonProperty",
        "_margin_": [
            0,
            1,
            3,
            0
        ],
        "margin": [
            0,
            1,
            3,
            0
        ],
        "marginInPixel": false,
        "render": true
    },
    "kuid": "p2kwiet2012247649186",
    "margininpixel": false,
    "name": "kony.ui.Button",
    "paddinginpixel": false,
    "parent": "hbxMaturity",
    "pf": "frmIBTranferLP",
    "spa": {
        "@class": "com.kony.gen.viz.model.component.property.button.SPAButtonProperty",
        "displayText": true
    },
    "vexpand": false,
    "wType": "Button",
    "widgetalignment": 3
}