{
    "DNDConfig": null,
    "_base64_": null,
    "_enabled_": false,
    "_margin_": [
        0,
        0,
        0,
        0
    ],
    "_padding_": [
        0,
        0,
        0,
        0
    ],
    "_skin_": "s74407cc01df451c9a740ebe48f853eb",
    "_src_": "en_account_active.png",
    "_text_": "en_account_active.png",
    "canUpdateUI": true,
    "containerweight": 100,
    "contentalignment": 5,
    "context": {
        "channel": "desktop",
        "ispercent": true,
        "platform": "desktopweb",
        "templateType": "forms",
        "topLevelBox": false
    },
    "desktopweb": {
        "@class": "com.kony.gen.viz.model.component.property.image2.DesktopWebImage2Property",
        "render": true
    },
    "hexpand": false,
    "id": "imgTabBankAccount",
    "imagescalemode": 1,
    "info": null,
    "ispercent": true,
    "isvisible": true,
    "kiosk": {
        "@class": "com.kony.gen.viz.model.component.property.image2.KioskImage2Property",
        "render": true
    },
    "kuid": "p2kwiet2012247649265",
    "margininpixel": false,
    "name": "kony.ui.Image2",
    "paddinginpixel": false,
    "parent": "vbxTabBankAccount",
    "pf": "frmIBTranferLP",
    "spa": {
        "@class": "com.kony.gen.viz.model.component.property.image2.SPAImage2Property"
    },
    "srcType": 1,
    "vexpand": false,
    "wType": "Image",
    "widgetalignment": 5
}