{
    "DNDConfig": null,
    "__parentReadjusting__": false,
    "_height_": {
        "type": "string",
        "value": "100%"
    },
    "_left_": {
        "type": "string",
        "value": "0dp"
    },
    "_margin_": [
        0,
        0,
        0,
        0
    ],
    "_orientation_": 6,
    "_padding_": [
        0,
        0,
        0,
        0
    ],
    "_percent_": true,
    "_skin_": "sf16386922154a1ea965e4cdf033ea5e",
    "_top_": {
        "type": "string",
        "value": "0%"
    },
    "_width_": {
        "type": "string",
        "value": "100%"
    },
    "allboxes": [],
    "autogrowmode": 0,
    "canUpdateUI": true,
    "children": [
        "flexContainerOuter",
        "btnPopUpClose",
        "imgDocProg",
        "lblFileName",
        "imgSelectedFile"
    ],
    "clipbounds": true,
    "containerweight": 100,
    "enablescrolling": true,
    "id": "flxProgress",
    "info": null,
    "isvisible": false,
    "kuid": "b30c1b00911445c7a4bf626e7c411f72",
    "layouttype": 2,
    "name": "kony.ui.FlexContainer",
    "parent": "frmUploadDocuments",
    "pf": "frmUploadDocuments",
    "snapgridsize": 10,
    "snaptogrid": true,
    "wType": "FlexContainer",
    "widgetalignment": 1,
    "zindex": 1
}