{
    "DNDConfig": null,
    "_enabled_": false,
    "_image_": "",
    "_margin_": [
        0,
        0,
        0,
        0
    ],
    "_orientation_": 0,
    "_padding_": [
        0,
        0,
        0,
        0
    ],
    "_percent_": true,
    "_position_": 3,
    "_render_": true,
    "_skin_": "s46b52a44fb84a4e92447e182d68c888",
    "allboxes": [],
    "canUpdateUI": true,
    "children": [
        "hbox47417063034230",
        "hbox47417063034233",
        "hbox47417063034266",
        "hbox1",
        "line47417063034637",
        "hbox2",
        "line47417063034636",
        "hbox3",
        "line47417063034635",
        "hbox4",
        "line47417063034634",
        "hbox5",
        "line47417063034633",
        "hbox6"
    ],
    "containerweight": 100,
    "desktopweb": {
        "@class": "com.kony.gen.viz.model.container.property.tab.DesktopWebTabProperty",
        "_padding_": [
            0,
            0,
            0,
            0
        ],
        "padding": [
            0,
            0,
            0,
            0
        ],
        "paddingInPixel": false,
        "psp": {
            "tabHeaderTemplateId": ""
        },
        "render": true
    },
    "id": "tab47417063027902",
    "ide_onInit": "p2kwiet2012247650732_tab47417063027902_onInit_seq0",
    "info": null,
    "isvisible": true,
    "kiosk": {
        "@class": "com.kony.gen.viz.model.container.property.tab.KioskTabProperty",
        "render": true
    },
    "kuid": "p2kwiet2012247650722",
    "layoutalignment": 0,
    "layouttype": 0,
    "margininpixel": false,
    "name": "kony.ui.Tab",
    "oninit": null,
    "paddinginpixel": false,
    "parent": "tabpane47417063027630",
    "pf": "popupbiller",
    "spa": {
        "@class": "com.kony.gen.viz.model.container.property.tab.SPATabProperty"
    },
    "spacing": 1,
    "tabname": "Search Biller",
    "wType": "Tab",
    "widgetalignment": 1
}