{
    "@class": "com.kony.gen.viz.model.component.KVizButton",
    "DNDConfig": null,
    "__parentReadjusting__": false,
    "_height_": {
        "type": "string",
        "value": "100%"
    },
    "_left_": {
        "type": "string",
        "value": "0dp"
    },
    "_margin_": [
        6,
        6,
        6,
        6
    ],
    "_padding_": [
        0,
        0,
        0,
        0
    ],
    "_skin_": "s8917c9c29c94ff4a2baa25842219014",
    "_text_": "cancel",
    "_top_": {
        "type": "string",
        "value": "0dp"
    },
    "_width_": {
        "type": "string",
        "value": "33.30%"
    },
    "canUpdateUI": true,
    "containerweight": 100,
    "contentalignment": 5,
    "displaytext": true,
    "focusskin": "sb03125d6967435d9bab3829bc2d31d6",
    "id": "CopyButton0ef5e5f0657c047",
    "info": null,
    "isvisible": true,
    "kuid": "ja3a6a7d2b524cdc940752f0308704bc",
    "name": "kony.ui.Button",
    "parent": "CopyFlexContainer0c2fe9f39e8f243",
    "pf": "frmMBQRConfirm",
    "wType": "Button",
    "zindex": 1
}