{
    "DNDConfig": null,
    "_base64_": null,
    "_enabled_": false,
    "_margin_": [
        0,
        0,
        0,
        0
    ],
    "_padding_": [
        0,
        0,
        0,
        0
    ],
    "_skin_": "s74407cc01df451c9a740ebe48f853eb",
    "_src_": "transparent.png",
    "_text_": "transparent.png",
    "canUpdateUI": true,
    "containerweight": 100,
    "contentalignment": 5,
    "desktopweb": {
        "@class": "com.kony.gen.viz.model.component.property.image2.DesktopWebImage2Property",
        "_margin_": [
            0,
            2,
            0,
            0
        ],
        "margin": [
            0,
            2,
            0,
            0
        ],
        "marginInPixel": false,
        "render": true
    },
    "hexpand": false,
    "id": "imgAddMyAcct",
    "imagescalemode": 0,
    "imagewhenfailed": "transparent.png",
    "imagewhiledownloading": "transparent.png",
    "info": null,
    "isvisible": true,
    "kiosk": {
        "@class": "com.kony.gen.viz.model.component.property.image2.KioskImage2Property",
        "render": true
    },
    "kuid": "p2kwiet2012247638746",
    "margininpixel": false,
    "name": "kony.ui.Image2",
    "paddinginpixel": false,
    "parent": "hbxAdv",
    "pf": "frmIBAddMyAccnt",
    "referenceheight": 120,
    "referencewidth": 320,
    "spa": {
        "@class": "com.kony.gen.viz.model.component.property.image2.SPAImage2Property"
    },
    "srcType": 1,
    "vexpand": false,
    "wType": "Image",
    "widgetalignment": 5
}