{
    "DNDConfig": null,
    "_enabled_": false,
    "_margin_": [
        0,
        5,
        0,
        0
    ],
    "_padding_": [
        0,
        2,
        10,
        5
    ],
    "_skin_": "s77e157ba8e8401a94d581b60f5ef840",
    "_text_": "",
    "canUpdateUI": true,
    "containerweight": 100,
    "contentalignment": 5,
    "desktopweb": {
        "@class": "com.kony.gen.viz.model.component.property.button.DesktopWebButtonProperty",
        "_margin_": [
            0,
            5,
            0,
            0
        ],
        "_padding_": [
            0,
            1,
            0,
            5
        ],
        "displayText": true,
        "margin": [
            0,
            5,
            0,
            0
        ],
        "marginInPixel": false,
        "padding": [
            0,
            1,
            0,
            5
        ],
        "paddingInPixel": false,
        "render": true
    },
    "displaytext": true,
    "focusskin": "s77e157ba8e8401a94d581b60f5ef840",
    "hexpand": true,
    "id": "btnaddother",
    "ide_onClick": "p2kwiet2012247645253_btnaddother_onClick_seq0",
    "info": null,
    "isvisible": false,
    "kiosk": {
        "@class": "com.kony.gen.viz.model.component.property.button.KioskButtonProperty",
        "render": true
    },
    "kuid": "p2kwiet2012247645243",
    "margininpixel": false,
    "name": "kony.ui.Button",
    "paddinginpixel": false,
    "parent": "vboxAddAccntConf",
    "pf": "frmIBMyReceipentsFBContactConf",
    "spa": {
        "@class": "com.kony.gen.viz.model.component.property.button.SPAButtonProperty",
        "displayText": true
    },
    "texti18n": "Recipient_FBAddMore",
    "vexpand": false,
    "wType": "Button",
    "widgetalignment": 8
}