{
    "@class": "com.kony.gen.viz.model.component.KVizRichText",
    "DNDConfig": null,
    "__parentReadjusting__": false,
    "_height_": {
        "type": "ref",
        "value": "preferred"
    },
    "_left_": {
        "type": "string",
        "value": "0dp"
    },
    "_margin_": [
        0,
        0,
        0,
        0
    ],
    "_padding_": [
        0,
        0,
        0,
        0
    ],
    "_skin_": "s1e22d67dc1b46d1a814c71f6ac0deeb",
    "_text_": "\n\nFacial Identification Tips:<br> •  Appear similar to your ID photo<br> •  Make sure your face is well-lit<br> •  Prescription glasses only if in ID<br> •  No hat<br> •  No sunglasses",
    "_top_": {
        "type": "string",
        "value": "0dp"
    },
    "_width_": {
        "type": "string",
        "value": "90%"
    },
    "_wrapping_": 2,
    "canUpdateUI": true,
    "centerx": {
        "type": "string",
        "value": "50%"
    },
    "containerweight": 100,
    "contentalignment": 4,
    "id": "RichTextFacerecognitionTips",
    "info": null,
    "iscustomlayout": false,
    "isvisible": true,
    "kuid": "g2d43e36eb434e7bbafffa4c48602ce0",
    "linkskin": "sd8e663451a34830be64c79a9ed4878f",
    "name": "kony.ui.RichText",
    "parent": "CopyflxSubheader0d86fbf815f7940",
    "pf": "frmMBeKYCFaceRecg",
    "retaincontentalignment": false,
    "retainflexpositionproperties": false,
    "texti18n": "eKYC_FaceRecognitionTips",
    "wType": "RichText",
    "widgetalignment": 5,
    "zindex": 1
}