{
    "@class": "com.kony.gen.viz.model.component.KVizImage2",
    "DNDConfig": null,
    "_base64_": null,
    "_margin_": [
        0,
        0,
        3,
        0
    ],
    "_padding_": [
        0,
        0,
        3,
        0
    ],
    "_skin_": "s55d8a5125e74bb0b2eaca75c423dae1",
    "_src_": "back_btn.png",
    "canUpdateUI": true,
    "containerweight": 100,
    "context": {
        "channel": "mobile",
        "ispercent": true,
        "platform": "iphone",
        "templateType": "forms",
        "topLevelBox": false
    },
    "id": "imgMenuBack",
    "imagescalemode": 1,
    "info": null,
    "invokedProperty": "src",
    "ispercent": true,
    "isvisible": true,
    "kuid": "h53fbfcbea3249bf9b1fd925fe7ba8f6",
    "margininpixel": false,
    "name": "kony.ui.Image2",
    "paddInPixel": [
        0,
        0,
        0,
        0
    ],
    "paddinginpixel": false,
    "parent": "btnBack",
    "pf": "frmCardlessWithdrawSelectAccount",
    "srcType": 1,
    "wType": "Image",
    "widgetalignment": 4
}