{
    "DNDConfig": null,
    "_enabled_": false,
    "_margin_": [
        1,
        0,
        0,
        0
    ],
    "_padding_": [
        0,
        0,
        0,
        0
    ],
    "_skin_": "sd98d3586403474aad8b97e7b4ceb850",
    "_text_": "",
    "canUpdateUI": true,
    "containerweight": 39,
    "contentalignment": 4,
    "desktopweb": {
        "@class": "com.kony.gen.viz.model.component.property.link.DesktopWebLinkProperty",
        "_margin_": [
            1,
            0,
            0,
            0
        ],
        "_padding_": [
            0,
            0,
            0,
            0
        ],
        "margin": [
            1,
            0,
            0,
            0
        ],
        "marginInPixel": false,
        "padding": [
            0,
            0,
            0,
            0
        ],
        "paddingInPixel": false,
        "render": true
    },
    "focusskin": "s14a74a04ea04934b1ec81571bb3f099",
    "hexpand": false,
    "id": "lnkFullStatement",
    "ide_onClick": "p2kwiet2012247638386_lnkFullStatement_onClick_seq0",
    "info": null,
    "isvisible": true,
    "kiosk": {
        "@class": "com.kony.gen.viz.model.component.property.link.KioskLinkProperty",
        "_margin_": [
            1,
            0,
            0,
            0
        ],
        "margin": [
            1,
            0,
            0,
            0
        ],
        "marginInPixel": false,
        "render": true
    },
    "kuid": "p2kwiet2012247638253",
    "margininpixel": false,
    "name": "kony.ui.Link",
    "paddinginpixel": false,
    "parent": "hbox5028843721397",
    "pf": "frmIBAccntSummary",
    "spa": {
        "@class": "com.kony.gen.viz.model.component.property.link.SPALinkProperty"
    },
    "texti18n": "FullStat",
    "vexpand": false,
    "wType": "Link",
    "widgetalignment": 4
}