{
    "DNDConfig": null,
    "_data_": [
        {
            "column1": {
                "lbltransid": {
                    "skin": "sdff89237eda49a5b5ec44f82b073273",
                    "text": "Label"
                }
            },
            "column2": {},
            "column4": {},
            "column5": {},
            "column6": {}
        }
    ],
    "_enabled_": false,
    "_margin_": [
        0,
        0,
        0,
        0
    ],
    "_padding_": [
        0,
        0,
        0,
        0
    ],
    "_text_": "",
    "canUpdateUI": true,
    "cellBorder": "thin solid #5c115c",
    "columnheadersconfig": [
        {
            "columnContentAlignment": 5,
            "columnDataTemplate": "p2kwiet2012247652370",
            "columnHeaderTemplate": {
                "data": {
                    "lbltransid": {
                        "skin": "s9052e4262fb4faaaf4601b96cfd519e",
                        "text": "Label"
                    }
                },
                "template": "p2kwiet2012247652370"
            },
            "columnHeaderText": "IBMyActivitiesFTC2",
            "columnID": "column1",
            "columnType": "template",
            "columnWidthInPercentage": 4,
            "isColumnSortable": true,
            "kuid": "columndata18132554841986"
        },
        {
            "columnContentAlignment": 5,
            "columnDataTemplate": "p2kwiet2012247652370",
            "columnHeaderTemplate": {
                "data": {
                    "lbltransid": {
                        "skin": "s9052e4262fb4faaaf4601b96cfd519e",
                        "text": "Label"
                    }
                },
                "template": "p2kwiet2012247652370"
            },
            "columnHeaderText": "IBMyActivitiesFTC2",
            "columnID": "column2",
            "columnType": "template",
            "columnWidthInPercentage": 5,
            "isColumnSortable": true,
            "kuid": "columndata18132554841988"
        },
        {
            "columnContentAlignment": 5,
            "columnDataTemplate": "p2kwiet2012247652370",
            "columnHeaderTemplate": {
                "data": {
                    "lbltransid": {
                        "skin": "s9052e4262fb4faaaf4601b96cfd519e",
                        "text": "Label"
                    }
                },
                "template": "p2kwiet2012247652370"
            },
            "columnHeaderText": "IBMyActivitiesFTC2",
            "columnID": "column4",
            "columnType": "template",
            "columnWidthInPercentage": 5,
            "isColumnSortable": true,
            "kuid": "columndata18132554841990"
        },
        {
            "columnContentAlignment": 5,
            "columnDataTemplate": "p2kwiet2012247652374",
            "columnHeaderTemplate": {
                "data": {
                    "lbltransid": {
                        "skin": "s9052e4262fb4faaaf4601b96cfd519e",
                        "text": ""
                    }
                },
                "template": "p2kwiet2012247652374"
            },
            "columnHeaderText": "IBMyActivitiesFTC3",
            "columnID": "column5",
            "columnType": "template",
            "columnWidthInPercentage": 6,
            "isColumnSortable": true,
            "kuid": "columndata18132554841992"
        },
        {
            "columnContentAlignment": 5,
            "columnDataTemplate": "p2kwiet2012247652374",
            "columnHeaderTemplate": {
                "data": {
                    "lbltransid": {
                        "skin": "s9052e4262fb4faaaf4601b96cfd519e",
                        "text": ""
                    }
                },
                "template": "p2kwiet2012247652374"
            },
            "columnHeaderText": "IBMyActivitiesFTC3",
            "columnID": "column6",
            "columnType": "template",
            "columnWidthInPercentage": 7,
            "isColumnSortable": true,
            "kuid": "columndata18132554841994"
        }
    ],
    "columnids": [
        "col1",
        "col2",
        "col3"
    ],
    "columntype": [
        "text",
        "text",
        "text"
    ],
    "containerweight": 100,
    "contentalignment": 1,
    "context": {
        "channel": "mobile",
        "formID": "NewForm2013722173539288",
        "platform": "iphone",
        "templateType": "forms",
        "topLevelBox": null
    },
    "counter": 5,
    "desktopweb": {
        "@class": "com.kony.gen.viz.model.component.property.table.DesktopWebTableProperty",
        "psp": {
            "dockingHeader": false,
            "enableScrollBar": "0"
        },
        "render": true
    },
    "focusedindex": null,
    "focuseditem": null,
    "focusskin": "dgIBgrey",
    "gridlinecolor": "5c115c",
    "gridlinestyle": "solid",
    "headerskin": "s6ca9a3f012249ca9e5140369fd3e290",
    "hexpand": true,
    "id": "dgloan",
    "info": null,
    "ismultiselect": false,
    "isvisible": true,
    "kuid": "p2kwiet2012247638222",
    "margininpixel": false,
    "name": "kony.ui.DataGrid",
    "paddinginpixel": false,
    "parent": "vbxXferMiddleRight",
    "pf": "frmIBAccntFullStatement",
    "rowalternateskin": "s095c5a1e9e643f68412e0f56c38671a",
    "rowcount": 4,
    "rowfocusskin": "s0f013db827e4c5e96185dcb5c324e92",
    "rownormalskin": "s169b00af8914b5a921c0aa83241afd3",
    "selectedcellindex": null,
    "selectedcellitem": null,
    "selectedindex": null,
    "selectedindices": null,
    "selecteditem": null,
    "selecteditems": null,
    "showcolumnheaders": true,
    "spa": {
        "@class": "com.kony.gen.viz.model.component.property.table.SPATableProperty"
    },
    "vexpand": false,
    "wType": "DataGrid",
    "widgetalignment": 5
}