{
    "AS_Button_h8c24cbcb8f64b8babb126c1b8567b34": {
        "id": "AS_Button_h8c24cbcb8f64b8babb126c1b8567b34",
        "type": "ACTION_SEQUENCE",
        "params": [{
            "datatype": "collection",
            "name": "eventobject"
        }],
        "contextObj": {
            "name": "frmMBFTEditCmplete",
            "type": "forms",
            "platform": "",
            "KUID": "c4ebbbc10bd54837ac0f7eaf1509b702"
        },
        "language": "js",
        "actions": []
    }
}