{
    "AS_Button_d08a00d1575b4b359fa008d85bcd9ea4": {
        "id": "AS_Button_d08a00d1575b4b359fa008d85bcd9ea4",
        "type": "ACTION_SEQUENCE",
        "params": [{
            "name": "eventobject",
            "value": "eventobject"
        }],
        "language": "js",
        "actions": [{
            "id": "INVOKE_FUNCTION__ide_onClick_f58e3655030d493cb4c0afd9d0be9f7d",
            "type": "INVOKE_FUNCTION",
            "sequenceKUID": "callNative",
            "display": "callNative",
            "inputparams": [{
                "name": "mobileno",
                "value": "gblTMBContactNumber"
            }],
            "source": "module"
        }]
    }
}