{
    "AS_Button_ee00bd9d189f4ddebd29850082a03386": {
        "id": "AS_Button_ee00bd9d189f4ddebd29850082a03386",
        "type": "ACTION_SEQUENCE",
        "name": "AS_Button_saveChangeLanguage",
        "params": [{
            "datatype": "collection",
            "name": "eventobject"
        }],
        "contextObj": {
            "name": "frmChangeLanguage",
            "type": "forms",
            "platform": "",
            "KUID": "e55bd79cc4f4489196f3c6182a9f335a"
        },
        "language": "js",
        "actions": [{
            "id": "INVOKE_FUNCTION___j7aa2bb163e04161bfb202ab07701ea6",
            "type": "INVOKE_FUNCTION",
            "sequenceKUID": "changeLocaleNew",
            "display": "changeLocaleNew",
            "inputparams": [],
            "parentId": null,
            "callbackType": null,
            "disabled": null,
            "source": "module"
        }]
    }
}