{
    "AS_Button_a2e514950a08426e8b9c6b9e1bcb5076": {
        "id": "AS_Button_a2e514950a08426e8b9c6b9e1bcb5076",
        "type": "ACTION_SEQUENCE",
        "params": [{
            "name": "eventobject",
            "value": "eventobject"
        }],
        "language": "js",
        "actions": [{
            "id": "INVOKE_FUNCTION__ide_onClick_d1406124d6b14e438eb9ee8e27585971",
            "type": "INVOKE_FUNCTION",
            "sequenceKUID": "onClickKeyBoardButton",
            "display": "onClickKeyBoardButton",
            "inputparams": [{
                "name": "eventobject",
                "value": "eventobject"
            }],
            "source": "module"
        }]
    }
}