{
    "AS_Button_hee1c69d058b40e48a3e7a0cddde6258": {
        "id": "AS_Button_hee1c69d058b40e48a3e7a0cddde6258",
        "type": "ACTION_SEQUENCE",
        "params": [{
            "name": "eventobject",
            "value": "eventobject"
        }],
        "language": "js",
        "actions": [{
            "id": "INVOKE_FUNCTION__ide_onClick_ff4dfd6f2eee47b18c65157a30c9f1b6",
            "type": "INVOKE_FUNCTION",
            "sequenceKUID": "onClickTounchandBack",
            "display": "onClickTounchandBack",
            "inputparams": [],
            "source": "module"
        }]
    }
}