{
    "AS_Button_989a3775dfac43299b91091f2996cede": {
        "id": "AS_Button_989a3775dfac43299b91091f2996cede",
        "type": "ACTION_SEQUENCE",
        "params": [{
            "datatype": "collection",
            "name": "eventobject"
        }],
        "contextObj": {
            "name": "frmMFFullStatementNFundSummary",
            "type": "forms",
            "platform": "",
            "KUID": "5754d94f6c3d4ed1bdf30e73799daf46"
        },
        "language": "js",
        "actions": []
    }
}