{
    "AS_Button_d1d4e636dcdb420b88ca769c0f813435": {
        "id": "AS_Button_d1d4e636dcdb420b88ca769c0f813435",
        "type": "ACTION_SEQUENCE",
        "params": [{
            "name": "eventobject",
            "value": "eventobject"
        }],
        "language": "js",
        "actions": [{
            "id": "INVOKE_FUNCTION__ide_onClick_f1ea069499364f31b6e54295e73c0be8",
            "type": "INVOKE_FUNCTION",
            "sequenceKUID": "onClickLoginToQB",
            "display": "onClickLoginToQB",
            "inputparams": [],
            "source": "module"
        }]
    }
}