{
    "AS_Button_ae5b7b5a0b154566b9186a9c28b0615f": {
        "id": "AS_Button_ae5b7b5a0b154566b9186a9c28b0615f",
        "type": "ACTION_SEQUENCE",
        "params": [{
            "name": "eventobject",
            "value": "eventobject"
        }],
        "language": "js",
        "actions": [{
            "id": "INVOKE_FUNCTION__ide_onClick_f80537d4741a463f87de361cd5e9a824",
            "type": "INVOKE_FUNCTION",
            "sequenceKUID": "onClickKeyBoardButton",
            "display": "onClickKeyBoardButton",
            "inputparams": [{
                "name": "eventobject",
                "value": "eventobject"
            }],
            "source": "module"
        }]
    }
}