{
    "AS_Button_d205267838f24f0882272360ffd76d7c": {
        "id": "AS_Button_d205267838f24f0882272360ffd76d7c",
        "type": "ACTION_SEQUENCE",
        "params": [{
            "datatype": "collection",
            "name": "eventobject"
        }],
        "contextObj": {
            "name": "frmMBActiAtmIdMobile",
            "type": "forms",
            "platform": "",
            "KUID": "p2kwiet2012247629538"
        },
        "language": "js",
        "actions": [{
            "id": "INVOKE_FUNCTION___h74b44014bb54102a34412621f41b510",
            "type": "INVOKE_FUNCTION",
            "sequenceKUID": "onClickCitizenIDButton",
            "display": "onClickCitizenIDButton",
            "inputparams": [],
            "parentId": null,
            "callbackType": null,
            "disabled": null,
            "source": "module"
        }]
    }
}