{
    "AS_Button_c0491f64880742eba69f13d1ee9cb42b": {
        "id": "AS_Button_c0491f64880742eba69f13d1ee9cb42b",
        "type": "ACTION_SEQUENCE",
        "name": "AS_Button_onClickofSend2SavefromMenu",
        "params": [{
            "datatype": "collection",
            "name": "eventobject"
        }],
        "language": "js",
        "actions": [{
            "id": "INVOKE_FUNCTION___ecb4f691dafe476bb9046b198095cae6",
            "type": "INVOKE_FUNCTION",
            "sequenceKUID": "onClickSaveAlertMenu",
            "display": "onClickSaveAlertMenu",
            "inputparams": [],
            "parentId": null,
            "callbackType": null,
            "disabled": null,
            "source": "module"
        }]
    }
}