{
    "AS_Button_f03e9078d01448b9a119b6bd8e33577d": {
        "id": "AS_Button_f03e9078d01448b9a119b6bd8e33577d",
        "type": "ACTION_SEQUENCE",
        "params": [{
            "name": "eventobject",
            "value": "eventobject"
        }],
        "contextObj": {
            "name": "frmLoyaltylanding",
            "type": "forms",
            "platform": null,
            "KUID": "b68923f3f13340f9b8644513dcae16f8"
        },
        "language": "js",
        "actions": [{
            "id": "INVOKE_FUNCTION__ide_onClick_d6c79e1c53ad464cb74adf17b794328f",
            "type": "INVOKE_FUNCTION",
            "sequenceKUID": "handleMenuBtn",
            "display": "handleMenuBtn",
            "inputparams": [],
            "source": "module"
        }]
    }
}