{
    "AS_Button_aee10558e60f4b3db8610dd13717a464": {
        "id": "AS_Button_aee10558e60f4b3db8610dd13717a464",
        "type": "ACTION_SEQUENCE",
        "params": [{
            "datatype": "collection",
            "name": "eventobject"
        }],
        "contextObj": {
            "name": "frmMFSummary",
            "type": "forms",
            "platform": "",
            "KUID": "f7edebba856a4132a64f1ad82f85e81e"
        },
        "language": "js",
        "actions": [{
            "id": "INVOKE_FUNCTION___ae29efd72a4a4b268ab0aabc2f6d5450",
            "type": "INVOKE_FUNCTION",
            "sequenceKUID": "addgenerateChart",
            "display": "addgenerateChart",
            "inputparams": [],
            "parentId": null,
            "callbackType": null,
            "disabled": null,
            "source": "module"
        }]
    }
}