{
    "AS_Form_55248d0ef927499398eb1f71bb4ae406": {
        "id": "AS_Form_55248d0ef927499398eb1f71bb4ae406",
        "type": "ACTION_SEQUENCE",
        "params": [{
            "datatype": "collection",
            "name": "eventobject"
        }, {
            "datatype": "string",
            "name": "neworientation"
        }],
        "contextObj": {
            "type": "forms",
            "platform": "",
            "KUID": "p2kwiet2012247636882"
        },
        "language": "js",
        "actions": [{
            "id": "INVOKE_FUNCTION___5c5964d8234847038c6cce5f43f2ee7e",
            "type": "INVOKE_FUNCTION",
            "sequenceKUID": "activateAccount",
            "display": "activateAccount",
            "inputparams": [],
            "parentId": null,
            "callbackType": null,
            "disabled": null,
            "source": "module"
        }]
    }
}