{
    "AS_Form_hdec96aafa4141338a4dab7917423682": {
        "id": "AS_Form_hdec96aafa4141338a4dab7917423682",
        "type": "ACTION_SEQUENCE",
        "params": [{
            "name": "eventobject",
            "value": "eventobject"
        }, {
            "name": "neworientation",
            "value": "neworientation"
        }],
        "contextObj": {
            "name": "frmMyTopUpComplete",
            "type": "forms",
            "platform": "android",
            "KUID": "d53f17d5b3ab49779a79593d60aa7ddd"
        },
        "language": "js",
        "actions": [{
            "id": "INVOKE_FUNCTION__ide_preShow_f516996c6273431cad3bbbf543d6cf4f",
            "type": "INVOKE_FUNCTION",
            "sequenceKUID": "frmMyTopUpCompleteMenuPreshow",
            "display": "frmMyTopUpCompleteMenuPreshow",
            "inputparams": [],
            "disabled": false,
            "source": "module"
        }]
    }
}