{
    "AS_Form_d7ad9be83d1c48f8b443d3e2720917f1": {
        "id": "AS_Form_d7ad9be83d1c48f8b443d3e2720917f1",
        "type": "ACTION_SEQUENCE",
        "params": [{
            "name": "eventobject",
            "value": "eventobject"
        }],
        "contextObj": {
            "name": "frmUVTransRejectMenu",
            "type": "forms",
            "platform": null,
            "KUID": "aba928141e444f0aab1eb336e3bc7d48"
        },
        "language": "js",
        "actions": [{
            "id": "INVOKE_FUNCTION__ide_postShow_c92e64b96b184809a8b0d845d92452b9",
            "type": "INVOKE_FUNCTION",
            "sequenceKUID": "frmMBRequestPinFailurePostshow",
            "display": "frmMBRequestPinFailurePostshow",
            "inputparams": [],
            "source": "module"
        }]
    }
}