{
    "AS_FlexContainer_dc88505c9f064970b0584ea3512528cc": {
        "id": "AS_FlexContainer_dc88505c9f064970b0584ea3512528cc",
        "type": "ACTION_SEQUENCE",
        "params": [{
            "name": "eventobject",
            "value": "eventobject"
        }, {
            "name": "x",
            "value": "x"
        }, {
            "name": "y",
            "value": "y"
        }, {
            "name": "contextInfo",
            "value": "contextInfo"
        }],
        "contextObj": {
            "name": "frmMBPreLoginAccessesPin",
            "type": "forms",
            "platform": null,
            "KUID": "c84ceb06e41d48ef86b26874268ffbda"
        },
        "language": "js",
        "actions": [{
            "id": "INVOKE_FUNCTION__ide_onTouchEnd_ac92c2e893074fb79376705cebaee2f4",
            "type": "INVOKE_FUNCTION",
            "sequenceKUID": "closeQuickBalance",
            "display": "closeQuickBalance",
            "inputparams": [],
            "source": "module"
        }]
    }
}