{
    "AS_FlexContainer_d0c4ff395e6d4a74b3d296ecdfe0990b": {
        "id": "AS_FlexContainer_d0c4ff395e6d4a74b3d296ecdfe0990b",
        "type": "ACTION_SEQUENCE",
        "params": [{
            "datatype": "collection",
            "name": "eventobject"
        }, {
            "datatype": "string",
            "name": "x"
        }, {
            "datatype": "string",
            "name": "y"
        }],
        "contextObj": {
            "name": "frmUVConfirmHome",
            "type": "forms",
            "platform": null,
            "KUID": "bcfcabe98de34d539ba3eec98db2d3fb"
        },
        "language": "js",
        "actions": [{
            "id": "INVOKE_FUNCTION__ide_onTouchEnd_j12d810db8e54172b9faaa234e512265",
            "type": "INVOKE_FUNCTION",
            "sequenceKUID": "navigateToUVApproval",
            "display": "navigateToUVApproval",
            "inputparams": [],
            "callbackType": null,
            "disabled": null,
            "source": "module"
        }]
    }
}