{
    "AS_Form_fe047efa885144dcb70eb1ddcd005046": {
        "id": "AS_Form_fe047efa885144dcb70eb1ddcd005046",
        "type": "ACTION_SEQUENCE",
        "params": [{
            "name": "eventobject",
            "value": "eventobject"
        }],
        "contextObj": {
            "name": "frmMBPreLoginAccessesPin",
            "type": "forms",
            "platform": null,
            "KUID": "c84ceb06e41d48ef86b26874268ffbda"
        },
        "language": "js",
        "actions": [{
            "id": "INVOKE_FUNCTION__ide_postShow_g205e846c0e9484c86c967ff52dfad79",
            "type": "INVOKE_FUNCTION",
            "sequenceKUID": "postshowPreAccessScreen",
            "display": "postshowPreAccessScreen",
            "inputparams": [],
            "source": "module"
        }]
    }
}