{
    "AS_Form_b17b662fc0324471aa5acd3c0bc19f80": {
        "id": "AS_Form_b17b662fc0324471aa5acd3c0bc19f80",
        "type": "ACTION_SEQUENCE",
        "params": [{
            "name": "eventobject",
            "value": "eventobject"
        }, {
            "name": "neworientation",
            "value": "neworientation"
        }],
        "contextObj": {
            "name": "frmQRScreenShotCalendar",
            "type": "forms",
            "platform": null,
            "KUID": "c93843e3e016411b910a19c1def1dea0"
        },
        "language": "js",
        "actions": [{
            "id": "INVOKE_FUNCTION__ide_onHide_de451152decb4df59ce7d0c063644c37",
            "type": "INVOKE_FUNCTION",
            "sequenceKUID": "ehFrmTransfersAck_frmTransfersAck_onhide",
            "display": "ehFrmTransfersAck_frmTransfersAck_onhide",
            "inputparams": [],
            "source": "module"
        }]
    }
}