{
    "AS_FlexContainer_hc7c401578d84f2bae83ac1a5dbe0cf6": {
        "id": "AS_FlexContainer_hc7c401578d84f2bae83ac1a5dbe0cf6",
        "type": "ACTION_SEQUENCE",
        "params": [{
            "datatype": "collection",
            "name": "eventobject"
        }],
        "contextObj": {
            "name": "frmMBPreLoginAccessesPin",
            "type": "forms",
            "platform": "",
            "KUID": "c84ceb06e41d48ef86b26874268ffbda"
        },
        "language": "js",
        "actions": [{
            "id": "INVOKE_FUNCTION___c167d58027eb4ed8b7313fca41f4ad97",
            "type": "INVOKE_FUNCTION",
            "sequenceKUID": "accessPinOnClickQuickBalance",
            "display": "accessPinOnClickQuickBalance",
            "inputparams": [],
            "parentId": null,
            "callbackType": null,
            "disabled": null,
            "source": "module"
        }]
    }
}