{
    "AS_Form_c85fdcaf6eef4807999c81a97c6e4899": {
        "id": "AS_Form_c85fdcaf6eef4807999c81a97c6e4899",
        "type": "ACTION_SEQUENCE",
        "params": [{
            "name": "eventobject",
            "value": "eventobject"
        }],
        "contextObj": {
            "name": "frmMFTnc",
            "type": "forms",
            "platform": null,
            "KUID": "d9fc9b5b76d2464f866934af2d824214"
        },
        "language": "js",
        "actions": [{
            "id": "INVOKE_FUNCTION__ide_postShow_4075f092f82d4bd7a4c110bebde95f23",
            "type": "INVOKE_FUNCTION",
            "sequenceKUID": "frmMBCashAdvanceTnCMenuPostshow",
            "display": "frmMBCashAdvanceTnCMenuPostshow",
            "inputparams": [],
            "source": "module"
        }]
    }
}