{
    "AS_Form_i5f3d2ca35db48998731124f1286da2a": {
        "id": "AS_Form_i5f3d2ca35db48998731124f1286da2a",
        "type": "ACTION_SEQUENCE",
        "name": "AS_frmAccountSummary_Init",
        "params": [{
            "datatype": "collection",
            "name": "eventobject"
        }],
        "contextObj": {
            "name": "frmAccountSummary",
            "type": "forms",
            "platform": "",
            "KUID": "j0d21024e06b4ac78ec40938a17d44aa"
        },
        "language": "js",
        "actions": [{
            "id": "INVOKE_FUNCTION___cb77ecd94d5a4836b9b84f71f8903c0e",
            "type": "INVOKE_FUNCTION",
            "sequenceKUID": "accountSummaryInit",
            "display": "accountSummaryInit",
            "inputparams": [],
            "parentId": null,
            "callbackType": null,
            "disabled": null,
            "source": "module"
        }]
    }
}