{
    "AS_FlexContainer_dba0cefe3ae8424fa64c94f2caba68bf": {
        "id": "AS_FlexContainer_dba0cefe3ae8424fa64c94f2caba68bf",
        "type": "ACTION_SEQUENCE",
        "params": [{
            "datatype": "collection",
            "name": "eventobject"
        }, {
            "datatype": "string",
            "name": "x"
        }, {
            "datatype": "string",
            "name": "y"
        }],
        "contextObj": {
            "name": "frmQRTransactionVerify",
            "type": "forms",
            "platform": "",
            "KUID": "da7e6ed58783445f93e12b51c145a1e9"
        },
        "language": "js",
        "actions": [{
            "id": "NAVIGATE_TO_FORM___cc670703f99f4f81be9b06a0de5d0267",
            "type": "NAVIGATE_TO_FORM",
            "formId": "frmscanqrLanding",
            "formKUID": "ecb7ade5037a42d2b13ec38c40f91148",
            "mappings": {},
            "mappingsOrder": [],
            "parentId": "",
            "callbackType": null,
            "enableMappingEditor": true,
            "package": ""
        }]
    }
}