{
    "AS_FlexContainer_e62995c007414f5399b3ae3ffbb0ad0e": {
        "id": "AS_FlexContainer_e62995c007414f5399b3ae3ffbb0ad0e",
        "type": "ACTION_SEQUENCE",
        "params": [{
            "datatype": "collection",
            "name": "eventobject"
        }],
        "contextObj": {
            "name": "frmMBFTEdit",
            "type": "forms",
            "platform": "",
            "KUID": "b47865675bb7453e9aeded8a19178d71"
        },
        "language": "js",
        "actions": []
    }
}