{
    "AS_FlexContainer_c49c512f822f4268ab3ffb1b1ebacbd0": {
        "id": "AS_FlexContainer_c49c512f822f4268ab3ffb1b1ebacbd0",
        "type": "ACTION_SEQUENCE",
        "params": [{
            "datatype": "collection",
            "name": "eventobject"
        }, {
            "datatype": "string",
            "name": "x"
        }, {
            "datatype": "string",
            "name": "y"
        }],
        "contextObj": {
            "name": "frmAccountSummaryLanding",
            "type": "forms",
            "platform": "",
            "KUID": "gf351423cbb54ebfbd98a3738e158cf6"
        },
        "language": "js",
        "actions": [{
            "id": "INVOKE_FUNCTION___fb9aa0cc11104d75953e9ec688f0b25d",
            "type": "INVOKE_FUNCTION",
            "display": "<>",
            "inputparams": [],
            "parentId": null,
            "callbackType": null,
            "disabled": null,
            "source": "module"
        }]
    }
}