{
    "AS_Form_gb3805011f2b45d3bbd52c555047c8cd": {
        "id": "AS_Form_gb3805011f2b45d3bbd52c555047c8cd",
        "type": "ACTION_SEQUENCE",
        "params": [{
            "datatype": "collection",
            "name": "eventobject"
        }],
        "contextObj": {
            "name": "frmMBeKYCPersonalInform",
            "type": "forms",
            "platform": null,
            "KUID": "ab918d1437f94b64825e6ad54a2f8794"
        },
        "language": "js",
        "actions": [{
            "id": "INVOKE_FUNCTION__ide_init_bd3c7ba8880d4ed5b565a22a2d4b1e84",
            "type": "INVOKE_FUNCTION",
            "sequenceKUID": "initWorkingInformationfrm",
            "display": "initWorkingInformationfrm",
            "inputparams": [],
            "callbackType": null,
            "disabled": null,
            "source": "module"
        }]
    }
}