{
    "AS_Form_e289b1a0a99242a79ada06502b062792": {
        "id": "AS_Form_e289b1a0a99242a79ada06502b062792",
        "type": "ACTION_SEQUENCE",
        "name": "AS_Form_eKYCGetYourIDReady_Init",
        "params": [{
            "datatype": "collection",
            "name": "eventobject"
        }],
        "contextObj": {
            "name": "frmeKYCGetYourIdReady",
            "type": "forms",
            "platform": null,
            "KUID": "a6068e38c2dd419c80597e7a08b23f1c"
        },
        "language": "js",
        "actions": [{
            "id": "INVOKE_FUNCTION___f4bbdde341c54c96ad86619360a20a10",
            "type": "INVOKE_FUNCTION",
            "sequenceKUID": "init_eYCGetYoutIdReady",
            "display": "init_eYCGetYoutIdReady",
            "inputparams": [],
            "parentId": null,
            "callbackType": null,
            "disabled": null,
            "source": "module"
        }]
    }
}