{
    "AS_FlexScrollContainer_e130b9abd4b3466599f79e7b6bc72d3d": {
        "id": "AS_FlexScrollContainer_e130b9abd4b3466599f79e7b6bc72d3d",
        "type": "ACTION_SEQUENCE",
        "params": [{
            "datatype": "collection",
            "name": "eventobject"
        }],
        "contextObj": {
            "name": "frmAccountDetailsMB",
            "type": "forms",
            "platform": "",
            "KUID": "p2kwiet2012247626342"
        },
        "language": "js",
        "actions": [{
            "id": "INVOKE_FUNCTION___b30192c5d2d94163b0778daa441cebda",
            "type": "INVOKE_FUNCTION",
            "sequenceKUID": "moveCradFlexforDetails",
            "display": "moveCradFlexforDetails",
            "inputparams": [],
            "parentId": null,
            "callbackType": null,
            "disabled": null,
            "source": "module"
        }]
    }
}