{
    "AS_Form_b46a93412adb4bf68a43e2b46037ec04": {
        "id": "AS_Form_b46a93412adb4bf68a43e2b46037ec04",
        "type": "ACTION_SEQUENCE",
        "params": [{
            "datatype": "collection",
            "name": "eventobject"
        }],
        "contextObj": {
            "name": "frmMBeKYCContactInfo",
            "type": "forms",
            "platform": "",
            "KUID": "bb35e7256e4945ff8d70f6ff2d31646f"
        },
        "language": "js",
        "actions": [{
            "id": "INVOKE_FUNCTION___caa0f4bee8764b4a907b07ba4585e73b",
            "type": "INVOKE_FUNCTION",
            "sequenceKUID": "frmMBeKYCContactInfoInit",
            "display": "frmMBeKYCContactInfoInit",
            "inputparams": [],
            "parentId": null,
            "callbackType": null,
            "disabled": null,
            "source": "module"
        }]
    }
}