{
    "AS_HBox_c9503f049da94e0081a1402131f834d4": {
        "id": "AS_HBox_c9503f049da94e0081a1402131f834d4",
        "type": "ACTION_SEQUENCE",
        "params": [{
            "datatype": "collection",
            "name": "eventobject"
        }],
        "contextObj": {
            "name": "frmMBActivateAnyId",
            "type": "forms",
            "platform": "",
            "KUID": "p2kwiet2012247629710"
        },
        "language": "js",
        "actions": []
    }
}