{
    "AS_Segment_a3c3de7927834a9d9f06c9de5c8cf291": {
        "id": "AS_Segment_a3c3de7927834a9d9f06c9de5c8cf291",
        "type": "ACTION_SEQUENCE",
        "params": [{
            "datatype": "collection",
            "name": "eventobject"
        }, {
            "datatype": "number",
            "name": "sectionNumber"
        }, {
            "datatype": "number",
            "name": "rowNumber"
        }],
        "language": "js",
        "actions": [{
            "id": "INVOKE_FUNCTION__ide_onRowClick_c4a320f7a06a4e698b9cd95edd1fe9dd",
            "type": "INVOKE_FUNCTION",
            "sequenceKUID": "navigateToUVApproval",
            "display": "navigateToUVApproval",
            "inputparams": [],
            "callbackType": null,
            "disabled": null,
            "source": "module"
        }]
    }
}