{
    "AS_TPW_b684c20926c34e14856aecfa90f0a7f7": {
        "id": "AS_TPW_b684c20926c34e14856aecfa90f0a7f7",
        "type": "ACTION_SEQUENCE",
        "params": [{
            "datatype": "collection",
            "name": "eventobject"
        }],
        "contextObj": {
            "name": "frmscanqrLanding",
            "type": "forms",
            "platform": "",
            "KUID": "ecb7ade5037a42d2b13ec38c40f91148"
        },
        "language": "js",
        "actions": [{
            "id": "INVOKE_FUNCTION___jb95c0c2316640e39e191b63cd1b56a8",
            "type": "INVOKE_FUNCTION",
            "sequenceKUID": "scanBarcodeResultCallback",
            "display": "scanBarcodeResultCallback",
            "inputparams": [{
                "name": "scanResult",
                "value": "eventobject"
            }],
            "parentId": null,
            "callbackType": null,
            "disabled": null,
            "source": "module"
        }]
    }
}