{
    "AS_TextField_babf4a18bc4d4d20b6785078dc377679": {
        "id": "AS_TextField_babf4a18bc4d4d20b6785078dc377679",
        "type": "ACTION_SEQUENCE",
        "params": [{
            "datatype": "collection",
            "name": "eventobject"
        }, {
            "datatype": "string",
            "name": "changedtext"
        }],
        "contextObj": {
            "name": "frmMBFTEdit",
            "type": "forms",
            "platform": "",
            "KUID": "b47865675bb7453e9aeded8a19178d71"
        },
        "language": "js",
        "actions": [{
            "id": "INVOKE_FUNCTION___j119115f75544bc7ab402ea8ffb7806b",
            "type": "INVOKE_FUNCTION",
            "sequenceKUID": "onDoneEditingTransferOnDone",
            "display": "onDoneEditingTransferOnDone",
            "inputparams": [],
            "parentId": null,
            "callbackType": null,
            "disabled": null,
            "source": "module"
        }]
    }
}