{
    "AS_TextField_j110bda9304e448aa2bbfd4ba184c955": {
        "id": "AS_TextField_j110bda9304e448aa2bbfd4ba184c955",
        "type": "ACTION_SEQUENCE",
        "params": [{
            "name": "eventobject",
            "value": "eventobject"
        }, {
            "name": "changedtext",
            "value": "changedtext"
        }],
        "contextObj": {
            "name": "frmMBActiAtmIdMobile",
            "type": "forms",
            "platform": "",
            "KUID": "p2kwiet2012247629538"
        },
        "language": "js",
        "actions": [{
            "id": "INVOKE_FUNCTION__ide_onDone_d99621a7bbf244b0ab9cefb3570f4d6a",
            "type": "INVOKE_FUNCTION",
            "sequenceKUID": "onDoneValidateCIorPPInActivationUsingCard_CitiZen",
            "display": "onDoneValidateCIorPPInActivationUsingCard_CitiZen",
            "inputparams": [],
            "source": "module"
        }]
    }
}