{
    "AS_Button_gafa20cd13a144aa8b173194aa3950cd": {
        "id": "AS_Button_gafa20cd13a144aa8b173194aa3950cd",
        "type": "ACTION_SEQUENCE",
        "name": "btnBackClickAction",
        "params": [{
            "datatype": "collection",
            "name": "eventobject"
        }],
        "contextObj": {
            "name": "frmBillPaymentEditFutureNew",
            "type": "forms",
            "platform": "",
            "KUID": "e56a4bc3f5d94750a3b4bdd0bbf51526"
        },
        "language": "js",
        "actions": [{
            "id": "ADD_SNIPPET__bbc19fa512be4ff88b00322a8fd1d2c1",
            "type": "ADD_SNIPPET",
            "codeSnippet": "/*\n frmMBMyActivities.show();\n showCalendar(gsSelectedDate,frmMBMyActivities);\n */\n MBMyActivitiesShowCalendar();",
            "parentId": null
        }]
    }
}