{
    "AS_Button_j3bb0513436a4ac782a41158452dbcb1": {
        "id": "AS_Button_j3bb0513436a4ac782a41158452dbcb1",
        "type": "ACTION_SEQUENCE",
        "name": "btnTwoApproval",
        "params": [{
            "datatype": "collection",
            "name": "eventobject"
        }],
        "contextObj": {
            "name": "frmUVApprovalMB",
            "type": "forms",
            "platform": "",
            "KUID": "b7cb0844fdad4cc0a9520d64390948fa"
        },
        "language": "js",
        "actions": [{
            "id": "INVOKE_FUNCTION___b9c7392b311047e5b420ca760fd365e3",
            "type": "INVOKE_FUNCTION",
            "sequenceKUID": "onClickApprovalKeyPad",
            "display": "onClickApprovalKeyPad",
            "inputparams": [{
                "name": "eventobject",
                "value": "eventobject"
            }],
            "parentId": null,
            "disabled": null,
            "source": "module"
        }]
    }
}