{
    "AS_HBox_f29ab09fd97b4eea968e5d970a27d4e4": {
        "id": "AS_HBox_f29ab09fd97b4eea968e5d970a27d4e4",
        "type": "ACTION_SEQUENCE",
        "name": "frmBillPaymentEditFutureComplete_hideBalance_btn_click",
        "params": [{
            "name": "eventobject",
            "value": "eventobject"
        }],
        "contextObj": {
            "name": "frmBillPaymentEditFutureComplete",
            "type": "forms",
            "platform": null,
            "KUID": "b2a67624cf4f40679450b8abbb3770ef"
        },
        "language": "js",
        "actions": [{
            "id": "INVOKE_FUNCTION__ide_onClick_e65dec26279d427da06b568538a8c5ad",
            "type": "INVOKE_FUNCTION",
            "sequenceKUID": "hideUnhideBalanceBillPayment",
            "display": "hideUnhideBalanceBillPayment",
            "inputparams": [],
            "source": "module"
        }]
    }
}