{
    "AS_FlexContainer_a6c99d5d55dc4ccdbd03d6aea72700bb": {
        "id": "AS_FlexContainer_a6c99d5d55dc4ccdbd03d6aea72700bb",
        "type": "ACTION_SEQUENCE",
        "name": "frmCAInstallmentPlantDetails_flxSelectAct_onClick",
        "params": [{
            "datatype": "collection",
            "name": "eventobject"
        }],
        "contextObj": {
            "name": "frmCashAdvanceInstallmentPlanDetails",
            "type": "forms",
            "platform": "",
            "KUID": "d35c82b917854beb9cc4a2d5a10306f4"
        },
        "language": "js",
        "actions": [{
            "id": "INVOKE_FUNCTION___d596f3d44a2149d795b8a4e6ef74e451",
            "type": "INVOKE_FUNCTION",
            "sequenceKUID": "onSelectAccountCashAdvDetailsScreen",
            "display": "onSelectAccountCashAdvDetailsScreen",
            "inputparams": [],
            "parentId": null,
            "callbackType": null,
            "disabled": null,
            "source": "module"
        }]
    }
}