{
    "AS_Form_ecf036bd0be045a98a9098550f3228ee": {
        "id": "AS_Form_ecf036bd0be045a98a9098550f3228ee",
        "type": "ACTION_SEQUENCE",
        "name": "frmLoanProductListInitAction",
        "params": [{
            "datatype": "collection",
            "name": "eventobject"
        }],
        "contextObj": {
            "name": "frmLoanProductList",
            "type": "forms",
            "platform": "",
            "KUID": "a4d625d616254b1983df6e093aadbbb3"
        },
        "language": "js",
        "actions": [{
            "id": "INVOKE_FUNCTION___b8f8f79d55c54f9b9944cafa0b353078",
            "type": "INVOKE_FUNCTION",
            "sequenceKUID": "frmLoanProductListInit",
            "display": "frmLoanProductListInit",
            "inputparams": [],
            "parentId": null,
            "callbackType": null,
            "disabled": null,
            "source": "module"
        }]
    }
}