{
    "AS_Form_b95ec045c1214d76a1ce510dc14f6b61": {
        "id": "AS_Form_b95ec045c1214d76a1ce510dc14f6b61",
        "type": "ACTION_SEQUENCE",
        "name": "frmLoyalty_Preshow",
        "params": [{
            "datatype": "collection",
            "name": "eventobject"
        }],
        "contextObj": {
            "name": "frmLoyaltylanding",
            "type": "forms",
            "platform": null,
            "KUID": "b68923f3f13340f9b8644513dcae16f8"
        },
        "language": "js",
        "actions": [{
            "id": "INVOKE_FUNCTION___b3029b34693d4082a2a68418ee8be445",
            "type": "INVOKE_FUNCTION",
            "sequenceKUID": "frmLoyaltylandingPreshow",
            "display": "frmLoyaltylandingPreshow",
            "inputparams": [],
            "parentId": null,
            "callbackType": null,
            "disabled": null,
            "source": "module"
        }]
    }
}