{
    "AS_Form_cd6dbeb91771418f8ce489825dbb0994": {
        "id": "AS_Form_cd6dbeb91771418f8ce489825dbb0994",
        "type": "ACTION_SEQUENCE",
        "name": "frmMFSuitabilityReview_onDeviceBack_disableBackButton",
        "params": [{
            "datatype": "collection",
            "name": "eventobject"
        }],
        "contextObj": {
            "name": "frmMFSuitabilityReview",
            "type": "forms",
            "platform": null,
            "KUID": "jcecf1e4d33240e6956ee8a055df8ce7"
        },
        "language": "js",
        "actions": [{
            "id": "INVOKE_FUNCTION___g54481ef606f470289e8298530c3ce02",
            "type": "INVOKE_FUNCTION",
            "sequenceKUID": "disableBackButton",
            "display": "disableBackButton",
            "inputparams": [],
            "parentId": null,
            "callbackType": null,
            "disabled": null,
            "source": "module"
        }]
    }
}