{
    "AS_Form_g01797e354524673bbcdf90d36e1cefb": {
        "id": "AS_Form_g01797e354524673bbcdf90d36e1cefb",
        "type": "ACTION_SEQUENCE",
        "name": "frmMFMoreMenuMB_DevicebackDisablenew",
        "params": [{
            "datatype": "collection",
            "name": "eventobject"
        }],
        "contextObj": {
            "name": "frmMFMoreMenuMB",
            "type": "forms",
            "platform": "",
            "KUID": "j6bb253792ae4a6b8218a054c1364b0a"
        },
        "language": "js",
        "actions": [{
            "id": "INVOKE_FUNCTION___e9eb0c9ae4a34600aec4be5a89049e11",
            "type": "INVOKE_FUNCTION",
            "sequenceKUID": "disableBackButton",
            "display": "disableBackButton",
            "inputparams": [],
            "parentId": null,
            "callbackType": null,
            "disabled": null,
            "source": "module"
        }]
    }
}