{
    "AS_Form_c4cda2777b244495a5a40fad6f2f7876": {
        "id": "AS_Form_c4cda2777b244495a5a40fad6f2f7876",
        "type": "ACTION_SEQUENCE",
        "name": "frmMBFTEditflexPreshow",
        "params": [{
            "datatype": "collection",
            "name": "eventobject"
        }],
        "contextObj": {
            "name": "frmMBFTEdit",
            "type": "forms",
            "platform": "",
            "KUID": "b47865675bb7453e9aeded8a19178d71"
        },
        "language": "js",
        "actions": [{
            "id": "INVOKE_FUNCTION___af7f5e529c664a0493660eec9b3ebaf9",
            "type": "INVOKE_FUNCTION",
            "sequenceKUID": "frmMBFTEditMenuPreshow",
            "display": "frmMBFTEditMenuPreshow",
            "inputparams": [],
            "parentId": null,
            "callbackType": null,
            "disabled": null,
            "source": "module"
        }]
    }
}