{
    "AS_FlexContainer_f99615a3678746f09763155acb277fe6": {
        "id": "AS_FlexContainer_f99615a3678746f09763155acb277fe6",
        "type": "ACTION_SEQUENCE",
        "name": "frmMBRTPBillerSettings_flxTxtSearch_onClick",
        "params": [{
            "datatype": "collection",
            "name": "eventobject"
        }],
        "contextObj": {
            "name": "frmMBRTPBillerSettings",
            "type": "forms",
            "platform": "",
            "KUID": "be87bb53854a47eb9b3259f76e619e60"
        },
        "language": "js",
        "actions": [{
            "id": "INVOKE_FUNCTION___cdaab4f2ddec412bbabacb0a4dce3317",
            "type": "INVOKE_FUNCTION",
            "sequenceKUID": "onClickRTPBillerSettingTxtSearchBtn",
            "display": "onClickRTPBillerSettingTxtSearchBtn",
            "inputparams": [],
            "parentId": null,
            "callbackType": null,
            "disabled": null,
            "source": "module"
        }]
    }
}