{
    "AS_Button_d49cd17bcf934b89b42cde713a0e72e9": {
        "id": "AS_Button_d49cd17bcf934b89b42cde713a0e72e9",
        "type": "ACTION_SEQUENCE",
        "name": "frmMBRTPAcceptConsent_btnSetting_onClick",
        "params": [{
            "datatype": "collection",
            "name": "eventobject"
        }],
        "contextObj": {
            "name": "frmMBRTPAcceptConsent",
            "type": "forms",
            "platform": "",
            "KUID": "b48b60d8afc9481fbafaeaabbd4a41b5"
        },
        "language": "js",
        "actions": [{
            "id": "INVOKE_FUNCTION___ib6bc577989d4eea837affc5cfb4c697",
            "type": "INVOKE_FUNCTION",
            "sequenceKUID": "onClickRTPConsentSettingBtn",
            "display": "onClickRTPConsentSettingBtn",
            "inputparams": [],
            "parentId": null,
            "callbackType": null,
            "disabled": null,
            "source": "module"
        }]
    }
}