{
    "AS_Form_iec118012d2948b0b3471e9661f899b8": {
        "id": "AS_Form_iec118012d2948b0b3471e9661f899b8",
        "type": "ACTION_SEQUENCE",
        "name": "frmMFMoreMenuMBInitEvent",
        "params": [{
            "datatype": "collection",
            "name": "eventobject"
        }],
        "contextObj": {
            "name": "frmMFMoreMenuMB",
            "type": "forms",
            "platform": "",
            "KUID": "j6bb253792ae4a6b8218a054c1364b0a"
        },
        "language": "js",
        "actions": [{
            "id": "ADD_SNIPPET__feff06cddd4445e9bf07ba29faaa5068",
            "type": "ADD_SNIPPET",
            "codeSnippet": "frmMFMoreMenuMBInitiatization();",
            "parentId": null,
            "callbackType": null
        }]
    }
}