{
    "AS_TextField_cde41d33c7ff4a60b1268d4dc50d348e": {
        "id": "AS_TextField_cde41d33c7ff4a60b1268d4dc50d348e",
        "type": "ACTION_SEQUENCE",
        "name": "frmMBFtEdit_OnDone",
        "params": [{
            "datatype": "collection",
            "name": "eventobject"
        }, {
            "datatype": "string",
            "name": "changedtext"
        }],
        "contextObj": {
            "name": "frmMBFTEdit",
            "type": "forms",
            "platform": "",
            "KUID": "b47865675bb7453e9aeded8a19178d71"
        },
        "language": "js",
        "actions": [{
            "id": "INVOKE_FUNCTION___a30469dfb6554e7f9a09dd7217cc4b42",
            "type": "INVOKE_FUNCTION",
            "sequenceKUID": "onDonefrmMBFTEditOnDone",
            "display": "onDonefrmMBFTEditOnDone",
            "inputparams": [],
            "parentId": null,
            "callbackType": null,
            "disabled": null,
            "source": "module"
        }]
    }
}