{
    "AS_Form_c6fef3bc735f4d2b8789c022a45906ab": {
        "id": "AS_Form_c6fef3bc735f4d2b8789c022a45906ab",
        "type": "ACTION_SEQUENCE",
        "name": "frmMBFTEditMenuPostshow",
        "params": [{
            "datatype": "collection",
            "name": "eventobject"
        }],
        "contextObj": {
            "name": "frmMBFTEdit",
            "type": "forms",
            "platform": "",
            "KUID": "8b91b5e732324b8dbb44d387cc6d0491"
        },
        "language": "js",
        "actions": [{
            "id": "INVOKE_FUNCTION___a287320169c7485d81f5b5df75f39383",
            "type": "INVOKE_FUNCTION",
            "sequenceKUID": "frmMBFTEditMenuPostshow",
            "display": "frmMBFTEditMenuPostshow",
            "inputparams": [],
            "parentId": null,
            "callbackType": null,
            "disabled": null
        }]
    }
}