{
    "AS_Form_f60e5d8ffb7747469c9f03f5e5b70d42": {
        "id": "AS_Form_f60e5d8ffb7747469c9f03f5e5b70d42",
        "type": "ACTION_SEQUENCE",
        "name": "frmMyQRPromptPayRegisterInitAction",
        "params": [{
            "datatype": "collection",
            "name": "eventobject"
        }],
        "contextObj": {
            "name": "frmMyQRPromptPayRegister",
            "type": "forms",
            "platform": null,
            "KUID": "d605e2fe9dbc4a61863376740642f58b"
        },
        "language": "js",
        "actions": [{
            "id": "INVOKE_FUNCTION___g69d5eef3af944e692fb8eb13a337103",
            "type": "INVOKE_FUNCTION",
            "sequenceKUID": "frmMyQRPromptPayRegisterinit",
            "display": "frmMyQRPromptPayRegisterinit",
            "inputparams": [],
            "parentId": null,
            "callbackType": null,
            "disabled": null,
            "source": "module"
        }]
    }
}