{
    "AS_Button_fc5f95653dcf41f086e05663cac6d1e1": {
        "id": "AS_Button_fc5f95653dcf41f086e05663cac6d1e1",
        "type": "ACTION_SEQUENCE",
        "name": "frmMFSuitabilityTnC_next_OnClick",
        "params": [{
            "datatype": "collection",
            "name": "eventobject"
        }],
        "contextObj": {
            "name": "frmMFSuitabilityTnC",
            "type": "forms",
            "platform": "",
            "KUID": "i75a1d16d8724ef697482ed359a0dd06"
        },
        "language": "js",
        "actions": [{
            "id": "INVOKE_FUNCTION___i5410d01e14b45f5a71df32e95aca581",
            "type": "INVOKE_FUNCTION",
            "sequenceKUID": "onClickNextfrmSuitabilityReviewTnC",
            "display": "onClickNextfrmSuitabilityReviewTnC",
            "inputparams": [],
            "parentId": null,
            "callbackType": null,
            "disabled": null,
            "source": "module"
        }]
    }
}