{
    "AS_Button_faa0be753540401793637fde459ef769": {
        "id": "AS_Button_faa0be753540401793637fde459ef769",
        "type": "ACTION_SEQUENCE",
        "name": "frmMFFullStatementNFundSummary_btn3AS",
        "params": [{
            "datatype": "collection",
            "name": "eventobject"
        }],
        "contextObj": {
            "name": "frmMFFullStatementNFundSummary",
            "type": "forms",
            "platform": "",
            "KUID": "5754d94f6c3d4ed1bdf30e73799daf46"
        },
        "language": "js",
        "actions": [{
            "id": "INVOKE_FUNCTION___4e648eb0ab6841a98ce015873e164078",
            "type": "INVOKE_FUNCTION",
            "sequenceKUID": "onTabSelectMFMonth",
            "display": "onTabSelectMFMonth",
            "inputparams": [{
                "name": "selectedIndex",
                "value": "\"3\""
            }],
            "parentId": null,
            "disabled": null,
            "source": "module"
        }]
    }
}