{
    "AS_TextField_bf1a8708c50f4e39897b8ab60a5dbad2": {
        "id": "AS_TextField_bf1a8708c50f4e39897b8ab60a5dbad2",
        "type": "ACTION_SEQUENCE",
        "name": "frmQRSuccesd_ONEndEdit_IOS",
        "params": [{
            "datatype": "collection",
            "name": "eventobject"
        }, {
            "datatype": "string",
            "name": "changedtext"
        }],
        "contextObj": {
            "name": "frmQRSuccess",
            "type": "forms",
            "platform": "",
            "KUID": "a05459f9f557410eb9470b6fed6334eb"
        },
        "language": "js",
        "actions": [{
            "id": "ADD_SNIPPET__b4d1ea8a65954fdbab923b844807967c",
            "type": "ADD_SNIPPET",
            "codeSnippet": "frmQRSuccessOnDoneTextAmount();",
            "parentId": null,
            "callbackType": null
        }]
    }
}