{
    "AS_Link_efc2a47a471f461abbd6d6044c75ec06": {
        "id": "AS_Link_efc2a47a471f461abbd6d6044c75ec06",
        "type": "ACTION_SEQUENCE",
        "name": "frmQRPaySelectAccount_onClickSelAcctLink",
        "params": [{
            "datatype": "collection",
            "name": "eventobject"
        }],
        "contextObj": {
            "type": "forms",
            "platform": "",
            "KUID": "g60ada73e0b3436693b976512b79b3a2"
        },
        "language": "js",
        "actions": [{
            "id": "ADD_SNIPPET__af69f73357c540d794e4792f693e0678",
            "type": "ADD_SNIPPET",
            "codeSnippet": "frmQRSelectAccountOnClickSelAcctLink();",
            "parentId": null,
            "callbackType": null
        }]
    }
}