{
    "AS_Form_a57b4b12cada40c7bd8231e57d352bb0": {
        "id": "AS_Form_a57b4b12cada40c7bd8231e57d352bb0",
        "type": "ACTION_SEQUENCE",
        "name": "frmQRSuccess_postShow",
        "params": [{
            "datatype": "collection",
            "name": "eventobject"
        }],
        "contextObj": {
            "name": "frmQRSuccess",
            "type": "forms",
            "platform": "",
            "KUID": "a05459f9f557410eb9470b6fed6334eb"
        },
        "language": "js",
        "actions": [{
            "id": "INVOKE_FUNCTION___fae09853548544a489fbcc83aeb09578",
            "type": "INVOKE_FUNCTION",
            "sequenceKUID": "invokeQRPaymentDefaultAccountService",
            "display": "invokeQRPaymentDefaultAccountService",
            "inputparams": [],
            "parentId": null,
            "callbackType": null,
            "disabled": true,
            "source": "module"
        }, {
            "id": "INVOKE_FUNCTION___bb4fd026d57e48c283a79ac0c0b4ecc4",
            "type": "INVOKE_FUNCTION",
            "sequenceKUID": "addAccessPinKeypad",
            "display": "addAccessPinKeypad",
            "inputparams": [{
                "name": "frmName",
                "value": "frmQRSuccess"
            }],
            "parentId": null,
            "callbackType": null,
            "disabled": null,
            "source": "module"
        }]
    }
}