{
    "AS_Segment_dc22aeded94e480ca49a7e9ca40fbf54": {
        "id": "AS_Segment_dc22aeded94e480ca49a7e9ca40fbf54",
        "type": "ACTION_SEQUENCE",
        "name": "frmTutorialCardlessWithdraw_swfeImage",
        "params": [{
            "datatype": "collection",
            "name": "seguiWidget"
        }, {
            "datatype": "number",
            "name": "sectionIndex"
        }, {
            "datatype": "number",
            "name": "rowIndex"
        }],
        "contextObj": {
            "name": "frmTutorialForCardlessWithdraw",
            "type": "forms",
            "platform": null,
            "KUID": "cc88c335a93b40399fd94ebe9ba0f43a"
        },
        "language": "js",
        "actions": [{
            "id": "ADD_SNIPPET__f005127a11b74c408f4c655e3575b1a6",
            "type": "ADD_SNIPPET",
            "codeSnippet": "\tvar modScroll = new getTutorialForCardlessWithdraw();\n\t modScroll.paginationSwitch( sectionIndex, rowIndex );",
            "parentId": null
        }]
    }
}