{
    "AS_Form_b95afe387a214c3783dbe4e994b83085": {
        "id": "AS_Form_b95afe387a214c3783dbe4e994b83085",
        "type": "ACTION_SEQUENCE",
        "name": "frmUploadManyFile_init_Js",
        "params": [{
            "datatype": "collection",
            "name": "eventobject"
        }],
        "contextObj": {
            "name": "frmUploadManyFile",
            "type": "forms",
            "platform": "",
            "KUID": "c0b498cad83a4ec5aa8a5244f0c91ad4"
        },
        "language": "js",
        "actions": [{
            "id": "INVOKE_FUNCTION___ca340873b8c54a07a04bf9314a980228",
            "type": "INVOKE_FUNCTION",
            "sequenceKUID": "frmUploadManyFile_Init_Action",
            "display": "frmUploadManyFile_Init_Action",
            "inputparams": [],
            "parentId": null,
            "callbackType": null,
            "disabled": null,
            "source": "module"
        }]
    }
}