{
    "AS_Form_ff4f4a311f464e64b3b9a1a1798c1cf2": {
        "id": "AS_Form_ff4f4a311f464e64b3b9a1a1798c1cf2",
        "type": "ACTION_SEQUENCE",
        "name": "INIT_eKYC_Success_error",
        "params": [{
            "datatype": "collection",
            "name": "eventobject"
        }],
        "contextObj": {
            "name": "frmMBeKycSuccessNerror",
            "type": "forms",
            "platform": "",
            "KUID": "g99a37970ceb4e729d4c0e2552120ef0"
        },
        "language": "js",
        "actions": [{
            "id": "INVOKE_FUNCTION___a7ce85d927bd4eb3b933939c36bfdb5c",
            "type": "INVOKE_FUNCTION",
            "sequenceKUID": "init_eKycErrorScreen",
            "display": "init_eKycErrorScreen",
            "inputparams": [],
            "parentId": null,
            "callbackType": null,
            "disabled": null,
            "source": "module"
        }]
    }
}