{
    "AS_TextField_e4c3409b28d1489095d815fa1414042b": {
        "id": "AS_TextField_e4c3409b28d1489095d815fa1414042b",
        "type": "ACTION_SEQUENCE",
        "name": "onTextChangeAmountFTEditForm",
        "params": [{
            "datatype": "collection",
            "name": "eventobject"
        }, {
            "datatype": "string",
            "name": "changedtext"
        }],
        "contextObj": {
            "name": "frmMBFTEdit",
            "type": "forms",
            "platform": "",
            "KUID": "b47865675bb7453e9aeded8a19178d71"
        },
        "language": "js",
        "actions": [{
            "id": "ADD_SNIPPET__dca616eb98a44ac7b7bc0e1f857af0e6",
            "type": "ADD_SNIPPET",
            "codeSnippet": "formatAmountOnTextChangeFTEdit();\nonTextChangeAmountFTEdit();",
            "parentId": null,
            "callbackType": null
        }]
    }
}