{
    "p2kwiet2012247628874_linkaccount_onClick_seq0": {
        "id": "p2kwiet2012247628874_linkaccount_onClick_seq0",
        "type": "ACTION_SEQUENCE",
        "params": [{
            "name": "eventobject",
            "value": "eventobject"
        }, {
            "name": "linktext",
            "value": "linktext"
        }, {
            "name": "attributes",
            "value": "attributes"
        }],
        "language": "js",
        "actions": [{
            "id": "navigation_onClick_8487920122476227",
            "type": "NAVIGATE_TO_FORM",
            "formId": "frmMyAccountList",
            "formKUID": "p2kwiet2012247633781",
            "mappings": {},
            "mappingsOrder": [],
            "parentId": "",
            "enableMappingEditor": true,
            "package": ""
        }]
    }
}