{
    "p2kwiet2012247631720_hboxTaxDoc_onClick_seq0": {
        "id": "p2kwiet2012247631720_hboxTaxDoc_onClick_seq0",
        "type": "ACTION_SEQUENCE",
        "params": [{
            "name": "eventobject",
            "value": "eventobject"
        }],
        "language": "js",
        "actions": [{
            "id": "customcode_onClick_42709201224761448",
            "type": "INVOKE_FUNCTION",
            "sequenceKUID": "generateTaxDocPdf",
            "display": "generateTaxDocPdf",
            "inputparams": [],
            "source": "module"
        }]
    }
}