{
    "p2kwiet2012247631023_btnEmailOption_onClick_seq0": {
        "id": "p2kwiet2012247631023_btnEmailOption_onClick_seq0",
        "type": "ACTION_SEQUENCE",
        "params": [{
            "name": "eventobject",
            "value": "eventobject"
        }, {
            "name": "context",
            "value": "context"
        }],
        "language": "js",
        "actions": [{
            "id": "customcode_onClick_32204201224765927",
            "type": "INVOKE_FUNCTION",
            "sequenceKUID": "onClickEStmtEmailPaperOption",
            "display": "onClickEStmtEmailPaperOption",
            "inputparams": [{
                "name": "widgetName",
                "value": "\"btnEmailOption\""
            }],
            "source": "module"
        }]
    }
}