{
    "p2kwiet2012247629606_btnConfirm_onClick_seq0": {
        "id": "p2kwiet2012247629606_btnConfirm_onClick_seq0",
        "type": "ACTION_SEQUENCE",
        "params": [{
            "name": "eventobject",
            "value": "eventobject"
        }],
        "language": "js",
        "actions": [{
            "id": "expression_onClick_94526201224763555",
            "type": "ADD_SNIPPET",
            "codeSnippet": "showLoadingScreen();\n gblLastClicked = null;"
        }, {
            "id": "decision_onClick_14147201224768783",
            "type": "IF_CONDITION",
            "conditions": [{
                "leftValueType": "expression",
                "leftValue": "isMenuShown == false"
            }],
            "criteria": "all"
        }, {
            "id": "decision_onClick_88561201224762279",
            "type": "ELSE_CONDITION",
            "conditions": [],
            "criteria": "all"
        }, {
            "id": "customcode_onClick_32586201224761469",
            "type": "INVOKE_FUNCTION",
            "sequenceKUID": "onClickActiConfirm",
            "display": "onClickActiConfirm",
            "inputparams": [],
            "parentId": "decision_onClick_14147201224768783",
            "source": "module"
        }, {
            "id": "expression_onClick_17149201224765144",
            "type": "ADD_SNIPPET",
            "codeSnippet": "frmMBActiConfirm.scrollboxMain.scrollToEnd();\n dismissLoadingScreen();\n ",
            "parentId": "decision_onClick_88561201224762279"
        }]
    }
}