{
    "p2kwiet2012247630763_frmMBChangePINConfirm_preshow_seq0": {
        "id": "p2kwiet2012247630763_frmMBChangePINConfirm_preshow_seq0",
        "type": "ACTION_SEQUENCE",
        "params": [{
            "name": "eventobject",
            "value": "eventobject"
        }],
        "language": "js",
        "actions": [{
            "id": "customcode_preshow_921201224763706",
            "type": "INVOKE_FUNCTION",
            "sequenceKUID": "frmMBChangePINConfirmMenuPreshow",
            "display": "frmMBChangePINConfirmMenuPreshow",
            "inputparams": [],
            "source": "module"
        }]
    }
}