{
    "p2kwiet2012247631565_frmMBFTView_preshow_seq0": {
        "id": "p2kwiet2012247631565_frmMBFTView_preshow_seq0",
        "type": "ACTION_SEQUENCE",
        "params": [{
            "name": "eventobject",
            "value": "eventobject"
        }, {
            "name": "neworientation",
            "value": "neworientation"
        }],
        "language": "js",
        "actions": [{
            "id": "customcode_preshow_46763201224766872",
            "type": "INVOKE_FUNCTION",
            "sequenceKUID": "frmMBFTViewMenuPreshow",
            "display": "frmMBFTViewMenuPreshow",
            "inputparams": [],
            "source": "module"
        }]
    }
}