{
    "p2kwiet2012247628486_button104026732091617_onClick_seq0": {
        "id": "p2kwiet2012247628486_button104026732091617_onClick_seq0",
        "type": "ACTION_SEQUENCE",
        "params": [{
            "name": "eventobject",
            "value": "eventobject"
        }],
        "language": "js",
        "actions": [{
            "id": "customcode_onClick_82683201224768896",
            "type": "INVOKE_FUNCTION",
            "sequenceKUID": "onclickuseridButton",
            "display": "onclickuseridButton",
            "inputparams": [],
            "source": "module"
        }, {
            "id": "navigation_onClick_68521201224763264",
            "type": "DISPLAY_POPUP",
            "popupId": "helpMessage",
            "popupKUID": "p2kwiet2012247649868",
            "mappings": {},
            "mappingsOrder": [],
            "enableMappingEditor": true
        }]
    }
}