{
    "p2kwiet15245716321688_linkshowhide_onClick_seq0": {
        "id": "p2kwiet15245716321688_linkshowhide_onClick_seq0",
        "type": "ACTION_SEQUENCE",
        "params": [{
            "name": "eventobject",
            "value": "eventobject"
        }],
        "language": "js",
        "actions": [{
            "id": "customcode_onClick_705971524571632512",
            "type": "INVOKE_FUNCTION",
            "sequenceKUID": "showHideDetails",
            "display": "showHideDetails",
            "inputparams": [],
            "source": "module"
        }]
    }
}