{
    "p2kwiet2012247634132_vbox4751247744173_onClick_seq0": {
        "id": "p2kwiet2012247634132_vbox4751247744173_onClick_seq0",
        "type": "ACTION_SEQUENCE",
        "params": [{
            "name": "eventobject",
            "value": "eventobject"
        }],
        "language": "js",
        "actions": [{
            "id": "customcode_onClick_99051201224762755",
            "type": "INVOKE_FUNCTION",
            "sequenceKUID": "onClickForInnerBoxes",
            "display": "onClickForInnerBoxes",
            "inputparams": [],
            "source": "module"
        }]
    }
}