{
    "p2kwiet2012247637335_btnFull2_onClick_seq0": {
        "id": "p2kwiet2012247637335_btnFull2_onClick_seq0",
        "type": "ACTION_SEQUENCE",
        "params": [{
            "name": "eventobject",
            "value": "eventobject"
        }],
        "language": "js",
        "actions": [{
            "id": "customcode_onClick_96320201224767035",
            "type": "INVOKE_FUNCTION",
            "sequenceKUID": "fullPress",
            "display": "fullPress",
            "inputparams": [],
            "source": "module"
        }, {
            "id": "customcode_onClick_48896201224768915",
            "type": "INVOKE_FUNCTION",
            "sequenceKUID": "fullSpecButtonColorSet",
            "display": "fullSpecButtonColorSet",
            "inputparams": [{
                "name": "eventObject",
                "value": "eventobject"
            }],
            "source": "module"
        }]
    }
}