{
    "p2kwiet2012247629253_frmFATCATnC_init_seq0": {
        "id": "p2kwiet2012247629253_frmFATCATnC_init_seq0",
        "type": "ACTION_SEQUENCE",
        "params": [{
            "name": "eventobject",
            "value": "eventobject"
        }, {
            "name": "neworientation",
            "value": "neworientation"
        }],
        "language": "js",
        "actions": [{
            "id": "expression_init_91423201224764818",
            "type": "ADD_SNIPPET",
            "codeSnippet": "frmFATCATnC.btnAgreeCheck.skin = \"btnCheck\"\n frmFATCATnC.btnAgreeCheck.focusSkin = \"btnCheck\""
        }]
    }
}