{
    "p2kwiet2012247633536_linkMore_onClick_seq0": {
        "id": "p2kwiet2012247633536_linkMore_onClick_seq0",
        "type": "ACTION_SEQUENCE",
        "params": [{
            "name": "eventobject",
            "value": "eventobject"
        }],
        "language": "js",
        "actions": [{
            "id": "customcode_onClick_4412620122476477",
            "type": "INVOKE_FUNCTION",
            "sequenceKUID": "loadMoreData",
            "display": "loadMoreData",
            "inputparams": [],
            "source": "module"
        }]
    }
}