{
    "p2kwiet15245716321099_tbxRef2Value_Android_onEndEditing_seq0": {
        "id": "p2kwiet15245716321099_tbxRef2Value_Android_onEndEditing_seq0",
        "type": "ACTION_SEQUENCE",
        "params": [{
            "name": "eventobject",
            "value": "eventobject"
        }, {
            "name": "changedtext",
            "value": "changedtext"
        }],
        "language": "js",
        "actions": [{
            "id": "customcode_onEndEditing_7003315245716324604",
            "type": "INVOKE_FUNCTION",
            "sequenceKUID": "onFocusLostOfRef2TextBox",
            "display": "onFocusLostOfRef2TextBox",
            "inputparams": [],
            "source": "module"
        }]
    }
}