{
    "p2kwiet2012247629833_txtIDPass_Android_onEndEditing_seq0": {
        "id": "p2kwiet2012247629833_txtIDPass_Android_onEndEditing_seq0",
        "type": "ACTION_SEQUENCE",
        "params": [{
            "name": "eventobject",
            "value": "eventobject"
        }, {
            "name": "changedtext",
            "value": "changedtext"
        }],
        "language": "js",
        "actions": [{
            "id": "preprocessdecision_onEndEditing_11910201224764260",
            "type": "CHANNEL_CONDITION",
            "platforms": ["android"]
        }]
    }
}