{
    "p2kwiet2012247628805_btnCancelSpa_onClick_seq0": {
        "id": "p2kwiet2012247628805_btnCancelSpa_onClick_seq0",
        "type": "ACTION_SEQUENCE",
        "params": [{
            "name": "eventobject",
            "value": "eventobject"
        }],
        "language": "js",
        "actions": [{
            "id": "customcode_onClick_4037820122476911",
            "type": "INVOKE_FUNCTION",
            "sequenceKUID": "frmDreamSavingMaintainPreShow",
            "display": "frmDreamSavingMaintainPreShow",
            "inputparams": [],
            "source": "module"
        }, {
            "id": "navigation_onClick_5107201224761779",
            "type": "NAVIGATE_TO_FORM",
            "formId": "frmDreamSavingMB",
            "formKUID": "p2kwiet2012247628874",
            "mappings": {},
            "mappingsOrder": [],
            "parentId": "",
            "enableMappingEditor": true,
            "package": ""
        }]
    }
}