{
    "p2kwiet2012247633569_btnBack1_onClick_seq0": {
        "id": "p2kwiet2012247633569_btnBack1_onClick_seq0",
        "type": "ACTION_SEQUENCE",
        "params": [{
            "name": "eventobject",
            "value": "eventobject"
        }],
        "language": "js",
        "actions": [{
            "id": "expression_onClick_53466201224761643",
            "type": "ADD_SNIPPET",
            "codeSnippet": "//TMBUtil.DestroyForm(frmAccountSummaryLanding);\n showAccuntSummaryScreen();"
        }]
    }
}