{
    "p2kwiet2012247637067_btnAgree_onClick_seq0": {
        "id": "p2kwiet2012247637067_btnAgree_onClick_seq0",
        "type": "ACTION_SEQUENCE",
        "params": [{
            "name": "eventobject",
            "value": "eventobject"
        }],
        "language": "js",
        "actions": [{
            "id": "customcode_onClick_37376201224768093",
            "type": "INVOKE_FUNCTION",
            "sequenceKUID": "scheduleBillPaymentSaveValidations",
            "display": "scheduleBillPaymentSaveValidations",
            "inputparams": [],
            "source": "module"
        }]
    }
}