{
    "p2kwiet2012247631642_frmMBManageCard_preshow_seq0": {
        "id": "p2kwiet2012247631642_frmMBManageCard_preshow_seq0",
        "type": "ACTION_SEQUENCE",
        "params": [{
            "name": "eventobject",
            "value": "eventobject"
        }],
        "language": "js",
        "actions": [{
            "id": "customcode_preshow_34929201224769037",
            "type": "INVOKE_FUNCTION",
            "sequenceKUID": "frmMBManageCardMenuPreshow",
            "display": "frmMBManageCardMenuPreshow",
            "inputparams": [],
            "source": "module"
        }]
    }
}