{
    "p2kwiet2012247629278_button475868836189416_onClick_seq0": {
        "id": "p2kwiet2012247629278_button475868836189416_onClick_seq0",
        "type": "ACTION_SEQUENCE",
        "params": [{
            "name": "eventobject",
            "value": "eventobject"
        }],
        "language": "js",
        "actions": [{
            "id": "customcode_onClick_75404201224769650",
            "type": "INVOKE_FUNCTION",
            "sequenceKUID": "onClickMenuBtnInHdr",
            "display": "onClickMenuBtnInHdr",
            "inputparams": [],
            "source": "module"
        }]
    }
}