{
    "p2kwiet2012247635845_btnOADSAckOpenMore_onClick_seq0": {
        "id": "p2kwiet2012247635845_btnOADSAckOpenMore_onClick_seq0",
        "type": "ACTION_SEQUENCE",
        "params": [{
            "name": "eventobject",
            "value": "eventobject"
        }],
        "language": "js",
        "actions": [{
            "id": "customcode_onClick_39442201224762656",
            "type": "INVOKE_FUNCTION",
            "sequenceKUID": "ivokeCustActInqForOpenAct",
            "display": "ivokeCustActInqForOpenAct",
            "inputparams": [{
                "name": "upgradeSkip",
                "value": ""
            }],
            "source": "module"
        }]
    }
}