{
    "p2kwiet2012247635762_txtODTargetAmt_onTextChange_seq0": {
        "id": "p2kwiet2012247635762_txtODTargetAmt_onTextChange_seq0",
        "type": "ACTION_SEQUENCE",
        "params": [{
            "name": "eventobject",
            "value": "eventobject"
        }, {
            "name": "changedtext",
            "value": "changedtext"
        }],
        "language": "js",
        "actions": [{
            "id": "expression_onTextChange_99301201224764987",
            "type": "ADD_SNIPPET",
            "codeSnippet": "if(frmOpenAcDreamSaving.txtODTargetAmt.text == \"0\" || frmOpenAcDreamSaving.txtODTargetAmt.text == \"\" || frmOpenAcDreamSaving.txtODTargetAmt.text == null){\n frmOpenAcDreamSaving.hbxODMnthSavAmt.setEnabled(false);\n frmOpenAcDreamSaving.hbxODMyDream.setEnabled(false);\n }else{\n frmOpenAcDreamSaving.hbxODMnthSavAmt.setEnabled(true);\n frmOpenAcDreamSaving.hbxODMyDream.setEnabled(true);\n }"
        }, {
            "id": "expression_onTextChange_42954201224763423",
            "type": "ADD_SNIPPET",
            "codeSnippet": "frmOpenAcDreamSaving.txtODMnthSavAmt.text=\"\";\n \n frmOpenAcDreamSaving.txtODMyDream.text=\"\";"
        }]
    }
}