{
    "p2kwiet2012247637818_vbxMessenger_onClick_seq0": {
        "id": "p2kwiet2012247637818_vbxMessenger_onClick_seq0",
        "type": "ACTION_SEQUENCE",
        "params": [{
            "name": "eventobject",
            "value": "eventobject"
        }],
        "language": "js",
        "actions": [{
            "id": "customcode_onClick_12580201224763748",
            "type": "INVOKE_FUNCTION",
            "sequenceKUID": "shareIntentCall",
            "display": "shareIntentCall",
            "inputparams": [{
                "name": "inputmessage",
                "value": "\"facebook\""
            }, {
                "name": "flow",
                "value": "\"Transfer\""
            }],
            "source": "module"
        }]
    }
}