{
    "p2kwiet2012247633239_frmMBSoGooodPlanSelect_preshow_seq0": {
        "id": "p2kwiet2012247633239_frmMBSoGooodPlanSelect_preshow_seq0",
        "type": "ACTION_SEQUENCE",
        "params": [{
            "name": "eventobject",
            "value": "eventobject"
        }],
        "language": "js",
        "actions": [{
            "id": "customcode_preshow_57131201224765273",
            "type": "INVOKE_FUNCTION",
            "sequenceKUID": "frmMBSoGooodPlanSelectMenuPreshow",
            "display": "frmMBSoGooodPlanSelectMenuPreshow",
            "inputparams": [],
            "source": "module"
        }]
    }
}