{
    "p2kwiet2012247632223_frmMBPointRedemptionLanding_postshow_seq0": {
        "id": "p2kwiet2012247632223_frmMBPointRedemptionLanding_postshow_seq0",
        "type": "ACTION_SEQUENCE",
        "params": [{
            "name": "eventobject",
            "value": "eventobject"
        }, {
            "name": "neworientation",
            "value": "neworientation"
        }],
        "language": "js",
        "actions": [{
            "id": "customcode_postshow_42215201224764520",
            "type": "INVOKE_FUNCTION",
            "sequenceKUID": "frmMBPointRedemptionLandingMenuPostshow",
            "display": "frmMBPointRedemptionLandingMenuPostshow",
            "inputparams": [],
            "source": "module"
        }]
    }
}