{
    "p2kwiet2012247650076_txtIncorrectOTP_onTextChange_seq0": {
        "id": "p2kwiet2012247650076_txtIncorrectOTP_onTextChange_seq0",
        "type": "ACTION_SEQUENCE",
        "params": [{
            "name": "eventobject",
            "value": "eventobject"
        }, {
            "name": "changedtext",
            "value": "changedtext"
        }],
        "language": "js",
        "actions": [{
            "id": "expression_onTextChange_41153201224763051",
            "type": "ADD_SNIPPET",
            "codeSnippet": " dontAllowNonNeumaricSPAMB(popOtpSpa.txtIncorrectOTP)"
        }]
    }
}