{
    "p2kwiet2012247634136_button47408221857154_onClick_seq0": {
        "id": "p2kwiet2012247634136_button47408221857154_onClick_seq0",
        "type": "ACTION_SEQUENCE",
        "params": [{
            "name": "eventobject",
            "value": "eventobject"
        }, {
            "name": "context",
            "value": "context"
        }],
        "language": "js",
        "actions": [{
            "id": "customcode_onClick_17856201224767349",
            "type": "INVOKE_FUNCTION",
            "sequenceKUID": "deleteAccountFromRecipientConfirmation",
            "display": "deleteAccountFromRecipientConfirmation",
            "inputparams": [],
            "source": "module"
        }]
    }
}