{
    "p2kwiet2012247632804_lblMobile_onTouchEnd_seq0": {
        "id": "p2kwiet2012247632804_lblMobile_onTouchEnd_seq0",
        "type": "ACTION_SEQUENCE",
        "params": [{
            "name": "eventobject",
            "value": "eventobject"
        }, {
            "name": "x",
            "value": "x"
        }, {
            "name": "y",
            "value": "y"
        }, {
            "name": "contextInfo",
            "value": "contextInfo"
        }],
        "language": "js",
        "actions": []
    }
}