{
    "p2kwiet2012247628486_txtNewUserID_iPhone_onEndEditing_seq0": {
        "id": "p2kwiet2012247628486_txtNewUserID_iPhone_onEndEditing_seq0",
        "type": "ACTION_SEQUENCE",
        "params": [{
            "name": "eventobject",
            "value": "eventobject"
        }, {
            "name": "changedtext",
            "value": "changedtext"
        }],
        "language": "js",
        "actions": [{
            "id": "expression_onEndEditing_61765201224764769",
            "type": "ADD_SNIPPET",
            "codeSnippet": "popAccessPinBubble.dismiss()"
        }]
    }
}