{
    "p2kwiet15245716321515_vbxImage_onClick_seq0": {
        "id": "p2kwiet15245716321515_vbxImage_onClick_seq0",
        "type": "ACTION_SEQUENCE",
        "params": [{
            "name": "eventobject",
            "value": "eventobject"
        }],
        "language": "js",
        "actions": [{
            "id": "INVOKE_FUNCTION___ed9b1c9ef64a4d71a449c96e1ffe6544",
            "type": "INVOKE_FUNCTION",
            "sequenceKUID": "onClickSaveImagePaymenCal",
            "display": "onClickSaveImagePaymenCal",
            "inputparams": [],
            "parentId": null,
            "callbackType": null,
            "disabled": null,
            "source": "module"
        }]
    }
}