{
    "p2kwiet2012247634182_tbxRecipientName_SPA_onEndEditing_seq0": {
        "id": "p2kwiet2012247634182_tbxRecipientName_SPA_onEndEditing_seq0",
        "type": "ACTION_SEQUENCE",
        "params": [{
            "name": "eventobject",
            "value": "eventobject"
        }, {
            "name": "changedtext",
            "value": "changedtext"
        }],
        "language": "js",
        "actions": [{
            "id": "expression_onEndEditing_64221201224767108",
            "type": "ADD_SNIPPET",
            "codeSnippet": "frmMyRecipientAddProfile.tbxRecipientName.skin=\"txt142\";"
        }]
    }
}