{
    "p2kwiet2012247627135_bttnCall_onClick_seq0": {
        "id": "p2kwiet2012247627135_bttnCall_onClick_seq0",
        "type": "ACTION_SEQUENCE",
        "params": [{
            "name": "eventobject",
            "value": "eventobject"
        }],
        "language": "js",
        "actions": [{
            "id": "customcode_onClick_77137201224765427",
            "type": "INVOKE_FUNCTION",
            "sequenceKUID": "onClickCallBtn",
            "display": "onClickCallBtn",
            "inputparams": [],
            "source": "module"
        }]
    }
}