{
    "p2kwiet2012247650076_btnPopupTractConf_onClick_seq0": {
        "id": "p2kwiet2012247650076_btnPopupTractConf_onClick_seq0",
        "type": "ACTION_SEQUENCE",
        "params": [{
            "name": "eventobject",
            "value": "eventobject"
        }],
        "language": "js",
        "actions": [{
            "id": "expression_onClick_43163201224766792",
            "type": "ADD_SNIPPET",
            "codeSnippet": "//popOtpSpa.dismiss()\n if (gblTokenSwitchFlag == true) \n {\n text = popOtpSpa.txttokenspa.text;\n popOtpSpa.lblTokenMsg.text=\"\"\n }\n else \n {\n text = popOtpSpa.txtOTP.text;\n }\n \n OTPValdatn(text);"
        }]
    }
}