{
    "p2kwiet2012247632394_frmMBPreLoginAccessesPin_preshow_seq0": {
        "id": "p2kwiet2012247632394_frmMBPreLoginAccessesPin_preshow_seq0",
        "type": "ACTION_SEQUENCE",
        "params": [{
            "name": "eventobject",
            "value": "eventobject"
        }],
        "language": "js",
        "actions": [{
            "id": "customcode_preshow_74058201224767134",
            "type": "INVOKE_FUNCTION",
            "sequenceKUID": "preshowPreAccessScreen",
            "display": "preshowPreAccessScreen",
            "inputparams": [],
            "source": "module"
        }]
    }
}