{
    "p2kwiet2012247633121_btnEditMenu_onClick_seq0": {
        "id": "p2kwiet2012247633121_btnEditMenu_onClick_seq0",
        "type": "ACTION_SEQUENCE",
        "params": [{
            "name": "eventobject",
            "value": "eventobject"
        }],
        "language": "js",
        "actions": [{
            "id": "expression_onClick_51856201224765117",
            "type": "ADD_SNIPPET",
            "codeSnippet": "frmMBSoGooodPlanList.show();"
        }]
    }
}