{
    "p2kwiet2012247630266_button1495287783233622_onClick_seq0": {
        "id": "p2kwiet2012247630266_button1495287783233622_onClick_seq0",
        "type": "ACTION_SEQUENCE",
        "params": [{
            "name": "eventobject",
            "value": "eventobject"
        }],
        "language": "js",
        "actions": [{
            "id": "customcode_onClick_55885201224762783",
            "type": "INVOKE_FUNCTION",
            "sequenceKUID": "clearATMPINMB",
            "display": "clearATMPINMB",
            "inputparams": [],
            "source": "module"
        }]
    }
}