{
    "p2kwiet2012247628567_txtTransPass_Android_onBeginEditing_seq0": {
        "id": "p2kwiet2012247628567_txtTransPass_Android_onBeginEditing_seq0",
        "type": "ACTION_SEQUENCE",
        "params": [{
            "name": "eventobject",
            "value": "eventobject"
        }, {
            "name": "changedtext",
            "value": "changedtext"
        }],
        "language": "js",
        "actions": [{
            "id": "customcode_onBeginEditing_75494201224767046",
            "type": "INVOKE_FUNCTION",
            "sequenceKUID": "anchorupTransPass",
            "display": "anchorupTransPass",
            "inputparams": [],
            "source": "module"
        }]
    }
}