{
    "p2kwiet2012247628742_lblMnthTODReamVal_onDone_seq0": {
        "id": "p2kwiet2012247628742_lblMnthTODReamVal_onDone_seq0",
        "type": "ACTION_SEQUENCE",
        "params": [{
            "name": "eventobject",
            "value": "eventobject"
        }, {
            "name": "changedtext",
            "value": "changedtext"
        }],
        "language": "js",
        "actions": [{
            "id": "expression_onDone_52477201224769425",
            "type": "ADD_SNIPPET",
            "codeSnippet": "frmDreamCalculator.lblMnthTODReamVal.skin=\"txtNormalBG\""
        }]
    }
}