{
    "p2kwiet2012247633837_frmMyAccountView_onhide_seq0": {
        "id": "p2kwiet2012247633837_frmMyAccountView_onhide_seq0",
        "type": "ACTION_SEQUENCE",
        "params": [{
            "name": "eventobject",
            "value": "eventobject"
        }, {
            "name": "neworientation",
            "value": "neworientation"
        }],
        "language": "js",
        "actions": [{
            "id": "customcode_onhide_58051201224762568",
            "type": "INVOKE_FUNCTION",
            "sequenceKUID": "removeMenu",
            "display": "removeMenu",
            "inputparams": [],
            "source": "module"
        }]
    }
}