{
    "p2kwiet2012247634886_frmMyRecipientViewAccount_postshow_seq0": {
        "id": "p2kwiet2012247634886_frmMyRecipientViewAccount_postshow_seq0",
        "type": "ACTION_SEQUENCE",
        "params": [{
            "name": "eventobject",
            "value": "eventobject"
        }, {
            "name": "neworientation",
            "value": "neworientation"
        }],
        "language": "js",
        "actions": [{
            "id": "customcode_postshow_73789201224765166",
            "type": "INVOKE_FUNCTION",
            "sequenceKUID": "frmMyRecipientViewAccountMenuPostshow",
            "display": "frmMyRecipientViewAccountMenuPostshow",
            "inputparams": [],
            "source": "module"
        }]
    }
}