{
    "p2kwiet2012247634837_btnNext_onClick_seq0": {
        "id": "p2kwiet2012247634837_btnNext_onClick_seq0",
        "type": "ACTION_SEQUENCE",
        "params": [{
            "name": "eventobject",
            "value": "eventobject"
        }],
        "language": "js",
        "actions": [{
            "id": "expression_onClick_76064201224766641",
            "type": "ADD_SNIPPET",
            "codeSnippet": "if(fl==1){\n previousSelectedItems[\"imgchbxbtn\"]=\"radiobtn2.png\";\n if(previousSelectedItems[\"btnMobileNo1\"]){\n previousSelectedItems[\"btnMobileNo1\"][\"skin\"]=\"btnRadioFoc\";\n }\n if(previousSelectedItems[\"btnMobileNo2\"]){\n previousSelectedItems[\"btnMobileNo2\"][\"skin\"]=\"btnRadio\";\n }\n if(previousSelectedItems[\"btnMobileNo3\"]){\n previousSelectedItems[\"btnMobileNo3\"][\"skin\"]=\"btnRadio\";\n }\n frmMyRecipientSelectMobile.segMyRecipient.setDataAt(previousSelectedItems, previousSelectedIndex);\n //frmMyRecipientSelectMobile.segMyRecipient.removeAt(previousSelectedIndex);\n //frmMyRecipientSelectMobile.segMyRecipient.addDataAt(previousSelectedItems, previousSelectedIndex);\n }\n \n previousSelectedIndex = false;\n previousSelectedItems = false;\n fl=null;\n if(requestFromForm==\"editprofile\"){\n if(selectedMobile){\n frmMyRecipientEditProfile.tbxMobileNo.text = selectedMobile;\n }else{\n frmMyRecipientEditProfile.tbxMobileNo.text = \"\";\n }\n frmMyRecipientEditProfile.show();\n }else if(requestFromForm==\"addprofile\"){\n if(selectedMobile){\n frmMyRecipientAddProfile.tbxMobileNo.text = selectedMobile;\n }else{\n frmMyRecipientAddProfile.tbxMobileNo.text = \"\";\n }\n gblRequestFromForm = \"addprofile\";\n frmMyRecipientAddProfile.show();\n }\n \n contactListToggle = true;"
        }]
    }
}