{
    "p2kwiet2012247629441_btnCancel_onClick_seq0": {
        "id": "p2kwiet2012247629441_btnCancel_onClick_seq0",
        "type": "ACTION_SEQUENCE",
        "params": [{
            "name": "eventobject",
            "value": "eventobject"
        }],
        "language": "js",
        "actions": [{
            "id": "customcode_onClick_90360201224761531",
            "type": "INVOKE_FUNCTION",
            "sequenceKUID": "InboxCancelOnClick",
            "display": "InboxCancelOnClick",
            "inputparams": [{
                "name": "eventobject",
                "value": "eventobject"
            }],
            "source": "module"
        }]
    }
}