{
    "p2kwiet2012247628486_button473361467785887_onClick_seq0": {
        "id": "p2kwiet2012247628486_button473361467785887_onClick_seq0",
        "type": "ACTION_SEQUENCE",
        "params": [{
            "name": "eventobject",
            "value": "eventobject"
        }],
        "language": "js",
        "actions": [{
            "id": "expression_onClick_68183201224763378",
            "type": "ADD_SNIPPET",
            "codeSnippet": "if (frmCMChgAccessPin.txtAccessPwdUnMask.isVisible) {\n\tcancelTimerChngAc();\n}\nfrmMyProfiles.show();\n "
        }]
    }
}