{
    "p2kwiet2012247650076_button474165697415035_onClick_seq0": {
        "id": "p2kwiet2012247650076_button474165697415035_onClick_seq0",
        "type": "ACTION_SEQUENCE",
        "params": [{
            "name": "eventobject",
            "value": "eventobject"
        }],
        "language": "js",
        "actions": [{
            "id": "expression_onClick_5695620122476783",
            "type": "ADD_SNIPPET",
            "codeSnippet": "gblSwitchToken = true; \n gblTokenSwitchFlag = false;\n "
        }, {
            "id": "customcode_onClick_8144020122476185",
            "type": "INVOKE_FUNCTION",
            "sequenceKUID": "onClickOTPRequestSpa",
            "display": "onClickOTPRequestSpa",
            "inputparams": [],
            "source": "module"
        }]
    }
}