{
    "p2kwiet15245716321099_tbxAmount_onDone_seq0": {
        "id": "p2kwiet15245716321099_tbxAmount_onDone_seq0",
        "type": "ACTION_SEQUENCE",
        "params": [{
            "name": "eventobject",
            "value": "eventobject"
        }, {
            "name": "changedtext",
            "value": "changedtext"
        }],
        "language": "js",
        "actions": [{
            "id": "customcode_onDone_3927015245716327203",
            "type": "INVOKE_FUNCTION",
            "sequenceKUID": "onDoneEditingAmountBillPayment",
            "display": "onDoneEditingAmountBillPayment",
            "inputparams": [],
            "source": "module"
        }]
    }
}