{
    "p2kwiet2012247629833_txtAccountNumber_onTextChange_seq0": {
        "id": "p2kwiet2012247629833_txtAccountNumber_onTextChange_seq0",
        "type": "ACTION_SEQUENCE",
        "params": [{
            "name": "eventobject",
            "value": "eventobject"
        }, {
            "name": "changedtext",
            "value": "changedtext"
        }],
        "language": "js",
        "actions": [{
            "id": "customcode_onTextChange_14948201224761212",
            "type": "INVOKE_FUNCTION",
            "sequenceKUID": "onEditAccNum",
            "display": "onEditAccNum",
            "inputparams": [{
                "name": "txt",
                "value": "frmMBActivation.txtAccountNumber.text"
            }],
            "source": "module"
        }, {
            "id": "expression_onTextChange_57576201224767382",
            "type": "ADD_SNIPPET",
            "codeSnippet": "frmMBActivation.txtActivationCode.skin = \"txtNormalBG\";"
        }]
    }
}