{
    "p2kwiet2012247637067_btnNever_onClick_seq0": {
        "id": "p2kwiet2012247637067_btnNever_onClick_seq0",
        "type": "ACTION_SEQUENCE",
        "params": [{
            "name": "eventobject",
            "value": "eventobject"
        }],
        "language": "js",
        "actions": [{
            "id": "customcode_onClick_8758201224768931",
            "type": "INVOKE_FUNCTION",
            "sequenceKUID": "endScheduleButtonSet",
            "display": "endScheduleButtonSet",
            "inputparams": [{
                "name": "eventObject",
                "value": "eventobject"
            }],
            "source": "module"
        }]
    }
}