{
    "p2kwiet2012247636882_vbox48748658385763_onClick_seq0": {
        "id": "p2kwiet2012247636882_vbox48748658385763_onClick_seq0",
        "type": "ACTION_SEQUENCE",
        "params": [{
            "name": "eventobject",
            "value": "eventobject"
        }],
        "language": "js",
        "actions": [{
            "id": "customcode_onClick_70182201224767164",
            "type": "INVOKE_FUNCTION",
            "sequenceKUID": "displayImgToMobile",
            "display": "displayImgToMobile",
            "inputparams": [],
            "source": "module"
        }, {
            "id": "customcode_onClick_65959201224765201",
            "type": "INVOKE_FUNCTION",
            "sequenceKUID": "toTransferPageFromPreLandingPage",
            "display": "toTransferPageFromPreLandingPage",
            "inputparams": [],
            "source": "module"
        }]
    }
}