{
    "p2kwiet2012247635471_hbox101271281131304_onClick_seq0": {
        "id": "p2kwiet2012247635471_hbox101271281131304_onClick_seq0",
        "type": "ACTION_SEQUENCE",
        "params": [{
            "name": "eventobject",
            "value": "eventobject"
        }],
        "language": "js",
        "actions": [{
            "id": "expression_onClick_57364201224764234",
            "type": "ADD_SNIPPET",
            "codeSnippet": "if (frmOpenAccountNSConfirmationCalendar.lblOpenActCnfmBalAmt.isVisible == true) {\n kony.print(\"@@ into if\");\n frmOpenAccountNSConfirmationCalendar.lblOpenActCnfmBalAmt.setVisibility(false);\n frmOpenAccountNSConfirmationCalendar.lblOpenActCnfmBal.setVisibility(false)\n frmOpenAccountNSConfirmationCalendar.lblHide.text = kony.i18n.getLocalizedString(\"keyUnhide\")\n } else {\n kony.print(\"@@ into else\");\n frmOpenAccountNSConfirmationCalendar.lblOpenActCnfmBalAmt.setVisibility(true);\n frmOpenAccountNSConfirmationCalendar.lblOpenActCnfmBal.setVisibility(true)\n frmOpenAccountNSConfirmationCalendar.lblHide.text = kony.i18n.getLocalizedString(\"Hide\")\n }"
        }]
    }
}