{
    "p2kwiet2012247633260_btnCancel_onClick_seq0": {
        "id": "p2kwiet2012247633260_btnCancel_onClick_seq0",
        "type": "ACTION_SEQUENCE",
        "params": [{
            "name": "eventobject",
            "value": "eventobject"
        }],
        "language": "js",
        "actions": [{
            "id": "customcode_onClick_76118201224766625",
            "type": "INVOKE_FUNCTION",
            "sequenceKUID": "onClickOfBackSogoood",
            "display": "onClickOfBackSogoood",
            "inputparams": [],
            "source": "module"
        }]
    }
}