{
    "p2kwiet2012247631416_button445536670970293_onClick_seq0": {
        "id": "p2kwiet2012247631416_button445536670970293_onClick_seq0",
        "type": "ACTION_SEQUENCE",
        "params": [{
            "name": "eventobject",
            "value": "eventobject"
        }],
        "language": "js",
        "actions": [{
            "id": "customcode_onClick_75495201224762246",
            "type": "INVOKE_FUNCTION",
            "sequenceKUID": "ehFrmMBFTEditCnfrmtn_button445536670970293_onClick",
            "display": "ehFrmMBFTEditCnfrmtn_button445536670970293_onClick",
            "inputparams": [],
            "source": "module"
        }]
    }
}