{
    "p2kwiet2012247633448_segMore_onRowClick_seq0": {
        "id": "p2kwiet2012247633448_segMore_onRowClick_seq0",
        "type": "ACTION_SEQUENCE",
        "params": [{
            "name": "eventobject",
            "value": "eventobject"
        }, {
            "name": "sectionNumber",
            "value": "sectionNumber"
        }, {
            "name": "rowNumber",
            "value": "rowNumber"
        }],
        "language": "js",
        "actions": [{
            "id": "customcode_onRowClick_77451201224764298",
            "type": "INVOKE_FUNCTION",
            "sequenceKUID": "onClickMoresegMenu",
            "display": "onClickMoresegMenu",
            "inputparams": [],
            "source": "module"
        }]
    }
}