{
    "p2kwiet2012247628258_btn11_onClick_seq0": {
        "id": "p2kwiet2012247628258_btn11_onClick_seq0",
        "type": "ACTION_SEQUENCE",
        "params": [{
            "name": "eventobject",
            "value": "eventobject"
        }],
        "language": "js",
        "actions": [{
            "id": "customcode_onClick_87761201224761657",
            "type": "INVOKE_FUNCTION",
            "sequenceKUID": "assignATMPINRenderMBNew",
            "display": "assignATMPINRenderMBNew",
            "inputparams": [{
                "name": "pin",
                "value": "eventobject[\"text\"]"
            }],
            "source": "module"
        }]
    }
}