{
    "p2kwiet2012247626596_btnOptions_onClick_seq0": {
        "id": "p2kwiet2012247626596_btnOptions_onClick_seq0",
        "type": "ACTION_SEQUENCE",
        "params": [{
            "name": "eventobject",
            "value": "eventobject"
        }],
        "language": "js",
        "actions": [{
            "id": "preprocessdecision_onClick_72811201224768051",
            "type": "CHANNEL_CONDITION",
            "platforms": ["android", "iphone"]
        }, {
            "id": "preprocessdecision_onClick_75436201224768994",
            "type": "CHANNEL_CONDITION",
            "platforms": ["spaip", "spaan", "spabb"]
        }, {
            "id": "expression_onClick_85577201224769852",
            "type": "ADD_SNIPPET",
            "codeSnippet": "currForm = frmAccountStatementMB;\n var deviceHght = kony.os.deviceInfo().deviceHeight;\n var osType = kony.os.deviceInfo().name;\n \n if (frmAccountStatementMB.hbxOnHandClick.isVisible) {\n frmAccountStatementMB.hbxOnHandClick.isVisible = false;\n //frmAccountDetailsMB.btnOptions.skin = btnskin;\n currForm.btnOptions.skin = \"btnShare\";\n frmAccountStatementMB.imgHeaderMiddle.src = \"arrowtop.png\";\n frmAccountStatementMB.imgHeaderRight.src = \"empty.png\";\n /*if(deviceHght > 567 && osType == \"iPhone\"){\n currForm.scrollbox474135225108084.containerHeight = 80.8;//61;\n }else\n currForm.scrollbox474135225108084.containerHeight =79 //66;//54;//63.2\n //#ifdef android\n currForm.scrollbox474135225108084.containerHeight = 76;\n //#endif\n */\n } else {\n frmAccountStatementMB.hbxOnHandClick.isVisible = true;\n //frmAccountDetailsMB.btnOptions.skin = btnFocusSkin;\n currForm.btnOptions.skin = \"btnShareFoc\";\n frmAccountStatementMB.imgHeaderMiddle.src = \"empty.png\";\n frmAccountStatementMB.imgHeaderRight.src = \"arrowtop.png\";\n /*if(deviceHght > 567 && osType == \"iPhone\"){\n currForm.scrollbox474135225108084.containerHeight = 83.8;//63;//70.2;\n }else\n currForm.scrollbox474135225108084.containerHeight = 81;//55.5;//60;//64.8;\n //#ifdef android\n currForm.scrollbox474135225108084.containerHeight = 78;\n //#endif\n */\n }\n ",
            "parentId": "preprocessdecision_onClick_72811201224768051"
        }, {
            "id": "expression_onClick_68278201224762820",
            "type": "ADD_SNIPPET",
            "codeSnippet": "var skin = frmAccountStatementMB.btnOptions.skin\n \n if(frmAccountStatementMB.hbxOnHandClick.isVisible == false){\n frmAccountStatementMB.hbxOnHandClick.isVisible = true;\n frmAccountStatementMB.imgHeaderRight.src = \"arrowtop.png\"\n frmAccountStatementMB.imgHeaderMiddle.src = \"empty.png\"\n frmAccountStatementMB.btnOptions.skin = \"btnShareFoc\";\n }else{\n frmAccountStatementMB.hbxOnHandClick.isVisible = false;\n frmAccountStatementMB.imgHeaderMiddle.src = \"arrowtop.png\"\n frmAccountStatementMB.imgHeaderRight.src = \"empty.png\"\n frmAccountStatementMB.btnOptions.skin = \"btnShare\";\n }",
            "parentId": "preprocessdecision_onClick_75436201224768994"
        }]
    }
}