{
    "p2kwiet2012247630763_frmMBChangePINConfirm_init_seq0": {
        "id": "p2kwiet2012247630763_frmMBChangePINConfirm_init_seq0",
        "type": "ACTION_SEQUENCE",
        "params": [{
            "name": "eventobject",
            "value": "eventobject"
        }],
        "language": "js",
        "actions": [{
            "id": "customcode_init_88404201224762806",
            "type": "INVOKE_FUNCTION",
            "sequenceKUID": "init_frmMBChangePINConfirm_Function",
            "display": "init_frmMBChangePINConfirm_Function",
            "inputparams": [],
            "source": "module"
        }]
    }
}