{
    "p2kwiet2012247637673_txtTransLndSms_Android_onEndEditing_seq0": {
        "id": "p2kwiet2012247637673_txtTransLndSms_Android_onEndEditing_seq0",
        "type": "ACTION_SEQUENCE",
        "params": [{
            "name": "eventobject",
            "value": "eventobject"
        }, {
            "name": "changedtext",
            "value": "changedtext"
        }],
        "language": "js",
        "actions": [{
            "id": "customcode_onEndEditing_18327201224763027",
            "type": "INVOKE_FUNCTION",
            "sequenceKUID": "ehFrmTransferLandingHbxRecNoteSmsOnClick",
            "display": "ehFrmTransferLandingHbxRecNoteSmsOnClick",
            "inputparams": [],
            "source": "module"
        }]
    }
}