{
    "p2kwiet2012247633925_lnkExpand_onClick_seq0": {
        "id": "p2kwiet2012247633925_lnkExpand_onClick_seq0",
        "type": "ACTION_SEQUENCE",
        "params": [{
            "name": "eventobject",
            "value": "eventobject"
        }],
        "language": "js",
        "actions": [{
            "id": "customcode_onClick_82444201224767989",
            "type": "INVOKE_FUNCTION",
            "sequenceKUID": "onClickMoreMyProfile",
            "display": "onClickMoreMyProfile",
            "inputparams": [],
            "source": "module"
        }]
    }
}