{
    "p2kwiet2012247631081_button47505874736294_onClick_seq0": {
        "id": "p2kwiet2012247631081_button47505874736294_onClick_seq0",
        "type": "ACTION_SEQUENCE",
        "params": [{
            "name": "eventobject",
            "value": "eventobject"
        }],
        "language": "js",
        "actions": [{
            "id": "variable_onClick_76472201224766187",
            "type": "ADD_LOCAL_VARIABLE",
            "name": "pdfFlowType",
            "valuetype": "constant",
            "datatype": "string",
            "value": "\"\""
        }, {
            "id": "customcode_onClick_94194201224767169",
            "type": "INVOKE_FUNCTION",
            "sequenceKUID": "onClickDownloadTnC",
            "display": "onClickDownloadTnC",
            "inputparams": [{
                "name": "filetype",
                "value": "\"pdf\" "
            }, {
                "name": "filename",
                "value": "\"TMBEStatement\""
            }],
            "source": "module"
        }]
    }
}