{
    "p2kwiet2012247631720_btnBack1_onClick_seq0": {
        "id": "p2kwiet2012247631720_btnBack1_onClick_seq0",
        "type": "ACTION_SEQUENCE",
        "params": [{
            "name": "eventobject",
            "value": "eventobject"
        }],
        "language": "js",
        "actions": [{
            "id": "decision_onClick_1379320122476889",
            "type": "IF_CONDITION",
            "conditions": [{
                "leftValueType": "expression",
                "leftValue": "isMenuShown==false"
            }],
            "criteria": "all"
        }, {
            "id": "decision_onClick_8168201224769596",
            "type": "ELSE_CONDITION",
            "conditions": [],
            "criteria": "all"
        }, {
            "id": "customcode_onClick_4977220122476685",
            "type": "INVOKE_FUNCTION",
            "sequenceKUID": "MBcallMutualFundsSummary",
            "display": "MBcallMutualFundsSummary",
            "inputparams": [],
            "parentId": "decision_onClick_1379320122476889",
            "source": "module"
        }, {
            "id": "expression_onClick_10654201224768631",
            "type": "ADD_SNIPPET",
            "codeSnippet": "//kony.application.showLoadingScreen(frmLoading, \"\",constants.LOADING_SCREEN_POSITION_ONLY_CENTER, true, true, null);\n showLoadingScreen();\n frmMBMutualFundDetails.scrollboxMain.scrollToEnd();\n isMenuShown=false;\n kony.application.dismissLoadingScreen();",
            "parentId": "decision_onClick_8168201224769596"
        }]
    }
}