{
    "p2kwiet2012247629278_btnCancel_onClick_seq0": {
        "id": "p2kwiet2012247629278_btnCancel_onClick_seq0",
        "type": "ACTION_SEQUENCE",
        "params": [{
            "name": "eventobject",
            "value": "eventobject"
        }],
        "language": "js",
        "actions": [{
            "id": "alert_onClick_6675201224764809",
            "type": "SHOW_ALERT",
            "alertType": "constants.ALERT_TYPE_CONFIRMATION",
            "alertTitle": "Cancel Transaction",
            "yesLabel": "Yes",
            "noLabel": "No",
            "alertMessage": "Do you really wish to cancel?",
            "messageType": "constant",
            "alertTitlei18n": "",
            "yesLabeli18n": "",
            "noLabeli18n": "",
            "alertMessagei18n": "",
            "iconPosition": "constants.ALERT_ICON_POSITION_LEFT"
        }, {
            "id": "expression_onClick_10337201224761693",
            "type": "ADD_SNIPPET",
            "codeSnippet": "gblFirstTimeTopUp = true;",
            "parentId": "decision_onClick_27900201224768433"
        }, {
            "id": "navigation_onClick_36812201224768991",
            "type": "NAVIGATE_TO_FORM",
            "formId": "frmTopUp",
            "formKUID": "p2kwiet2012247637335",
            "mappings": {},
            "mappingsOrder": [],
            "parentId": "decision_onClick_27900201224768433",
            "enableMappingEditor": true,
            "package": ""
        }, {
            "id": "expression_onClick_99132201224767166",
            "type": "ADD_SNIPPET",
            "codeSnippet": "gblFirstTimeBillPayment = true;\n gblPaynow = true;",
            "parentId": "decision_onClick_35565201224768547"
        }, {
            "id": "navigation_onClick_63071201224769658",
            "type": "NAVIGATE_TO_FORM",
            "formKUID": "p2kwiet2012247627312",
            "mappings": {},
            "mappingsOrder": [],
            "parentId": "decision_onClick_35565201224768547",
            "enableMappingEditor": true
        }, {
            "id": "decision_onClick_35565201224768547",
            "type": "IF_CONDITION",
            "conditions": [{
                "leftValueType": "expression",
                "leftValue": "GblBillTopFlag"
            }],
            "parentId": "alert_onClick_6675201224764809",
            "callbackType": "True",
            "criteria": "all"
        }, {
            "id": "decision_onClick_27900201224768433",
            "type": "ELSE_CONDITION",
            "conditions": [],
            "parentId": "alert_onClick_6675201224764809",
            "callbackType": "True",
            "criteria": "all"
        }]
    }
}