{
    "p2kwiet2012247650486_button506459299657128_onClick_seq0": {
        "id": "p2kwiet2012247650486_button506459299657128_onClick_seq0",
        "type": "ACTION_SEQUENCE",
        "params": [{
            "name": "eventobject",
            "value": "eventobject"
        }],
        "language": "js",
        "actions": [{
            "id": "expression_onClick_21429201224768721",
            "type": "ADD_SNIPPET",
            "codeSnippet": "TMBCallPopup.dismiss();\n "
        }]
    }
}