{
    "p2kwiet2012247650076_txtOTP_onTextChange_seq0": {
        "id": "p2kwiet2012247650076_txtOTP_onTextChange_seq0",
        "type": "ACTION_SEQUENCE",
        "params": [{
            "name": "eventobject",
            "value": "eventobject"
        }, {
            "name": "changedtext",
            "value": "changedtext"
        }],
        "language": "js",
        "actions": [{
            "id": "customcode_onTextChange_60600201224764476",
            "type": "INVOKE_FUNCTION",
            "sequenceKUID": "otpConfirmEnable",
            "display": "otpConfirmEnable",
            "inputparams": [],
            "source": "module"
        }, {
            "id": "expression_onTextChange_83938201224763476",
            "type": "ADD_SNIPPET",
            "codeSnippet": " dontAllowNonNeumaricSPAMB(popOtpSpa.txtOTP)"
        }]
    }
}