{
    "p2kwiet2012247635184_btnbackSpa_onClick_seq0": {
        "id": "p2kwiet2012247635184_btnbackSpa_onClick_seq0",
        "type": "ACTION_SEQUENCE",
        "params": [{
            "name": "eventobject",
            "value": "eventobject"
        }],
        "language": "js",
        "actions": [{
            "id": "expression_onClick_30781201224766095",
            "type": "ADD_SNIPPET",
            "codeSnippet": "gblNotificationHistoryModified = true;"
        }, {
            "id": "navigation_onClick_94141201224769006",
            "type": "NAVIGATE_TO_FORM",
            "formId": "frmNotificationHome",
            "formKUID": "p2kwiet2012247635219",
            "mappings": {},
            "mappingsOrder": [],
            "parentId": "",
            "enableMappingEditor": true,
            "package": ""
        }]
    }
}