{
    "p2kwiet2012247632491_btnback_onClick_seq0": {
        "id": "p2kwiet2012247632491_btnback_onClick_seq0",
        "type": "ACTION_SEQUENCE",
        "params": [{
            "name": "eventobject",
            "value": "eventobject"
        }],
        "language": "js",
        "actions": [{
            "id": "customcode_onClick_59304201224769995",
            "type": "INVOKE_FUNCTION",
            "sequenceKUID": "onclickBackfrmMBReIssueDBProduct",
            "display": "onclickBackfrmMBReIssueDBProduct",
            "inputparams": [],
            "source": "module"
        }]
    }
}