{
    "p2kwiet2012247635627_txtAmount_iPhone_onEndEditing_seq0": {
        "id": "p2kwiet2012247635627_txtAmount_iPhone_onEndEditing_seq0",
        "type": "ACTION_SEQUENCE",
        "params": [{
            "name": "eventobject",
            "value": "eventobject"
        }, {
            "name": "changedtext",
            "value": "changedtext"
        }],
        "language": "js",
        "actions": [{
            "id": "expression_onEndEditing_23655201224765427",
            "type": "ADD_SNIPPET",
            "codeSnippet": "frmOpenAccountSavingCareMB.txtAmount.text = autoFormatAmount(frmOpenAccountSavingCareMB.txtAmount.text);"
        }]
    }
}