{
    "p2kwiet2012247633448_FlexContainer014b6bd1f18284e_onTouchStart_seq0": {
        "id": "p2kwiet2012247633448_FlexContainer014b6bd1f18284e_onTouchStart_seq0",
        "type": "ACTION_SEQUENCE",
        "params": [{
            "name": "eventobject",
            "value": "eventobject"
        }, {
            "name": "x",
            "value": "x"
        }, {
            "name": "y",
            "value": "y"
        }, {
            "name": "contextInfo",
            "value": "contextInfo"
        }],
        "language": "js",
        "actions": [{
            "id": "customcode_onTouchStart_92103201224765426",
            "type": "INVOKE_FUNCTION",
            "sequenceKUID": "onClickClosebuttonMenu",
            "display": "onClickClosebuttonMenu",
            "inputparams": [],
            "source": "module"
        }]
    }
}