{
    "p2kwiet2012247631565_btnConfirm_onClick_seq0": {
        "id": "p2kwiet2012247631565_btnConfirm_onClick_seq0",
        "type": "ACTION_SEQUENCE",
        "params": [{
            "name": "eventobject",
            "value": "eventobject"
        }],
        "language": "js",
        "actions": [{
            "id": "expression_onClick_40180201224761330",
            "type": "ADD_SNIPPET",
            "codeSnippet": "/*\n frmMBMyActivities.show();\n showCalendar(gsSelectedDate,frmMBMyActivities);\n */\n MBMyActivitiesShowCalendar();"
        }]
    }
}