{
    "p2kwiet2012247629833_btnActivationHelp_onClick_seq0": {
        "id": "p2kwiet2012247629833_btnActivationHelp_onClick_seq0",
        "type": "ACTION_SEQUENCE",
        "params": [{
            "name": "eventobject",
            "value": "eventobject"
        }],
        "language": "js",
        "actions": [{
            "id": "customcode_onClick_7732320122476216",
            "type": "INVOKE_FUNCTION",
            "sequenceKUID": "onclickActivationHelp",
            "display": "onclickActivationHelp",
            "inputparams": [],
            "source": "module"
        }, {
            "id": "navigation_onClick_30911201224761372",
            "type": "DISPLAY_POPUP",
            "popupId": "popupActivationHelp",
            "popupKUID": "p2kwiet2012247650162",
            "mappings": {},
            "mappingsOrder": [],
            "enableMappingEditor": true
        }]
    }
}