{
    "p2kwiet2012247635762_txtODTargetAmt_iPhone_onEndEditing_seq0": {
        "id": "p2kwiet2012247635762_txtODTargetAmt_iPhone_onEndEditing_seq0",
        "type": "ACTION_SEQUENCE",
        "params": [{
            "name": "eventobject",
            "value": "eventobject"
        }, {
            "name": "changedtext",
            "value": "changedtext"
        }],
        "language": "js",
        "actions": [{
            "id": "expression_onEndEditing_7048220122476961",
            "type": "ADD_SNIPPET",
            "codeSnippet": "var entAmt = frmOpenAcDreamSaving.txtODTargetAmt.text;\n var isCrtFormt;\n isCrtFormt = amountValidationMB(entAmt);\n if(!isCrtFormt){\n showAlert(kony.i18n.getLocalizedString(\"keyPleaseentercorrectamount\"), kony.i18n.getLocalizedString(\"info\"));\n return false\n }\n \n var indexdot=entAmt.indexOf(\".\");\n var decimal=\"\";\n var remAmt=\"\";\n kony.print(\"indexdot\" + indexdot);\n if(indexdot > 0)\n { decimal=entAmt.substr(indexdot);\n kony.print(\"decimal@@\" + decimal);\n if (decimal.length > 3){\n alert(\"Enter only 2 decimal values\");\n return false;\n }\n }\n frmOpenAcDreamSaving.txtODTargetAmt.skin= \"txtNormalBG\"\n var AddOpenBahtDreamOpen = frmOpenAcDreamSaving.txtODTargetAmt.text;\n frmOpenAcDreamSaving.txtODTargetAmt.text = commaFormattedOpenAct(AddOpenBahtDreamOpen)+ kony.i18n.getLocalizedString(\"currencyThaiBaht\")"
        }]
    }
}