{
    "p2kwiet2012247633010_hbox50285458140_onClick_seq0": {
        "id": "p2kwiet2012247633010_hbox50285458140_onClick_seq0",
        "type": "ACTION_SEQUENCE",
        "params": [{
            "name": "eventobject",
            "value": "eventobject"
        }],
        "language": "js",
        "actions": [{
            "id": "expression_onClick_9425201224766556",
            "type": "ADD_SNIPPET",
            "codeSnippet": "frmMBsetPasswd.hbox50285458140.skin = \"hboxBG\""
        }]
    }
}