{
    "p2kwiet2012247631318_btnReturnSPA_onClick_seq0": {
        "id": "p2kwiet2012247631318_btnReturnSPA_onClick_seq0",
        "type": "ACTION_SEQUENCE",
        "params": [{
            "name": "eventobject",
            "value": "eventobject"
        }],
        "language": "js",
        "actions": [{
            "id": "expression_onClick_11707201224768966",
            "type": "ADD_SNIPPET",
            "codeSnippet": "/* \n frmMBMyActivities.show();\n showCalendar(gsSelectedDate,frmMBMyActivities,1);\n */\n MBMyActivitiesReloadAndShowCalendar();"
        }]
    }
}