{
    "p2kwiet2012247627312_button475004897853_onClick_seq0": {
        "id": "p2kwiet2012247627312_button475004897853_onClick_seq0",
        "type": "ACTION_SEQUENCE",
        "params": [{
            "name": "eventobject",
            "value": "eventobject"
        }],
        "language": "js",
        "actions": [{
            "id": "customcode_onClick_93343201224762659",
            "type": "INVOKE_FUNCTION",
            "sequenceKUID": "fullMinSpecButtonColorSet",
            "display": "fullMinSpecButtonColorSet",
            "inputparams": [{
                "name": "eventObject",
                "value": "eventobject"
            }],
            "source": "module"
        }, {
            "id": "expression_onClick_68986201224764347",
            "type": "ADD_SNIPPET",
            "codeSnippet": "frmBillPayment.tbxAmount.setVisibility(true);\n frmBillPayment.tbxAmount.setEnabled(true);\n frmBillPayment.tbxAmount.setFocus(true);\n frmBillPayment.tbxAmount.text = fullAmt;\n frmBillPayment.tbxAmount.placeholder = \"0.00\";\n frmBillPayment.lblForFullPayment.setVisibility(false);\n gblFullPayment = false;\n \n "
        }]
    }
}