{
    "p2kwiet2012247626480_btnTransfer_onClick_seq0": {
        "id": "p2kwiet2012247626480_btnTransfer_onClick_seq0",
        "type": "ACTION_SEQUENCE",
        "params": [{
            "name": "eventobject",
            "value": "eventobject"
        }],
        "language": "js",
        "actions": [{
            "id": "customcode_onClick_86975201224763741",
            "type": "INVOKE_FUNCTION",
            "sequenceKUID": "onclickgetTransferFromAccountsFromAccDetails",
            "display": "onclickgetTransferFromAccountsFromAccDetails",
            "inputparams": [],
            "source": "module"
        }]
    }
}