{
    "p2kwiet2012247629011_btnEmailto_onClick_seq0": {
        "id": "p2kwiet2012247629011_btnEmailto_onClick_seq0",
        "type": "ACTION_SEQUENCE",
        "params": [{
            "name": "eventobject",
            "value": "eventobject"
        }],
        "language": "js",
        "actions": [{
            "id": "expression_onClick_71014201224764565",
            "type": "ADD_SNIPPET",
            "codeSnippet": "gblPOWcustNME = frmEditFutureBillPaymentComplete.lblFromAccountNickname.text\n gblPOWtransXN = \"EditFuturePayment\"\n gblPOWchannel = \"MB\"\n postOnWall()\n requestFromForm = \"frmEditFutureBillPaymentComplete\""
        }]
    }
}