{
    "p2kwiet2012247629260_btnBackFacebook_onClick_seq0": {
        "id": "p2kwiet2012247629260_btnBackFacebook_onClick_seq0",
        "type": "ACTION_SEQUENCE",
        "params": [{
            "name": "eventobject",
            "value": "eventobject"
        }],
        "language": "js",
        "actions": [{
            "id": "expression_onClick_63124201224764935",
            "type": "ADD_SNIPPET",
            "codeSnippet": "var form = kony.application.getPreviousForm();\n var condition = null;\n if(form.id.search(\"MyRecipient\") > 0){\n condition = \"1\";\n }\n else if(form.id == \"frmeditMyProfile\"){\n condition = \"2\";\n }\n else{\n condition = \"3\";\n }\n gblPOWstateTrack = true;"
        }, {
            "id": "decision_onClick_77888201224761179",
            "type": "IF_CONDITION",
            "conditions": [{
                "leftValueType": "expression",
                "leftValue": "condition == \"1\""
            }],
            "criteria": "all"
        }, {
            "id": "decision_onClick_37157201224766751",
            "type": "ELSE_CONDITION",
            "conditions": [],
            "criteria": "all"
        }, {
            "id": "customcode_onClick_71356201224767149",
            "type": "INVOKE_FUNCTION",
            "sequenceKUID": "postOnWallAfter",
            "display": "postOnWallAfter",
            "inputparams": [],
            "parentId": "decision_onClick_83788201224768102",
            "source": "module"
        }, {
            "id": "customcode_onClick_6003320122476388",
            "type": "INVOKE_FUNCTION",
            "sequenceKUID": "getFriendListFromFacebook",
            "display": "getFriendListFromFacebook",
            "inputparams": [{
                "name": "eventobject",
                "value": "eventobject"
            }],
            "parentId": "decision_onClick_77888201224761179",
            "source": "module"
        }, {
            "id": "expression_onClick_9716720122476883",
            "type": "ADD_SNIPPET",
            "codeSnippet": "gblMyFBdelinkTrack = true;",
            "parentId": "decision_onClick_29823201224766143"
        }, {
            "id": "customcode_onClick_93960201224763626",
            "type": "INVOKE_FUNCTION",
            "sequenceKUID": "fbprofileviewServiceCall",
            "display": "fbprofileviewServiceCall",
            "inputparams": [],
            "parentId": "decision_onClick_29823201224766143",
            "source": "module"
        }, {
            "id": "decision_onClick_29823201224766143",
            "type": "IF_CONDITION",
            "conditions": [{
                "leftValueType": "expression",
                "leftValue": "condition == \"2\""
            }],
            "parentId": "decision_onClick_37157201224766751",
            "criteria": "all"
        }, {
            "id": "decision_onClick_83788201224768102",
            "type": "ELSE_CONDITION",
            "conditions": [],
            "parentId": "decision_onClick_37157201224766751",
            "criteria": "all"
        }]
    }
}