{
    "p2kwiet2012247635060_hbxMore_onClick_seq0": {
        "id": "p2kwiet2012247635060_hbxMore_onClick_seq0",
        "type": "ACTION_SEQUENCE",
        "params": [{
            "name": "eventobject",
            "value": "eventobject"
        }],
        "language": "js",
        "actions": [{
            "id": "customcode_onClick_47118201224761968",
            "type": "INVOKE_FUNCTION",
            "sequenceKUID": "onMyTopUpSelectMoreDynamic",
            "display": "onMyTopUpSelectMoreDynamic",
            "inputparams": [{
                "name": "gblTopUpSelectFormDataHolder",
                "value": "gblTopUpSelectFormDataHolder"
            }],
            "source": "module"
        }]
    }
}