{
    "p2kwiet2012247634837_btnSearchRecipeints_onClick_seq0": {
        "id": "p2kwiet2012247634837_btnSearchRecipeints_onClick_seq0",
        "type": "ACTION_SEQUENCE",
        "params": [{
            "name": "eventobject",
            "value": "eventobject"
        }],
        "language": "js",
        "actions": [{
            "id": "customcode_onClick_82610201224769897",
            "type": "INVOKE_FUNCTION",
            "sequenceKUID": "searchContacts",
            "display": "searchContacts",
            "inputparams": [{
                "name": "eventobject",
                "value": "eventobject"
            }],
            "source": "module"
        }]
    }
}