{
    "p2kwiet2012247630022_frmMBAnyIdRegFail_preshow_seq0": {
        "id": "p2kwiet2012247630022_frmMBAnyIdRegFail_preshow_seq0",
        "type": "ACTION_SEQUENCE",
        "params": [{
            "name": "eventobject",
            "value": "eventobject"
        }, {
            "name": "neworientation",
            "value": "neworientation"
        }],
        "language": "js",
        "actions": [{
            "id": "customcode_preshow_8781201224767913",
            "type": "INVOKE_FUNCTION",
            "sequenceKUID": "frmMBAnyIdRegFailMenuPreshow",
            "display": "frmMBAnyIdRegFailMenuPreshow",
            "inputparams": [],
            "source": "module"
        }]
    }
}