{
    "p2kwiet2012247634290_frmMyRecipientDetail_preshow_seq0": {
        "id": "p2kwiet2012247634290_frmMyRecipientDetail_preshow_seq0",
        "type": "ACTION_SEQUENCE",
        "params": [{
            "name": "eventobject",
            "value": "eventobject"
        }, {
            "name": "neworientation",
            "value": "neworientation"
        }],
        "language": "js",
        "actions": [{
            "id": "customcode_preshow_6671220122476267",
            "type": "INVOKE_FUNCTION",
            "sequenceKUID": "frmMyRecipientDetailMenuPreshow",
            "display": "frmMyRecipientDetailMenuPreshow",
            "inputparams": [],
            "source": "module"
        }]
    }
}