{
    "p2kwiet2012247632223_txtPointsBeingRedeemed_SPA_onEndEditing_seq0": {
        "id": "p2kwiet2012247632223_txtPointsBeingRedeemed_SPA_onEndEditing_seq0",
        "type": "ACTION_SEQUENCE",
        "params": [{
            "name": "eventobject",
            "value": "eventobject"
        }, {
            "name": "changedtext",
            "value": "changedtext"
        }],
        "language": "js",
        "actions": [{
            "id": "customcode_onEndEditing_31397201224765051",
            "type": "INVOKE_FUNCTION",
            "sequenceKUID": "checkRedeemPointsMoreAvailablePoints",
            "display": "checkRedeemPointsMoreAvailablePoints",
            "inputparams": [],
            "source": "module"
        }, {
            "id": "expression_onEndEditing_4676420122476884",
            "type": "ADD_SNIPPET",
            "codeSnippet": "var redeemPoints = frmMBPointRedemptionLanding.txtPointsBeingRedeemed.text;\n if(redeemPoints != \"\")\n frmMBPointRedemptionLanding.txtPointsBeingRedeemed.text = commaFormattedPoints(Number(redeemPoints));\n else\n frmMBPointRedemptionLanding.txtPointsBeingRedeemed.text = \"\";"
        }]
    }
}