{
    "p2kwiet2012247635380_btnEmailto_onClick_seq0": {
        "id": "p2kwiet2012247635380_btnEmailto_onClick_seq0",
        "type": "ACTION_SEQUENCE",
        "params": [{
            "name": "eventobject",
            "value": "eventobject"
        }],
        "language": "js",
        "actions": [{
            "id": "expression_onClick_67194201224766670",
            "type": "ADD_SNIPPET",
            "codeSnippet": "requestFromForm = \"frmOpenAccountNSConfirmation\";\n \n "
        }, {
            "id": "customcode_onClick_69007201224766656",
            "type": "INVOKE_FUNCTION",
            "sequenceKUID": "postOnWall",
            "display": "postOnWall",
            "inputparams": [],
            "source": "module"
        }]
    }
}