{
    "p2kwiet2012247630700_frmMBCashAdvanceTnC_postshow_seq0": {
        "id": "p2kwiet2012247630700_frmMBCashAdvanceTnC_postshow_seq0",
        "type": "ACTION_SEQUENCE",
        "params": [{
            "name": "eventobject",
            "value": "eventobject"
        }],
        "language": "js",
        "actions": [{
            "id": "customcode_postshow_85818201224768219",
            "type": "INVOKE_FUNCTION",
            "sequenceKUID": "frmMBCashAdvanceTnCMenuPostshow",
            "display": "frmMBCashAdvanceTnCMenuPostshow",
            "inputparams": [],
            "source": "module"
        }]
    }
}