{
    "p2kwiet2012247637405_txbXferSearch_onTextChange_seq0": {
        "id": "p2kwiet2012247637405_txbXferSearch_onTextChange_seq0",
        "type": "ACTION_SEQUENCE",
        "params": [{
            "name": "eventobject",
            "value": "eventobject"
        }, {
            "name": "changedtext",
            "value": "changedtext"
        }],
        "language": "js",
        "actions": [{
            "id": "customcode_onTextChange_34168201224768849",
            "type": "INVOKE_FUNCTION",
            "sequenceKUID": "searchTransferToRecipient",
            "display": "searchTransferToRecipient",
            "inputparams": [{
                "name": "eventObject",
                "value": "eventobject"
            }, {
                "name": "searchType",
                "value": "\"1\""
            }],
            "source": "module"
        }]
    }
}