{
    "p2kwiet2012247634505_textbox247327209467957_Android_onBeginEditing_seq0": {
        "id": "p2kwiet2012247634505_textbox247327209467957_Android_onBeginEditing_seq0",
        "type": "ACTION_SEQUENCE",
        "params": [{
            "name": "eventobject",
            "value": "eventobject"
        }, {
            "name": "changedtext",
            "value": "changedtext"
        }],
        "language": "js",
        "actions": [{
            "id": "expression_onBeginEditing_31019201224765155",
            "type": "ADD_SNIPPET",
            "codeSnippet": "frmMyRecipients.textbox247327209467957.skin=\"txtSearchboxBigFont\";\n frmMyRecipients.textbox247327209467957.text=\"\";"
        }]
    }
}