{
    "p2kwiet2012247628486_button473361467785889_onClick_seq0": {
        "id": "p2kwiet2012247628486_button473361467785889_onClick_seq0",
        "type": "ACTION_SEQUENCE",
        "params": [{
            "name": "eventobject",
            "value": "eventobject"
        }],
        "language": "js",
        "actions": [{
            "id": "decision_onClick_48030201224761014",
            "type": "IF_CONDITION",
            "conditions": [{
                "leftValueType": "expression",
                "leftValue": "flowSpa"
            }],
            "criteria": "all"
        }, {
            "id": "decision_onClick_2347201224769953",
            "type": "ELSE_CONDITION",
            "conditions": [],
            "criteria": "all"
        }, {
            "id": "customcode_onClick_64600201224767997",
            "type": "INVOKE_FUNCTION",
            "sequenceKUID": "validateSpaChangeUserId",
            "display": "validateSpaChangeUserId",
            "inputparams": [],
            "parentId": "decision_onClick_48030201224761014",
            "source": "module"
        }, {
            "id": "expression_onClick_85751201224768034",
            "type": "ADD_SNIPPET",
            "codeSnippet": "//if(gblShowPwd ==3){\n //alert(\"Entered wrong Current PIN 3 times\")\n //isSignedUser = false;\n //invokeLogoutService();\n //return false;\n //}\n \n \n ",
            "parentId": "decision_onClick_2347201224769953"
        }, {
            "id": "customcode_onClick_7870201224765142",
            "type": "INVOKE_FUNCTION",
            "sequenceKUID": "chngAccepin",
            "display": "chngAccepin",
            "inputparams": [],
            "parentId": "decision_onClick_2347201224769953",
            "source": "module"
        }]
    }
}