{
    "p2kwiet2012247629833_btnHdrMenu_onClick_seq0": {
        "id": "p2kwiet2012247629833_btnHdrMenu_onClick_seq0",
        "type": "ACTION_SEQUENCE",
        "params": [{
            "name": "eventobject",
            "value": "eventobject"
        }],
        "language": "js",
        "actions": [{
            "id": "customcode_onClick_9285201224767480",
            "type": "INVOKE_FUNCTION",
            "sequenceKUID": "handleMenuBtn",
            "display": "handleMenuBtn",
            "inputparams": [],
            "source": "module"
        }, {
            "id": "expression_onClick_9970201224769281",
            "type": "ADD_SNIPPET",
            "codeSnippet": "frmMBActivation.btnHdrMenu.setFocus(true);\n "
        }]
    }
}