{
    "p2kwiet15245716321099_btnSpecified2_onClick_seq0": {
        "id": "p2kwiet15245716321099_btnSpecified2_onClick_seq0",
        "type": "ACTION_SEQUENCE",
        "params": [{
            "name": "eventobject",
            "value": "eventobject"
        }],
        "language": "js",
        "actions": [{
            "id": "customcode_onClick_1440215245716329375",
            "type": "INVOKE_FUNCTION",
            "sequenceKUID": "fullSpecButtonColorSet",
            "display": "fullSpecButtonColorSet",
            "inputparams": [{
                "name": "eventObject",
                "value": "eventobject"
            }],
            "source": "module"
        }, {
            "id": "expression_onClick_255815245716327481",
            "type": "ADD_SNIPPET",
            "codeSnippet": "frmBillPayment.tbxAmount.setVisibility(true);\n frmBillPayment.tbxAmount.setEnabled(true);\n frmBillPayment.tbxAmount.placeholder = \"0.00\";\n frmBillPayment.tbxAmount.setFocus(true);\n frmBillPayment.lblForFullPayment.setVisibility(false);\n frmBillPayment.tbxAmount.text = commaFormatted(fullAmt);\n gblFullPayment = false;\n "
        }]
    }
}