{
    "p2kwiet2012247630488_frmMBBlockCardRecommendation_postshow_seq0": {
        "id": "p2kwiet2012247630488_frmMBBlockCardRecommendation_postshow_seq0",
        "type": "ACTION_SEQUENCE",
        "params": [{
            "name": "eventobject",
            "value": "eventobject"
        }],
        "language": "js",
        "actions": [{
            "id": "customcode_postshow_84831201224768073",
            "type": "INVOKE_FUNCTION",
            "sequenceKUID": "frmMBBlockCardRecommendationMenuPostshow",
            "display": "frmMBBlockCardRecommendationMenuPostshow",
            "inputparams": [],
            "source": "module"
        }]
    }
}