{
    "p2kwiet2012247650125_popTransactionPwd_init_seq0": {
        "id": "p2kwiet2012247650125_popTransactionPwd_init_seq0",
        "type": "ACTION_SEQUENCE",
        "params": [{
            "name": "eventobject",
            "value": "eventobject"
        }, {
            "name": "neworientation",
            "value": "neworientation"
        }],
        "language": "js",
        "actions": [{
            "id": "customcode_init_75808201224769717",
            "type": "INVOKE_FUNCTION",
            "sequenceKUID": "ehPopTransactionPwd_popTransactionPwd_init",
            "display": "ehPopTransactionPwd_popTransactionPwd_init",
            "inputparams": [],
            "source": "module"
        }]
    }
}