{
    "p2kwiet2012247627519_vbxLine_onClick_seq0": {
        "id": "p2kwiet2012247627519_vbxLine_onClick_seq0",
        "type": "ACTION_SEQUENCE",
        "params": [{
            "name": "eventobject",
            "value": "eventobject"
        }],
        "language": "js",
        "actions": [{
            "id": "decision_onClick_90769201224768683",
            "type": "IF_CONDITION",
            "conditions": [{
                "leftValueType": "expression",
                "leftValue": "gblMyBillerTopUpBB==\"0\""
            }],
            "criteria": "all"
        }, {
            "id": "decision_onClick_37258201224765749",
            "type": "ELSE_CONDITION",
            "conditions": [],
            "criteria": "all"
        }, {
            "id": "customcode_onClick_67955201224767390",
            "type": "INVOKE_FUNCTION",
            "sequenceKUID": "shareIntentCall",
            "display": "shareIntentCall",
            "inputparams": [{
                "name": "inputmessage",
                "value": "\"line\""
            }, {
                "name": "flow",
                "value": "\"BillPayment\""
            }],
            "parentId": "decision_onClick_90769201224768683",
            "source": "module"
        }, {
            "id": "customcode_onClick_68560201224768544",
            "type": "INVOKE_FUNCTION",
            "sequenceKUID": "shareIntentCall",
            "display": "shareIntentCall",
            "inputparams": [{
                "name": "inputmessage",
                "value": "\"line\""
            }, {
                "name": "flow",
                "value": "\"TOPUpPayment\""
            }],
            "parentId": "decision_onClick_37258201224765749",
            "source": "module"
        }]
    }
}