{
    "p2kwiet2012247650395_btnPayBillCancil_onClick_seq0": {
        "id": "p2kwiet2012247650395_btnPayBillCancil_onClick_seq0",
        "type": "ACTION_SEQUENCE",
        "params": [{
            "name": "eventobject",
            "value": "eventobject"
        }],
        "language": "js",
        "actions": [{
            "id": "expression_onClick_23637201224765619",
            "type": "ADD_SNIPPET",
            "codeSnippet": "popUpPayBillFromSummary.destroy();\n "
        }]
    }
}