{
    "p2kwiet2012247630976_btnRight_onClick_seq0": {
        "id": "p2kwiet2012247630976_btnRight_onClick_seq0",
        "type": "ACTION_SEQUENCE",
        "params": [{
            "name": "eventobject",
            "value": "eventobject"
        }],
        "language": "js",
        "actions": [{
            "id": "expression_onClick_48622201224765797",
            "type": "ADD_SNIPPET",
            "codeSnippet": "gblFromEStatementEdit=true;"
        }, {
            "id": "navigation_onClick_45279201224769315",
            "type": "NAVIGATE_TO_FORM",
            "formId": "frmMBEStatementLanding",
            "formKUID": "p2kwiet2012247631019",
            "mappings": {},
            "mappingsOrder": [],
            "parentId": "",
            "enableMappingEditor": true,
            "package": ""
        }]
    }
}