{
    "p2kwiet2012247635149_hboxaddfblist_onClick_seq0": {
        "id": "p2kwiet2012247635149_hboxaddfblist_onClick_seq0",
        "type": "ACTION_SEQUENCE",
        "params": [{
            "name": "eventobject",
            "value": "eventobject"
        }],
        "language": "js",
        "actions": [{
            "id": "customcode_onClick_56468201224764430",
            "type": "INVOKE_FUNCTION",
            "sequenceKUID": "ehFrmTMBTransAck_hboxaddfblist_onClick",
            "display": "ehFrmTMBTransAck_hboxaddfblist_onClick",
            "inputparams": [],
            "source": "module"
        }]
    }
}