{
    "p2kwiet2012247634553_textbox286685406430472_Android_onBeginEditing_seq0": {
        "id": "p2kwiet2012247634553_textbox286685406430472_Android_onBeginEditing_seq0",
        "type": "ACTION_SEQUENCE",
        "params": [{
            "name": "eventobject",
            "value": "eventobject"
        }, {
            "name": "changedtext",
            "value": "changedtext"
        }],
        "language": "js",
        "actions": [{
            "id": "expression_onBeginEditing_6253201224769017",
            "type": "ADD_SNIPPET",
            "codeSnippet": "frmMyRecipientSelectContacts.textbox286685406430472.skin=\"txtSearchboxBigFont\";\n frmMyRecipientSelectContacts.textbox286685406430472.text=\"\""
        }]
    }
}