{
    "p2kwiet2012247634624_button4733076529054_onClick_seq0": {
        "id": "p2kwiet2012247634624_button4733076529054_onClick_seq0",
        "type": "ACTION_SEQUENCE",
        "params": [{
            "name": "eventobject",
            "value": "eventobject"
        }],
        "language": "js",
        "actions": [{
            "id": "expression_onClick_90880201224763078",
            "type": "ADD_SNIPPET",
            "codeSnippet": "multiSelectedContacts.length=0;"
        }, {
            "id": "navigation_onClick_32350201224762559",
            "type": "NAVIGATE_TO_FORM",
            "formId": "frmMyRecipients",
            "formKUID": "p2kwiet2012247634505",
            "mappings": {},
            "mappingsOrder": [],
            "parentId": "",
            "enableMappingEditor": true,
            "package": ""
        }]
    }
}