{
    "p2kwiet2012247637673_vbxSelRecipient_onClick_seq0": {
        "id": "p2kwiet2012247637673_vbxSelRecipient_onClick_seq0",
        "type": "ACTION_SEQUENCE",
        "params": [{
            "name": "eventobject",
            "value": "eventobject"
        }],
        "language": "js",
        "actions": [{
            "id": "customcode_onClick_15009201224762853",
            "type": "INVOKE_FUNCTION",
            "sequenceKUID": "ehFrmTransferLanding_btnTranLandToSel_onClick",
            "display": "ehFrmTransferLanding_btnTranLandToSel_onClick",
            "inputparams": [],
            "source": "module"
        }]
    }
}