{
    "p2kwiet2012247628742_lblMnthTODReamVal_Android_onEndEditing_seq0": {
        "id": "p2kwiet2012247628742_lblMnthTODReamVal_Android_onEndEditing_seq0",
        "type": "ACTION_SEQUENCE",
        "params": [{
            "name": "eventobject",
            "value": "eventobject"
        }, {
            "name": "changedtext",
            "value": "changedtext"
        }],
        "language": "js",
        "actions": [{
            "id": "customcode_onEndEditing_83910201224766315",
            "type": "INVOKE_FUNCTION",
            "sequenceKUID": "calMonthlySavingCalculator",
            "display": "calMonthlySavingCalculator",
            "inputparams": [],
            "source": "module"
        }, {
            "id": "expression_onEndEditing_25000201224764835",
            "type": "ADD_SNIPPET",
            "codeSnippet": "frmDreamCalculator.lblMnthTODReamVal.skin=\"txtNormalBG\""
        }]
    }
}