{
    "p2kwiet2012247627099_frmATMBranch_postshow_seq0": {
        "id": "p2kwiet2012247627099_frmATMBranch_postshow_seq0",
        "type": "ACTION_SEQUENCE",
        "params": [{
            "name": "eventobject",
            "value": "eventobject"
        }, {
            "name": "neworientation",
            "value": "neworientation"
        }],
        "language": "js",
        "actions": [{
            "id": "customcode_postshow_50396201224761973",
            "type": "INVOKE_FUNCTION",
            "sequenceKUID": "frmATMBranchMenuPostshow",
            "display": "frmATMBranchMenuPostshow",
            "inputparams": [],
            "source": "module"
        }]
    }
}