{
    "p2kwiet2012247633717_button450155142484043_onClick_seq0": {
        "id": "p2kwiet2012247633717_button450155142484043_onClick_seq0",
        "type": "ACTION_SEQUENCE",
        "params": [{
            "name": "eventobject",
            "value": "eventobject"
        }],
        "language": "js",
        "actions": [{
            "id": "customcode_onClick_45605201224761843",
            "type": "INVOKE_FUNCTION",
            "sequenceKUID": "ftrCancelConfimation",
            "display": "ftrCancelConfimation",
            "inputparams": [],
            "source": "module"
        }]
    }
}