{
    "p2kwiet2012247626596_btnm3_onClick_seq0": {
        "id": "p2kwiet2012247626596_btnm3_onClick_seq0",
        "type": "ACTION_SEQUENCE",
        "params": [{
            "name": "eventobject",
            "value": "eventobject"
        }],
        "language": "js",
        "actions": [{
            "id": "customcode_onClick_71504201224767094",
            "type": "INVOKE_FUNCTION",
            "sequenceKUID": "onMonth3Click",
            "display": "onMonth3Click",
            "inputparams": [],
            "source": "module"
        }, {
            "id": "customcode_onClick_28718201224761311",
            "type": "INVOKE_FUNCTION",
            "sequenceKUID": "getDateFormatStmt",
            "display": "getDateFormatStmt",
            "inputparams": [{
                "name": "btntext",
                "value": "frmAccountStatementMB.btnm3.text "
            }, {
                "name": "btnno",
                "value": "\"2\" "
            }],
            "source": "module"
        }]
    }
}