{
    "p2kwiet2012247635762_txtODMnthSavAmt_onDone_seq0": {
        "id": "p2kwiet2012247635762_txtODMnthSavAmt_onDone_seq0",
        "type": "ACTION_SEQUENCE",
        "params": [{
            "name": "eventobject",
            "value": "eventobject"
        }, {
            "name": "changedtext",
            "value": "changedtext"
        }],
        "language": "js",
        "actions": [{
            "id": "expression_onDone_32795201224764037",
            "type": "ADD_SNIPPET",
            "codeSnippet": "kony.print(\"firing ondone @@@\")"
        }]
    }
}