{
    "p2kwiet2012247632653_frmMBSavingsCareAddNickName_preshow_seq0": {
        "id": "p2kwiet2012247632653_frmMBSavingsCareAddNickName_preshow_seq0",
        "type": "ACTION_SEQUENCE",
        "params": [{
            "name": "eventobject",
            "value": "eventobject"
        }],
        "language": "js",
        "actions": [{
            "id": "customcode_preshow_70049201224761687",
            "type": "INVOKE_FUNCTION",
            "sequenceKUID": "frmMBSavingsCareAddNickNameMenuPreshow",
            "display": "frmMBSavingsCareAddNickNameMenuPreshow",
            "inputparams": [],
            "source": "module"
        }]
    }
}