{
    "p2kwiet2012247637118_btnWeekly_onClick_seq0": {
        "id": "p2kwiet2012247637118_btnWeekly_onClick_seq0",
        "type": "ACTION_SEQUENCE",
        "params": [{
            "name": "eventobject",
            "value": "eventobject"
        }],
        "language": "js",
        "actions": [{
            "id": "expression_onClick_1781201224761271",
            "type": "ADD_SNIPPET",
            "codeSnippet": "frmScheduleBillPayEditFuture.lblEnd.setVisibility(true);\n frmScheduleBillPayEditFuture.hbxEndAfterButtonHolder.setVisibility(true);\n frmScheduleBillPayEditFuture.lineUntil.setVisibility(true);"
        }, {
            "id": "customcode_onClick_71337201224767803",
            "type": "INVOKE_FUNCTION",
            "sequenceKUID": "repeatScheduleFrequencyMB",
            "display": "repeatScheduleFrequencyMB",
            "inputparams": [{
                "name": "eventObject",
                "value": "eventobject"
            }],
            "source": "module"
        }]
    }
}