{
    "p2kwiet15245716321099_btnNext_onClick_seq0": {
        "id": "p2kwiet15245716321099_btnNext_onClick_seq0",
        "type": "ACTION_SEQUENCE",
        "params": [{
            "name": "eventobject",
            "value": "eventobject"
        }],
        "language": "js",
        "actions": [{
            "id": "customcode_onClick_1891315245716324770",
            "type": "INVOKE_FUNCTION",
            "sequenceKUID": "validateChannelMBBillPay",
            "display": "validateChannelMBBillPay",
            "inputparams": [],
            "source": "module"
        }, {
            "id": "customcode_onClick_565415245716329367",
            "type": "INVOKE_FUNCTION",
            "sequenceKUID": "getAccountNameOfUser",
            "display": "getAccountNameOfUser",
            "inputparams": [{
                "name": "accountNum",
                "value": "frmBillPayment[\"segSlider\"][\"selectedItems\"][0].lblActNoval"
            }],
            "source": "module"
        }]
    }
}