{
    "p2kwiet2012247632512_btnConfirm_onClick_seq0": {
        "id": "p2kwiet2012247632512_btnConfirm_onClick_seq0",
        "type": "ACTION_SEQUENCE",
        "params": [{
            "name": "eventobject",
            "value": "eventobject"
        }],
        "language": "js",
        "actions": [{
            "id": "customcode_onClick_76581201224766256",
            "type": "INVOKE_FUNCTION",
            "sequenceKUID": "onClickConfirmOfRequestNewPinConfirmScreen",
            "display": "onClickConfirmOfRequestNewPinConfirmScreen",
            "inputparams": [],
            "source": "module"
        }]
    }
}