{
    "p2kwiet2012247636763_segNSSlider_onswipe_seq0": {
        "id": "p2kwiet2012247636763_segNSSlider_onswipe_seq0",
        "type": "ACTION_SEQUENCE",
        "params": [{
            "name": "seguiWidget",
            "value": "seguiWidget"
        }, {
            "name": "sectionIndex",
            "value": "sectionIndex"
        }, {
            "name": "rowIndex",
            "value": "rowIndex"
        }],
        "language": "js",
        "actions": [{
            "id": "preprocessdecision_onswipe_38547201224767093",
            "type": "CHANNEL_CONDITION",
            "platforms": ["android", "iphone"]
        }, {
            "id": "expression_onswipe_40957201224762193",
            "type": "ADD_SNIPPET",
            "codeSnippet": "var modScroll = new getOPenActMBIndex();\n modScroll.paginationSwitch( sectionIndex, rowIndex,frmOpnActSelAct.segNSSlider );\n ",
            "parentId": "preprocessdecision_onswipe_38547201224767093"
        }]
    }
}