{
    "p2kwiet2012247628524_txtConfirmPassword_onTextChange_seq0": {
        "id": "p2kwiet2012247628524_txtConfirmPassword_onTextChange_seq0",
        "type": "ACTION_SEQUENCE",
        "params": [{
            "name": "eventobject",
            "value": "eventobject"
        }, {
            "name": "changedtext",
            "value": "changedtext"
        }],
        "language": "js",
        "actions": []
    }
}