{
    "p2kwiet2012247637527_frmTransferConfirm_preshow_seq0": {
        "id": "p2kwiet2012247637527_frmTransferConfirm_preshow_seq0",
        "type": "ACTION_SEQUENCE",
        "params": [{
            "name": "eventobject",
            "value": "eventobject"
        }, {
            "name": "neworientation",
            "value": "neworientation"
        }],
        "language": "js",
        "actions": [{
            "id": "customcode_preshow_96829201224763731",
            "type": "INVOKE_FUNCTION",
            "sequenceKUID": "frmTransferConfirmMenuPreshow",
            "display": "frmTransferConfirmMenuPreshow",
            "inputparams": [],
            "source": "module"
        }]
    }
}