{
    "p2kwiet2012247637335_txtNickName_onDone_seq0": {
        "id": "p2kwiet2012247637335_txtNickName_onDone_seq0",
        "type": "ACTION_SEQUENCE",
        "params": [{
            "name": "eventobject",
            "value": "eventobject"
        }, {
            "name": "changedtext",
            "value": "changedtext"
        }],
        "language": "js",
        "actions": [{
            "id": "customcode_onDone_18586201224761691",
            "type": "INVOKE_FUNCTION",
            "sequenceKUID": "onDoneEditingAmountTopUp",
            "display": "onDoneEditingAmountTopUp",
            "inputparams": [],
            "source": "module"
        }]
    }
}