{
    "p2kwiet2012247629606_btnCancelActivation_onClick_seq0": {
        "id": "p2kwiet2012247629606_btnCancelActivation_onClick_seq0",
        "type": "ACTION_SEQUENCE",
        "params": [{
            "name": "eventobject",
            "value": "eventobject"
        }],
        "language": "js",
        "actions": [{
            "id": "customcode_onClick_63845201224768714",
            "type": "INVOKE_FUNCTION",
            "sequenceKUID": "ActivationMBViaIBLogoutService",
            "display": "ActivationMBViaIBLogoutService",
            "inputparams": [],
            "source": "module"
        }]
    }
}