{
    "p2kwiet2012247636716_btnEdit_onClick_seq0": {
        "id": "p2kwiet2012247636716_btnEdit_onClick_seq0",
        "type": "ACTION_SEQUENCE",
        "params": [{
            "name": "eventobject",
            "value": "eventobject"
        }],
        "language": "js",
        "actions": [{
            "id": "expression_onClick_19683201224767661",
            "type": "ADD_SNIPPET",
            "codeSnippet": "editbuttonflag=\"profile\";\n gblOpenProdAddress = false;\n "
        }, {
            "id": "customcode_onClick_88304201224763917",
            "type": "INVOKE_FUNCTION",
            "sequenceKUID": "getMBEditContactStatus",
            "display": "getMBEditContactStatus",
            "inputparams": [],
            "source": "module"
        }]
    }
}