{
    "p2kwiet2012247650194_txtBillerNickName_iPhone_onEndEditing_seq0": {
        "id": "p2kwiet2012247650194_txtBillerNickName_iPhone_onEndEditing_seq0",
        "type": "ACTION_SEQUENCE",
        "params": [{
            "name": "eventobject",
            "value": "eventobject"
        }, {
            "name": "changedtext",
            "value": "changedtext"
        }],
        "language": "js",
        "actions": [{
            "id": "customcode_onEndEditing_41862201224767947",
            "type": "INVOKE_FUNCTION",
            "sequenceKUID": "onDoneAddToMyBillsInputBillerNickName",
            "display": "onDoneAddToMyBillsInputBillerNickName",
            "inputparams": [],
            "source": "module"
        }]
    }
}