{
    "p2kwiet2012247631318_btnRight_onClick_seq0": {
        "id": "p2kwiet2012247631318_btnRight_onClick_seq0",
        "type": "ACTION_SEQUENCE",
        "params": [{
            "name": "eventobject",
            "value": "eventobject"
        }],
        "language": "js",
        "actions": [{
            "id": "customcode_onClick_58233201224763737",
            "type": "INVOKE_FUNCTION",
            "sequenceKUID": "ehFrmMBFTEditCmplete_btnRight_onClick",
            "display": "ehFrmMBFTEditCmplete_btnRight_onClick",
            "inputparams": [],
            "source": "module"
        }]
    }
}