{
    "p2kwiet2012247628921_button474230331217989_onClick_seq0": {
        "id": "p2kwiet2012247628921_button474230331217989_onClick_seq0",
        "type": "ACTION_SEQUENCE",
        "params": [{
            "name": "eventobject",
            "value": "eventobject"
        }],
        "language": "js",
        "actions": [{
            "id": "preprocessdecision_onClick_62934201224768484",
            "type": "CHANNEL_CONDITION",
            "platforms": ["j2me", "bb", "bb10", "winphone8", "palm", "android", "iphone", "winmobile", "symbian", "winmobile6x"],
            "disabled": true
        }, {
            "id": "customcode_onClick_43083201224766230",
            "type": "INVOKE_FUNCTION",
            "sequenceKUID": "EditContactsValidatn",
            "display": "EditContactsValidatn",
            "inputparams": [],
            "source": "module"
        }, {
            "id": "expression_onClick_3556201224762190",
            "type": "ADD_SNIPPET",
            "codeSnippet": "popupTractPwd.tbxPopupTractPwdtxtTranscPwd.skin = tbxPopupBlue;\n popupTractPwd.tbxPopupTractPwdtxtTranscPwd.focusSkin = tbxPopupBlue;\n popupTractPwd.tbxPopupTractPwdtxtTranscPwd.text = \"\";",
            "parentId": "preprocessdecision_onClick_62934201224768484"
        }]
    }
}