{
    "p2kwiet2012247633010_txtTempAccess_onDone_seq0": {
        "id": "p2kwiet2012247633010_txtTempAccess_onDone_seq0",
        "type": "ACTION_SEQUENCE",
        "params": [{
            "name": "eventobject",
            "value": "eventobject"
        }, {
            "name": "changedtext",
            "value": "changedtext"
        }],
        "language": "js",
        "actions": [{
            "id": "expression_onDone_1899920122476935",
            "type": "ADD_SNIPPET",
            "codeSnippet": "//popAccessPinBubble.dismiss()\n frmMBsetPasswd.hbox50285458140.skin = \"NoSkin\"\n \n "
        }]
    }
}