{
    "p2kwiet2012247636306_vbox473361467796307_onClick_seq0": {
        "id": "p2kwiet2012247636306_vbox473361467796307_onClick_seq0",
        "type": "ACTION_SEQUENCE",
        "params": [{
            "name": "eventobject",
            "value": "eventobject"
        }],
        "language": "js",
        "actions": [{
            "id": "customcode_onClick_37365201224768449",
            "type": "INVOKE_FUNCTION",
            "sequenceKUID": "setDataForUse",
            "display": "setDataForUse",
            "inputparams": [],
            "source": "module"
        }]
    }
}