{
    "p2kwiet2012247631019_txtEStatementEmail_onDone_seq0": {
        "id": "p2kwiet2012247631019_txtEStatementEmail_onDone_seq0",
        "type": "ACTION_SEQUENCE",
        "params": [{
            "name": "eventobject",
            "value": "eventobject"
        }, {
            "name": "changedtext",
            "value": "changedtext"
        }],
        "language": "js",
        "actions": [{
            "id": "preprocessdecision_onDone_22794201224764116",
            "type": "CHANNEL_CONDITION",
            "platforms": ["android"]
        }, {
            "id": "customcode_onDone_64339201224762151",
            "type": "INVOKE_FUNCTION",
            "sequenceKUID": "checkEmailFormatEstatement",
            "display": "checkEmailFormatEstatement",
            "inputparams": [],
            "parentId": "preprocessdecision_onDone_22794201224764116",
            "source": "module"
        }]
    }
}