{
    "p2kwiet2012247632423_btnCancel_onClick_seq0": {
        "id": "p2kwiet2012247632423_btnCancel_onClick_seq0",
        "type": "ACTION_SEQUENCE",
        "params": [{
            "name": "eventobject",
            "value": "eventobject"
        }],
        "language": "js",
        "actions": [{
            "id": "customcode_onClick_88442201224762643",
            "type": "INVOKE_FUNCTION",
            "sequenceKUID": "onClickBackEStatement",
            "display": "onClickBackEStatement",
            "inputparams": [],
            "source": "module"
        }]
    }
}