{
    "p2kwiet2012247629441_cbxDateTime_onSelection_seq0": {
        "id": "p2kwiet2012247629441_cbxDateTime_onSelection_seq0",
        "type": "ACTION_SEQUENCE",
        "params": [{
            "name": "eventobject",
            "value": "eventobject"
        }],
        "language": "js",
        "actions": [{
            "id": "customcode_onSelection_51264201224762490",
            "type": "INVOKE_FUNCTION",
            "sequenceKUID": "popupSortTypeFunc",
            "display": "popupSortTypeFunc",
            "inputparams": [],
            "source": "module"
        }]
    }
}