{
    "p2kwiet2012247631720_frmMBMutualFundDetails_preshow_seq0": {
        "id": "p2kwiet2012247631720_frmMBMutualFundDetails_preshow_seq0",
        "type": "ACTION_SEQUENCE",
        "params": [{
            "name": "eventobject",
            "value": "eventobject"
        }, {
            "name": "neworientation",
            "value": "neworientation"
        }],
        "language": "js",
        "actions": [{
            "id": "customcode_preshow_82616201224769335",
            "type": "INVOKE_FUNCTION",
            "sequenceKUID": "frmMBMutualFundDetailsMenuPreshow",
            "display": "frmMBMutualFundDetailsMenuPreshow",
            "inputparams": [],
            "source": "module"
        }]
    }
}