{
    "p2kwiet2012247630547_frmMBBlockCCReason_postshow_seq0": {
        "id": "p2kwiet2012247630547_frmMBBlockCCReason_postshow_seq0",
        "type": "ACTION_SEQUENCE",
        "params": [{
            "name": "eventobject",
            "value": "eventobject"
        }],
        "language": "js",
        "actions": [{
            "id": "customcode_postshow_50628201224763006",
            "type": "INVOKE_FUNCTION",
            "sequenceKUID": "frmMBBlockCCReasonMenuPostshow",
            "display": "frmMBBlockCCReasonMenuPostshow",
            "inputparams": [],
            "source": "module"
        }]
    }
}