{
    "p2kwiet2012247629253_btnEngR_onClick_seq0": {
        "id": "p2kwiet2012247629253_btnEngR_onClick_seq0",
        "type": "ACTION_SEQUENCE",
        "params": [{
            "name": "eventobject",
            "value": "eventobject"
        }],
        "language": "js",
        "actions": [{
            "id": "preprocessdecision_onClick_59636201224769073",
            "type": "CHANNEL_CONDITION",
            "platforms": ["spaip", "spabbnth", "spawinphone8", "spaan", "spabb", "spawindows"]
        }, {
            "id": "preprocessdecision_onClick_19076201224765661",
            "type": "CHANNEL_CONDITION",
            "platforms": ["android", "iphone"]
        }, {
            "id": "expression_onClick_95867201224762163",
            "type": "ADD_SNIPPET",
            "codeSnippet": "gblLang_flag = \"en_US\";\n //#ifdef android\n //kony.application.showLoadingScreen(\"LocBlock\",kony.i18n.getLocalizedString(\"keyLocaleChangeEngMessage\"), \"center\" , true, true, false);\n showLoadingScreen();\n //#endif\n showLoadingScreen();\n setLocaleEng();\n frmFATCATnC.btnEngR.skin = btnOnFocus;\n frmFATCATnC.btnThaiR.skin = btnOffFocus;\n frmFATCATnCPreShow();",
            "parentId": "decision_onClick_97207201224767020"
        }, {
            "id": "decision_onClick_97207201224767020",
            "type": "IF_CONDITION",
            "conditions": [{
                "leftValueType": "expression",
                "leftValue": "kony.i18n.getCurrentLocale() != \"en_US\""
            }],
            "parentId": "preprocessdecision_onClick_19076201224765661",
            "criteria": "all"
        }, {
            "id": "decision_onClick_59499201224766427",
            "type": "ELSE_CONDITION",
            "conditions": [],
            "parentId": "preprocessdecision_onClick_19076201224765661",
            "criteria": "all"
        }, {
            "id": "decision_onClick_60297201224767501",
            "type": "IF_CONDITION",
            "conditions": [{
                "leftValueType": "expression",
                "leftValue": "kony.i18n.getCurrentLocale() != \"en_US\""
            }],
            "parentId": "preprocessdecision_onClick_59636201224769073",
            "criteria": "all"
        }, {
            "id": "decision_onClick_29700201224762084",
            "type": "ELSE_CONDITION",
            "conditions": [],
            "parentId": "preprocessdecision_onClick_59636201224769073",
            "criteria": "all"
        }, {
            "id": "expression_onClick_45571201224765606",
            "type": "ADD_SNIPPET",
            "codeSnippet": "gblLang_flag = \"en_US\";\n \n //#ifdef android\n //kony.application.showLoadingScreen(\"LocBlock\",kony.i18n.getLocalizedString(\"keyLocaleChangeEngMessage\"), \"center\" , true, true, false);\n showLoadingScreen();\n //#endif\n \n //gblLang_flag = \"en_US\";\n //kony.i18n.setCurrentLocaleAsync(\"en_US\", onSuccessLocaleChange, onFailureLocaleChange, \"\");\n setLocaleEng();\n frmFATCATnC.btnEngR.skin = btnOnFocus;\n frmFATCATnC.btnThaiR.skin = btnOffFocus;\n frmFATCATnCPreShow();",
            "parentId": "decision_onClick_60297201224767501"
        }]
    }
}