{
    "p2kwiet2012247649856_btnClose_onClick_seq0": {
        "id": "p2kwiet2012247649856_btnClose_onClick_seq0",
        "type": "ACTION_SEQUENCE",
        "params": [{
            "name": "eventobject",
            "value": "eventobject"
        }],
        "language": "js",
        "actions": [{
            "id": "customcode_onClick_15713201224765821",
            "type": "INVOKE_FUNCTION",
            "sequenceKUID": "onClickFATCAInfoClose",
            "display": "onClickFATCAInfoClose",
            "inputparams": [],
            "source": "module"
        }]
    }
}