{
    "p2kwiet2012247637818_hbxImageAddRecipient_onClick_seq0": {
        "id": "p2kwiet2012247637818_hbxImageAddRecipient_onClick_seq0",
        "type": "ACTION_SEQUENCE",
        "params": [{
            "name": "eventobject",
            "value": "eventobject"
        }],
        "language": "js",
        "actions": [{
            "id": "customcode_onClick_92878201224763916",
            "type": "INVOKE_FUNCTION",
            "sequenceKUID": "onClickAddToMyRecipient",
            "display": "onClickAddToMyRecipient",
            "inputparams": [],
            "source": "module"
        }]
    }
}