{
    "p2kwiet2012247630847_lblCallcenternum_onClick_seq0": {
        "id": "p2kwiet2012247630847_lblCallcenternum_onClick_seq0",
        "type": "ACTION_SEQUENCE",
        "params": [{
            "name": "eventobject",
            "value": "eventobject"
        }],
        "language": "js",
        "actions": [{
            "id": "customcode_onClick_23855201224763896",
            "type": "INVOKE_FUNCTION",
            "sequenceKUID": "callNative",
            "display": "callNative",
            "inputparams": [{
                "name": "mobileno",
                "value": "gblTMBContactNumber"
            }],
            "source": "module"
        }]
    }
}