{
    "p2kwiet2012247628486_txtCaptchaText_onDone_seq0": {
        "id": "p2kwiet2012247628486_txtCaptchaText_onDone_seq0",
        "type": "ACTION_SEQUENCE",
        "params": [{
            "name": "eventobject",
            "value": "eventobject"
        }, {
            "name": "changedtext",
            "value": "changedtext"
        }],
        "language": "js",
        "actions": [{
            "id": "decision_onDone_57743201224767970",
            "type": "IF_CONDITION",
            "conditions": [{
                "leftValueType": "expression",
                "leftValue": "frmIBPreLogin.txtUserId.text != \"\""
            }],
            "criteria": "all"
        }, {
            "id": "decision_onDone_52097201224762722",
            "type": "ELSE_CONDITION",
            "conditions": [],
            "criteria": "all"
        }, {
            "id": "decision_onDone_5072201224762462",
            "type": "IF_CONDITION",
            "conditions": [{
                "leftValueType": "expression",
                "leftValue": "frmIBPreLogin.txtCaptchaText.text != \"\""
            }],
            "parentId": "decision_onDone_11433201224762000",
            "criteria": "all"
        }, {
            "id": "decision_onDone_16384201224762747",
            "type": "ELSE_CONDITION",
            "conditions": [],
            "parentId": "decision_onDone_11433201224762000",
            "criteria": "all"
        }, {
            "id": "alert_onDone_217712012247679",
            "type": "SHOW_ALERT",
            "alertType": "constants.ALERT_TYPE_ERROR",
            "alertTitle": "Alert",
            "yesLabel": "Yes",
            "noLabel": "No",
            "alertMessage": "Field is mandatory",
            "messageType": "constant",
            "parentId": "decision_onDone_16384201224762747",
            "alertTitlei18n": "",
            "yesLabeli18n": "",
            "noLabeli18n": "",
            "alertMessagei18n": "",
            "iconPosition": "constants.ALERT_ICON_POSITION_LEFT"
        }, {
            "id": "expression_onDone_57753201224761456",
            "type": "ADD_SNIPPET",
            "codeSnippet": "frmIBPreLogin.txtCaptchaText.setFocus(true);",
            "parentId": "decision_onDone_16384201224762747"
        }, {
            "id": "alert_onDone_20025201224763996",
            "type": "SHOW_ALERT",
            "alertType": "constants.ALERT_TYPE_ERROR",
            "alertTitle": "Alert",
            "yesLabel": "Yes",
            "noLabel": "No",
            "alertMessage": "Field is mandatory",
            "messageType": "constant",
            "parentId": "decision_onDone_60646201224767493",
            "alertTitlei18n": "",
            "yesLabeli18n": "",
            "noLabeli18n": "",
            "alertMessagei18n": "",
            "iconPosition": "constants.ALERT_ICON_POSITION_LEFT"
        }, {
            "id": "expression_onDone_62032201224765203",
            "type": "ADD_SNIPPET",
            "codeSnippet": "frmIBPreLogin.txtPassword.setFocus(true);",
            "parentId": "decision_onDone_60646201224767493"
        }, {
            "id": "decision_onDone_11433201224762000",
            "type": "IF_CONDITION",
            "conditions": [{
                "leftValueType": "expression",
                "leftValue": "frmIBPreLogin.hboxCaptchaText.isVisible"
            }],
            "parentId": "decision_onDone_6220122476893",
            "criteria": "all"
        }, {
            "id": "decision_onDone_90073201224765662",
            "type": "ELSE_CONDITION",
            "conditions": [],
            "parentId": "decision_onDone_6220122476893",
            "criteria": "all"
        }, {
            "id": "decision_onDone_6220122476893",
            "type": "IF_CONDITION",
            "conditions": [{
                "leftValueType": "expression",
                "leftValue": "frmIBPreLogin.txtPassword.text != \"\""
            }],
            "parentId": "decision_onDone_57743201224767970",
            "criteria": "all"
        }, {
            "id": "decision_onDone_60646201224767493",
            "type": "ELSE_CONDITION",
            "conditions": [],
            "parentId": "decision_onDone_57743201224767970",
            "criteria": "all"
        }, {
            "id": "customcode_onDone_82238201224761124",
            "type": "INVOKE_FUNCTION",
            "sequenceKUID": "captchaValidation",
            "display": "captchaValidation",
            "inputparams": [{
                "name": "text",
                "value": "frmIBPreLogin.txtCaptchaText.text"
            }],
            "parentId": "decision_onDone_5072201224762462",
            "source": "module"
        }, {
            "id": "customcode_onDone_4736320122476875",
            "type": "INVOKE_FUNCTION",
            "sequenceKUID": "IBLoginService",
            "display": "IBLoginService",
            "inputparams": [],
            "parentId": "decision_onDone_90073201224765662",
            "source": "module"
        }, {
            "id": "alert_onDone_32503201224763363",
            "type": "SHOW_ALERT",
            "alertType": "constants.ALERT_TYPE_ERROR",
            "alertTitle": "Alert",
            "yesLabel": "Yes",
            "noLabel": "No",
            "alertMessage": "Field is mandatory",
            "messageType": "constant",
            "parentId": "decision_onDone_52097201224762722",
            "alertTitlei18n": "",
            "yesLabeli18n": "",
            "noLabeli18n": "",
            "alertMessagei18n": "",
            "iconPosition": "constants.ALERT_ICON_POSITION_LEFT"
        }, {
            "id": "expression_onDone_72217201224768740",
            "type": "ADD_SNIPPET",
            "codeSnippet": "frmIBPreLogin.txtUserId.setFocus(true);",
            "parentId": "decision_onDone_52097201224762722"
        }]
    }
}