{
    "p2kwiet2012247637673_txtCitizenID_onTextChange_seq0": {
        "id": "p2kwiet2012247637673_txtCitizenID_onTextChange_seq0",
        "type": "ACTION_SEQUENCE",
        "params": [{
            "name": "eventobject",
            "value": "eventobject"
        }, {
            "name": "changedtext",
            "value": "changedtext"
        }],
        "language": "js",
        "actions": [{
            "id": "customcode_onTextChange_97186201224764529",
            "type": "INVOKE_FUNCTION",
            "sequenceKUID": "onTextChangeToCitizenIDP2P",
            "display": "onTextChangeToCitizenIDP2P",
            "inputparams": [{
                "name": "txt",
                "value": "frmTransferLanding.txtCitizenID.text"
            }],
            "source": "module"
        }]
    }
}