{
    "p2kwiet2012247635627_btnOASCBenDel5_onClick_seq0": {
        "id": "p2kwiet2012247635627_btnOASCBenDel5_onClick_seq0",
        "type": "ACTION_SEQUENCE",
        "params": [{
            "name": "eventobject",
            "value": "eventobject"
        }],
        "language": "js",
        "actions": [{
            "id": "customcode_onClick_17711201224763444",
            "type": "INVOKE_FUNCTION",
            "sequenceKUID": "onClickDelBefOpenSavingAct",
            "display": "onClickDelBefOpenSavingAct",
            "inputparams": [{
                "name": "delBenf",
                "value": "5"
            }],
            "source": "module"
        }]
    }
}