{
    "p2kwiet2012247634182_vbox475893575411221_onClick_seq0": {
        "id": "p2kwiet2012247634182_vbox475893575411221_onClick_seq0",
        "type": "ACTION_SEQUENCE",
        "params": [{
            "name": "eventobject",
            "value": "eventobject"
        }],
        "language": "js",
        "actions": [{
            "id": "preprocessdecision_onClick_5123720122476768",
            "type": "CHANNEL_CONDITION",
            "platforms": ["j2me", "bb", "bb10", "winphone8", "palm", "android", "winmobile", "iphone", "symbian", "winmobile6x"]
        }, {
            "id": "preprocessdecision_onClick_13834201224768534",
            "type": "CHANNEL_CONDITION",
            "platforms": ["spaip", "spabbnth", "spawinphone8", "wap", "spaan", "spabb", "spawindows"]
        }, {
            "id": "expression_onClick_74067201224766155",
            "type": "ADD_SNIPPET",
            "codeSnippet": "popProfilePic.btnPopDeleteCancel.onClick = openMediaGalleryinPopUp;\n popProfilePic.camera1.onCapture = invokeCameraFromPopup;",
            "parentId": "preprocessdecision_onClick_5123720122476768"
        }, {
            "id": "navigation_onClick_9018320122476390",
            "type": "DISPLAY_POPUP",
            "popupId": "popProfilePic",
            "popupKUID": "p2kwiet2012247650086",
            "mappings": {},
            "mappingsOrder": [],
            "parentId": "preprocessdecision_onClick_5123720122476768",
            "enableMappingEditor": true
        }, {
            "id": "navigation_onClick_41322201224764954",
            "type": "DISPLAY_POPUP",
            "popupId": "popUploadPicSpa",
            "popupKUID": "p2kwiet2012247650323",
            "mappings": {},
            "mappingsOrder": [],
            "parentId": "preprocessdecision_onClick_13834201224768534",
            "enableMappingEditor": true
        }]
    }
}