{
    "p2kwiet2012247637818_vbxImage_onClick_seq0": {
        "id": "p2kwiet2012247637818_vbxImage_onClick_seq0",
        "type": "ACTION_SEQUENCE",
        "params": [{
            "name": "eventobject",
            "value": "eventobject"
        }],
        "language": "js",
        "actions": [{
            "id": "preprocessdecision_onClick_95855201224764844",
            "type": "CHANNEL_CONDITION",
            "platforms": ["iphone"]
        }, {
            "id": "preprocessdecision_onClick_2059201224761854",
            "type": "CHANNEL_CONDITION",
            "platforms": ["android"]
        }, {
            "id": "customcode_onClick_83150201224763376",
            "type": "INVOKE_FUNCTION",
            "sequenceKUID": "screenShotCall",
            "display": "screenShotCall",
            "inputparams": [{
                "name": "message",
                "value": "\"screenshot\""
            }],
            "parentId": "preprocessdecision_onClick_95855201224764844",
            "source": "module"
        }, {
            "id": "customcode_onClick_52466201224767130",
            "type": "INVOKE_FUNCTION",
            "sequenceKUID": "shareIntentmoreCallandroid",
            "display": "shareIntentmoreCallandroid",
            "inputparams": [{
                "name": "message",
                "value": "\"screenshot\""
            }, {
                "name": "module",
                "value": "\"Transfer\""
            }],
            "parentId": "preprocessdecision_onClick_2059201224761854",
            "source": "module"
        }]
    }
}