{
    "p2kwiet2012247634182_link59324032018947_onClick_seq0": {
        "id": "p2kwiet2012247634182_link59324032018947_onClick_seq0",
        "type": "ACTION_SEQUENCE",
        "params": [{
            "name": "eventobject",
            "value": "eventobject"
        }],
        "language": "js",
        "actions": [{
            "id": "expression_onClick_53002201224765452",
            "type": "ADD_SNIPPET",
            "codeSnippet": "AddAccountList.length = 0;"
        }, {
            "id": "customcode_onClick_90919201224764562",
            "type": "INVOKE_FUNCTION",
            "sequenceKUID": "addNewRecipientAddNewAcc",
            "display": "addNewRecipientAddNewAcc",
            "inputparams": [{
                "name": "eventobject",
                "value": "eventobject"
            }],
            "source": "module"
        }]
    }
}