{
    "p2kwiet2012247634458_frmMyRecipientEditProfileComp_Android_onDeviceBack_seq0": {
        "id": "p2kwiet2012247634458_frmMyRecipientEditProfileComp_Android_onDeviceBack_seq0",
        "type": "ACTION_SEQUENCE",
        "params": [{
            "name": "eventobject",
            "value": "eventobject"
        }, {
            "name": "neworientation",
            "value": "neworientation"
        }],
        "language": "js",
        "actions": [{
            "id": "customcode_onDeviceBack_82388201224764264",
            "type": "INVOKE_FUNCTION",
            "sequenceKUID": "disableBackButton",
            "display": "disableBackButton",
            "inputparams": [],
            "source": "module"
        }]
    }
}