{
    "p2kwiet2012247627099_btnSearchFind_onClick_seq0": {
        "id": "p2kwiet2012247627099_btnSearchFind_onClick_seq0",
        "type": "ACTION_SEQUENCE",
        "params": [{
            "name": "eventobject",
            "value": "eventobject"
        }],
        "language": "js",
        "actions": [{
            "id": "customcode_onClick_45280201224766447",
            "type": "INVOKE_FUNCTION",
            "sequenceKUID": "onClickSearchBtn",
            "display": "onClickSearchBtn",
            "inputparams": [],
            "source": "module"
        }]
    }
}