{
    "p2kwiet2012247633315_btnSoGooODBack_onClick_seq0": {
        "id": "p2kwiet2012247633315_btnSoGooODBack_onClick_seq0",
        "type": "ACTION_SEQUENCE",
        "params": [{
            "name": "eventobject",
            "value": "eventobject"
        }],
        "language": "js",
        "actions": [{
            "id": "navigation_onClick_60753201224764115",
            "type": "NAVIGATE_TO_FORM",
            "formId": "frmMBSoGooodProdBrief",
            "formKUID": "p2kwiet2012247633260",
            "mappings": {},
            "mappingsOrder": [],
            "parentId": "",
            "enableMappingEditor": true,
            "package": ""
        }]
    }
}