{
    "p2kwiet2012247630143_frmMBApplySoGooodComplete_preshow_seq0": {
        "id": "p2kwiet2012247630143_frmMBApplySoGooodComplete_preshow_seq0",
        "type": "ACTION_SEQUENCE",
        "params": [{
            "name": "eventobject",
            "value": "eventobject"
        }],
        "language": "js",
        "actions": [{
            "id": "customcode_preshow_81889201224761000",
            "type": "INVOKE_FUNCTION",
            "sequenceKUID": "preshowfrmMBApplySoGooodComplete",
            "display": "preshowfrmMBApplySoGooodComplete",
            "inputparams": [],
            "source": "module"
        }]
    }
}