{
    "p2kwiet2012247633448_btnMenuMore_onClick_seq0": {
        "id": "p2kwiet2012247633448_btnMenuMore_onClick_seq0",
        "type": "ACTION_SEQUENCE",
        "params": [{
            "name": "eventobject",
            "value": "eventobject"
        }],
        "language": "js",
        "actions": [{
            "id": "customcode_onClick_24346201224766108",
            "type": "INVOKE_FUNCTION",
            "sequenceKUID": "onClickMorenew",
            "display": "onClickMorenew",
            "inputparams": [{
                "name": "eventobject",
                "value": ""
            }, {
                "name": "x",
                "value": ""
            }, {
                "name": "y",
                "value": ""
            }],
            "source": "module"
        }]
    }
}