{
    "p2kwiet2012247635762_btnLtArrowOD_onClick_seq0": {
        "id": "p2kwiet2012247635762_btnLtArrowOD_onClick_seq0",
        "type": "ACTION_SEQUENCE",
        "params": [{
            "name": "eventobject",
            "value": "eventobject"
        }],
        "language": "js",
        "actions": [{
            "id": "customcode_onClick_49084201224763997",
            "type": "INVOKE_FUNCTION",
            "sequenceKUID": "onClickLeftDS",
            "display": "onClickLeftDS",
            "inputparams": [{
                "name": "currForm",
                "value": "frmOpenAcDreamSaving.segSliderOpenDream "
            }],
            "source": "module"
        }]
    }
}