{
    "AS_TextField_a7c30d08a40e478fb8a980ecc9cae409": {
        "id": "AS_TextField_a7c30d08a40e478fb8a980ecc9cae409",
        "type": "ACTION_SEQUENCE",
        "name": "txtOnDoneEditBillPayIPhone",
        "params": [{
            "datatype": "collection",
            "name": "eventobject"
        }, {
            "datatype": "string",
            "name": "changedtext"
        }],
        "contextObj": {
            "name": "frmBillPaymentEditFutureNew",
            "type": "forms",
            "platform": "",
            "KUID": "e56a4bc3f5d94750a3b4bdd0bbf51526"
        },
        "language": "js",
        "actions": [{
            "id": "INVOKE_FUNCTION___d8aadc73aaac4f2fb755ca586e8473a6",
            "type": "INVOKE_FUNCTION",
            "sequenceKUID": "onDoneEditingBillPaymentOnDone",
            "display": "onDoneEditingBillPaymentOnDone",
            "inputparams": [],
            "parentId": null,
            "callbackType": null,
            "disabled": null,
            "source": "module"
        }]
    }
}