{
    "DNDConfig": null,
    "_enabled_": false,
    "_padding_": [
        0,
        0,
        0,
        0
    ],
    "_skin_": "sd5bae1daeab4832a535b4d5555df44c",
    "_text_": "",
    "_thickness_": 1,
    "android": {
        "@class": "com.kony.gen.viz.model.component.property.line.AndroidLineProperty",
        "render": true
    },
    "canUpdateUI": true,
    "containerId": true,
    "containerweight": 100,
    "contentalignment": 5,
    "hexpand": true,
    "id": "line15245716321975023",
    "info": null,
    "iphone": {
        "@class": "com.kony.gen.viz.model.component.property.line.IPhoneLineProperty",
        "render": true
    },
    "isSegmentChild": true,
    "isvisible": true,
    "kuid": "p2kwiet15245716321591",
    "name": "kony.ui.Line",
    "paddinginpixel": false,
    "parent": "vbox15245716321155",
    "pf": "vbox15245716321155",
    "spa": {
        "@class": "com.kony.gen.viz.model.component.property.line.SPALineProperty"
    },
    "spaan": {
        "@class": "com.kony.gen.viz.model.component.property.line.SPAAndroidLineProperty",
        "render": true
    },
    "spabb": {
        "@class": "com.kony.gen.viz.model.component.property.line.SPABBLineProperty",
        "render": true
    },
    "spaip": {
        "@class": "com.kony.gen.viz.model.component.property.line.SPAIPhoneLineProperty",
        "render": true
    },
    "spawinphone8": {
        "@class": "com.kony.gen.viz.model.component.property.line.SPAWinPhone8LineProperty",
        "render": true
    },
    "vexpand": false,
    "wType": "Line",
    "widgetalignment": 5,
    "winphone8": {
        "@class": "com.kony.gen.viz.model.component.property.line.WinPhone8LineProperty",
        "psp": {
            "enableCache": false
        },
        "render": true
    }
}