{
    "@class": "com.kony.gen.viz.model.component.KVizLabel",
    "DNDConfig": null,
    "_margin_": [
        1,
        1,
        1,
        1
    ],
    "_padding_": [
        0,
        0,
        0,
        0
    ],
    "_skin_": "s347f048186b428e8854cf3929542114",
    "_text_": "",
    "_wrapping_": 2,
    "android": {
        "textStyle": {
            "letterSpacing": 0,
            "strikeThrough": false
        }
    },
    "canUpdateUI": true,
    "containerweight": 100,
    "contentalignment": 5,
    "id": "lblMFAutoHeader",
    "info": null,
    "ipad": {
        "psp": {
            "wrapping": 2
        }
    },
    "iphone": {
        "psp": {
            "wrapping": 2
        }
    },
    "iscustomlayout": false,
    "isvisible": true,
    "kuid": "b984fc5864b84642bd50111e48882abf",
    "marginLocked": false,
    "margininpixel": false,
    "name": "kony.ui.Label",
    "parent": "vboxMFAutoHeader",
    "pf": "frmIBMutualFundsPortfolio",
    "retaincontentalignment": false,
    "retainflexpositionproperties": false,
    "texti18n": "MF_how_to_open_AS",
    "tooltip": "",
    "wType": "Label"
}