{
    "DNDConfig": null,
    "_enabled_": false,
    "_margin_": [
        0,
        0,
        0,
        0
    ],
    "_orientation_": 2,
    "_padding_": [
        0,
        0,
        0,
        0
    ],
    "_position_": 3,
    "_resize_": true,
    "_skin_": "s97cc6c86bf047e2b52aaaa0fedee429",
    "allboxes": [],
    "borderCollapse": false,
    "canUpdateUI": true,
    "children": [
        "hbxAccntDetailsHeader",
        "hbxAccntDetails",
        "hbxTMBImage"
    ],
    "containerweight": 48,
    "desktopweb": {
        "@class": "com.kony.gen.viz.model.container.property.vbox.DesktopWebVBoxProperty",
        "_padding_": [
            2,
            0,
            4,
            0
        ],
        "padding": [
            2,
            0,
            4,
            0
        ],
        "paddingInPixel": false,
        "render": true
    },
    "donotUpdateContainerWeight": false,
    "id": "vbox449290336673324",
    "info": null,
    "isvisible": true,
    "kiosk": {
        "@class": "com.kony.gen.viz.model.container.property.vbox.KioskVBoxProperty",
        "render": true
    },
    "kuid": "f7c8c35f26e14d8cab41e19c96e68423",
    "layouttype": 0,
    "margininpixel": false,
    "name": "kony.ui.Box",
    "paddInPixel": [
        20.02,
        0,
        40.04,
        0
    ],
    "paddinginpixel": false,
    "parent": "hbox450064933452914",
    "pf": "frmIBMutualFundsPortfolio",
    "spa": {
        "@class": "com.kony.gen.viz.model.container.property.vbox.SPAVBoxProperty"
    },
    "templateType": "forms",
    "wType": "VBox",
    "widgetalignment": 1
}