{
    "DNDConfig": null,
    "_enabled_": false,
    "_margin_": [
        0,
        0,
        0,
        0
    ],
    "_padding_": [
        0,
        0,
        0,
        0
    ],
    "android": {
        "@class": "com.kony.gen.viz.model.psp.WidgetProperty",
        "render": false
    },
    "canUpdateUI": true,
    "containerweight": 100,
    "contentalignment": 5,
    "customProperties": {},
    "cwEvents": [],
    "cwid": "jsSPACustomWidget201224764585",
    "hexpand": true,
    "id": "custom2096767237403968",
    "info": null,
    "iphone": {
        "@class": "com.kony.gen.viz.model.psp.WidgetProperty",
        "_margin_": [
            0,
            0,
            0,
            0
        ],
        "margin": [
            0,
            0,
            0,
            0
        ],
        "marginInPixel": false,
        "render": false
    },
    "isvisible": true,
    "kuid": "p2kwiet2012247650320",
    "margininpixel": false,
    "name": "uploadImageSpa-kony.ui",
    "paddinginpixel": false,
    "parent": "vbox474136033103381",
    "pf": "popUploadPicSpa",
    "platformKey": "spa",
    "spa": {
        "@class": "com.kony.gen.viz.model.psp.WidgetProperty"
    },
    "spaan": {
        "@class": "com.kony.gen.viz.model.psp.WidgetProperty",
        "render": true
    },
    "spabb": {
        "@class": "com.kony.gen.viz.model.psp.WidgetProperty",
        "render": true
    },
    "spaip": {
        "@class": "com.kony.gen.viz.model.psp.WidgetProperty",
        "render": true
    },
    "spawinphone8": {
        "@class": "com.kony.gen.viz.model.psp.WidgetProperty",
        "render": true
    },
    "vexpand": false,
    "wType": "TPW",
    "widgetalignment": 5,
    "winphone8": {
        "@class": "com.kony.gen.viz.model.psp.WidgetProperty",
        "_margin_": [
            0,
            0,
            0,
            0
        ],
        "margin": [
            0,
            0,
            0,
            0
        ],
        "marginInPixel": false,
        "psp": {
            "enableCache": false
        },
        "render": false
    }
}