{
    "DNDConfig": null,
    "_enabled_": false,
    "_margin_": [
        0,
        0,
        0,
        0
    ],
    "_padding_": [
        0,
        0,
        0,
        0
    ],
    "_skin_": "s83709f2cdb04625a362b36c1984279f",
    "_text_": "",
    "canUpdateUI": true,
    "containerweight": 51,
    "contentalignment": 5,
    "desktopweb": {
        "@class": "com.kony.gen.viz.model.component.property.button.DesktopWebButtonProperty",
        "displayText": true,
        "render": true
    },
    "displaytext": true,
    "focusskin": "s83709f2cdb04625a362b36c1984279f",
    "hexpand": true,
    "id": "btnOk",
    "ide_onClick": "p2kwiet2012247639086_btnOk_onClick_seq0",
    "info": null,
    "isvisible": true,
    "kiosk": {
        "@class": "com.kony.gen.viz.model.component.property.button.KioskButtonProperty",
        "render": true
    },
    "kuid": "p2kwiet2012247639072",
    "margininpixel": false,
    "name": "kony.ui.Button",
    "paddinginpixel": false,
    "parent": "hbxBackOk",
    "pf": "frmIBApplySoGooODPlanList",
    "spa": {
        "@class": "com.kony.gen.viz.model.component.property.button.SPAButtonProperty",
        "displayText": true
    },
    "texti18n": "keyOK",
    "vexpand": false,
    "wType": "Button",
    "widgetalignment": 6
}