{
    "DNDConfig": null,
    "_data_": [
        {
            "imgCheckBox": {
                "@class": "com.viz.ide.model.segment.ImageSegmentData",
                "src": ""
            },
            "lblAmountValue": {
                "@class": "com.viz.ide.model.segment.SimpleTextSegmentData",
                "text": ""
            },
            "lblDesc": {
                "@class": "com.viz.ide.model.segment.SimpleTextSegmentData",
                "text": "AA"
            },
            "lblTxnAmount": {
                "@class": "com.viz.ide.model.segment.SimpleTextSegmentData",
                "text": ""
            },
            "lblTxnDate": {
                "@class": "com.viz.ide.model.segment.SimpleTextSegmentData",
                "text": "A"
            },
            "transactionId": {
                "@class": "com.viz.ide.model.segment.SimpleTextSegmentData",
                "text": ""
            }
        },
        {
            "imgCheckBox": {
                "@class": "com.viz.ide.model.segment.ImageSegmentData",
                "src": ""
            },
            "lblAmountValue": {
                "@class": "com.viz.ide.model.segment.SimpleTextSegmentData",
                "text": ""
            },
            "lblDesc": {
                "@class": "com.viz.ide.model.segment.SimpleTextSegmentData",
                "text": "BB"
            },
            "lblTxnAmount": {
                "@class": "com.viz.ide.model.segment.SimpleTextSegmentData",
                "text": ""
            },
            "lblTxnDate": {
                "@class": "com.viz.ide.model.segment.SimpleTextSegmentData",
                "text": "B"
            },
            "transactionId": {
                "@class": "com.viz.ide.model.segment.SimpleTextSegmentData",
                "text": ""
            }
        },
        {
            "imgCheckBox": {
                "@class": "com.viz.ide.model.segment.ImageSegmentData",
                "src": ""
            },
            "lblAmountValue": {
                "@class": "com.viz.ide.model.segment.SimpleTextSegmentData",
                "text": ""
            },
            "lblDesc": {
                "@class": "com.viz.ide.model.segment.SimpleTextSegmentData",
                "text": "CC"
            },
            "lblTxnAmount": {
                "@class": "com.viz.ide.model.segment.SimpleTextSegmentData",
                "text": ""
            },
            "lblTxnDate": {
                "@class": "com.viz.ide.model.segment.SimpleTextSegmentData",
                "text": "C"
            },
            "transactionId": {
                "@class": "com.viz.ide.model.segment.SimpleTextSegmentData",
                "text": ""
            }
        }
    ],
    "_enabled_": false,
    "_indicator_": "none",
    "_margin_": [
        0,
        0,
        0,
        0
    ],
    "_orientation_": 1,
    "_padding_": [
        0,
        0,
        0,
        0
    ],
    "_skin_": "seg2Normal",
    "canUpdateUI": true,
    "containerheightreference": 1,
    "containerweight": 100,
    "context": {
        "channel": "mobile",
        "formID": "AdvancedWidgetsSegements",
        "templateType": "segments",
        "topLevelBox": false
    },
    "counter": 3,
    "desktopweb": {
        "@class": "com.kony.gen.viz.model.container.property.segment2.DesktopWebSegment2Property",
        "_padding_": [
            0,
            0,
            0,
            0
        ],
        "padding": [
            0,
            0,
            0,
            0
        ],
        "paddingInPixel": false,
        "render": true
    },
    "focusedindex": null,
    "focuseditem": null,
    "generatedtemplate": "p2kwiet2012247639091",
    "groupcells": false,
    "hasSections": false,
    "hiddencolumns": {
        "transactionId": "text"
    },
    "id": "segSoGooODTxns",
    "ide_onRowClick": "p2kwiet2012247639086_segSoGooODTxns_onRowClick_seq0",
    "info": null,
    "isvisible": true,
    "kiosk": {
        "@class": "com.kony.gen.viz.model.container.property.segment2.KioskSegment2Property",
        "render": true
    },
    "kuid": "p2kwiet2012247639064",
    "layoutalignment": 3,
    "layouttype": 0,
    "margininpixel": false,
    "name": "kony.ui.SegmentedUI2",
    "needpageindicator": true,
    "paddinginpixel": false,
    "paginationconfig": {
        "position": "bottom"
    },
    "parent": "scrollBxBPBillsList",
    "pf": "frmIBApplySoGooODPlanList",
    "retainselection": false,
    "rowTemplateId": "p2kwiet2012247639091",
    "rowcounter": 2,
    "rowfocusskin": "sbbc7f0678bf4c678c40fe82030b9661",
    "rowskin": "s01e0182a4d14a4da5e4e707eafeea1b",
    "screenlevelwidget": false,
    "scrollingevents": false,
    "seccounter": 0,
    "sectionheaderskin": "s9bd6d2f2f8c4fce89dae24cc47abe06",
    "selectedRows": null,
    "selectedState": false,
    "selectedindex": null,
    "selectedindices": null,
    "selecteditems": null,
    "selectedsectionindex": 0,
    "selectionbehavior": "multiselect",
    "selectionbehaviorconfig": {
        "imageIdentifier": "imgCheckBox",
        "selectedStateImage": "chkbox.png",
        "unselectedStateImage": "chkbox2.png"
    },
    "separatorcolor": "c1c1c100",
    "separatorrequired": true,
    "separatorthickness": 1,
    "showscrollbars": false,
    "spa": {
        "@class": "com.kony.gen.viz.model.container.property.segment2.SPASegment2Property"
    },
    "viewtype": "tableview",
    "wType": "Segment",
    "widgetalignment": 1,
    "widgetdatamap": {
        "hbox38848739511988": "hbox38848739511988",
        "hbox38848739514105": "hbox38848739514105",
        "hbox38848739514106": "hbox38848739514106",
        "imgCheckBox": "imgCheckBox",
        "lblAmountValue": "lblAmountValue",
        "lblDesc": "lblDesc",
        "lblTxnAmount": "lblTxnAmount",
        "lblTxnDate": "lblTxnDate",
        "vbox38848739511986": "vbox38848739511986",
        "vbox96727767111679": "vbox96727767111679"
    }
}