{
    "@class": "com.kony.gen.viz.model.component.KVizLabel",
    "DNDConfig": null,
    "__parentReadjusting__": false,
    "_height_": {
        "type": "string",
        "value": "50%"
    },
    "_left_": {
        "type": "string",
        "value": "21%"
    },
    "_margin_": [
        1,
        1,
        1,
        1
    ],
    "_padding_": [
        0,
        0,
        0,
        0
    ],
    "_skin_": "s4846eafef7b4d1281812c92ccf4ec35",
    "_text_": "",
    "_width_": {
        "type": "string",
        "value": "67%"
    },
    "_wrapping_": 2,
    "android": {
        "textStyle": {
            "letterSpacing": 0,
            "strikeThrough": false
        }
    },
    "canUpdateUI": true,
    "centery": {
        "type": "string",
        "value": "50%"
    },
    "containerweight": 100,
    "contentalignment": 4,
    "id": "lblDocumentNew",
    "info": null,
    "ipad": {
        "psp": {
            "wrapping": 2
        }
    },
    "iphone": {
        "psp": {
            "wrapping": 2
        }
    },
    "isvisible": true,
    "kuid": "b2b9318a693e4fdc8473a8748c8bfc9d",
    "name": "kony.ui.Label",
    "parent": "flxNewDocument",
    "pf": "frmUploadManyFile",
    "texti18n": "AddNewFile",
    "textstyle": {},
    "tooltip": "",
    "wType": "Label",
    "zindex": 1
}