{
    "@class": "com.kony.gen.viz.model.component.KVizLabel",
    "DNDConfig": null,
    "__parentReadjusting__": false,
    "_height_": {
        "type": "ref",
        "value": "preferred"
    },
    "_left_": 0,
    "_lines_": 0,
    "_margin_": [
        0,
        0,
        0,
        0
    ],
    "_opacity_": 100,
    "_padding_": [
        0,
        0,
        0,
        0
    ],
    "_skin_": "s624b8d59fa049fba8ecafbe3d3e7001",
    "_text_": "Want to see your balance?",
    "_top_": 0,
    "_width_": {
        "type": "ref",
        "value": "preferred"
    },
    "_wrapping_": 2,
    "android": {
        "textStyle": {
            "letterSpacing": 0,
            "strikeThrough": false
        }
    },
    "canUpdateUI": true,
    "containerweight": 100,
    "contentalignment": 5,
    "id": "lblHeaderOne",
    "info": null,
    "ipad": {
        "psp": {
            "wrapping": 2
        }
    },
    "iphone": {
        "psp": {
            "wrapping": 2
        }
    },
    "isvisible": true,
    "kuid": "h9302df4860546c982950f2d48725969",
    "minscale": 100,
    "name": "kony.ui.Label",
    "paddinginpixel": true,
    "parent": "grpHeader1",
    "pf": "frmWatchQuickBalance",
    "tooltip": "",
    "wType": "Label",
    "widgetalignment": 2
}