{
    "DNDConfig": null,
    "_enabled_": false,
    "_orientation_": 1,
    "_percent_": true,
    "_position_": 3,
    "_resize_": true,
    "_skin_": "s999e504e01b4ea3a2dad24f5074a9b1",
    "allboxes": [],
    "borderCollapse": false,
    "canUpdateUI": true,
    "children": [
        "lblAccountNameTitle",
        "lblAccountName",
        "image21009972040133621"
    ],
    "containerweight": 100,
    "desktopweb": {
        "@class": "com.kony.gen.viz.model.container.property.hbox.DesktopWebHBoxProperty",
        "_margin_": [
            0,
            0,
            0,
            0
        ],
        "_padding_": [
            3,
            1,
            3,
            1
        ],
        "_position_": 3,
        "margin": [
            0,
            0,
            0,
            0
        ],
        "marginInPixel": false,
        "padding": [
            3,
            1,
            3,
            1
        ],
        "paddingInPixel": false,
        "position": 3,
        "render": true
    },
    "focusskin": "s999e504e01b4ea3a2dad24f5074a9b1",
    "id": "hboxAccountName",
    "info": null,
    "isvisible": true,
    "kiosk": {
        "@class": "com.kony.gen.viz.model.container.property.hbox.KioskHBoxProperty",
        "_position_": 3,
        "position": 3,
        "render": true
    },
    "kuid": "p2kwiet2012247652051",
    "layoutalignment": 3,
    "layouttype": 0,
    "name": "kony.ui.Box",
    "parent": "vboxRcDataMain",
    "pf": "IBReceipentsDeleteAccntTemplate",
    "spa": {
        "@class": "com.kony.gen.viz.model.container.property.hbox.SPAHBoxProperty"
    },
    "templateType": "forms",
    "wType": "HBox",
    "widgetalignment": 1
}