{
    "DNDConfig": null,
    "_enabled_": false,
    "_skin_": "s05fe76b7e8042639f17082b3c15bb33",
    "_text_": "del",
    "canUpdateUI": true,
    "containerweight": 5,
    "contentalignment": 5,
    "desktopweb": {
        "@class": "com.kony.gen.viz.model.component.property.button.DesktopWebButtonProperty",
        "_margin_": [
            1,
            0,
            0,
            0
        ],
        "_padding_": [
            0,
            0,
            0,
            0
        ],
        "displayText": true,
        "margin": [
            1,
            0,
            0,
            0
        ],
        "marginInPixel": false,
        "padding": [
            0,
            0,
            0,
            0
        ],
        "paddingInPixel": false,
        "render": true
    },
    "displaytext": true,
    "focusskin": "sa6679f4ba39421a8ae21d6fc025e59e",
    "hexpand": true,
    "id": "button50273743117731",
    "ide_onClick": "p2kwiet2012247644864_button50273743117731_onClick_seq0",
    "info": null,
    "isvisible": true,
    "kiosk": {
        "@class": "com.kony.gen.viz.model.component.property.button.KioskButtonProperty",
        "render": true
    },
    "kuid": "p2kwiet2012247644838",
    "name": "kony.ui.Button",
    "parent": "hboxBtnAccntDetails",
    "pf": "frmIBMyReceipentsAccounts",
    "spa": {
        "@class": "com.kony.gen.viz.model.component.property.button.SPAButtonProperty",
        "displayText": true
    },
    "vexpand": false,
    "wType": "Button",
    "widgetalignment": 6
}