{
    "@class": "com.kony.gen.viz.model.component.KVizButton",
    "DNDConfig": null,
    "__parentReadjusting__": false,
    "_height_": {
        "type": "ref",
        "value": "preferred"
    },
    "_left_": {
        "type": "string",
        "value": "3%"
    },
    "_margin_": [
        6,
        6,
        6,
        6
    ],
    "_padding_": [
        0,
        0,
        0,
        0
    ],
    "_skin_": "seae25c205c34fb8918b3cc8c82c281f",
    "_text_": "Clear",
    "_width_": {
        "type": "string",
        "value": "20%"
    },
    "canUpdateUI": true,
    "centery": {
        "type": "string",
        "value": "50%"
    },
    "containerweight": 100,
    "contentalignment": 5,
    "disabledSkins": {
        "focusSkin": "sb03125d6967435d9bab3829bc2d31d6"
    },
    "displaytext": true,
    "id": "ButtonClear",
    "info": null,
    "iphone": {
        "psp": {
            "showProgressIndicator": false
        }
    },
    "isvisible": true,
    "kuid": "a4cc72bc62f94c95b03ca1ddfb48a575",
    "name": "kony.ui.Button",
    "parent": "FlexSearch",
    "pf": "frmMFSeachFundPurchaseMB",
    "showprogressindicator": false,
    "wType": "Button",
    "zindex": 1
}