{
    "DNDConfig": null,
    "__parentReadjusting__": false,
    "_height_": {
        "type": "string",
        "value": "100%"
    },
    "_left_": {
        "type": "string",
        "value": "3%"
    },
    "_margin_": [
        0,
        0,
        0,
        0
    ],
    "_orientation_": 6,
    "_padding_": [
        0,
        0,
        0,
        0
    ],
    "_percent_": true,
    "_skin_": "sf16386922154a1ea965e4cdf033ea5e",
    "_width_": {
        "type": "string",
        "value": "34%"
    },
    "allboxes": [],
    "autogrowmode": 0,
    "canUpdateUI": true,
    "children": [
        "imgStatus",
        "lblStatusVal"
    ],
    "clipbounds": true,
    "containerweight": 100,
    "enablescrolling": true,
    "focusskin": "s60d3e7f3fb544ea96258083be54ed7b",
    "id": "flxStatus",
    "info": null,
    "isvisible": true,
    "kuid": "db96b697068149cfae762749e2ef48ac",
    "layouttype": 3,
    "name": "kony.ui.FlexContainer",
    "parent": "flexActiveReq",
    "pf": "frmUVTransReqHistoryDetails",
    "snapgridsize": 10,
    "snaptogrid": true,
    "wType": "FlexContainer",
    "widgetalignment": 1,
    "zindex": 1
}