{
    "DNDConfig": null,
    "_enabled_": false,
    "_margin_": [
        0,
        0,
        0,
        0
    ],
    "_padding_": [
        0,
        0,
        0,
        0
    ],
    "_skin_": "s174a5fde67f46c4bf539c0ec1dfb1e6",
    "_text_": "",
    "autocapitalize": "none",
    "autocomplete": false,
    "autocorrect": false,
    "autofilter": false,
    "canUpdateUI": true,
    "containerheightmode": 1,
    "containerheightreference": 1,
    "containerweight": 64,
    "contentalignment": 4,
    "desktopweb": {
        "@class": "com.kony.gen.viz.model.component.property.textbox2.DesktopWebTextBox2Property",
        "_padding_": [
            1,
            1,
            1,
            1
        ],
        "containerHeightMode": 3,
        "ide_onBeginEditing": "p2kwiet2012247644098_tbxAccountName_DESKTOPWEB_onBeginEditing_seq0",
        "ide_onEndEditing": "p2kwiet2012247644098_tbxAccountName_DESKTOPWEB_onEndEditing_seq0",
        "ide_onKeyDown": "p2kwiet2012247644098_tbxAccountName_DESKTOPWEB_onKeyDown_seq0",
        "padding": [
            1,
            1,
            1,
            1
        ],
        "paddingInPixel": false,
        "render": true
    },
    "focusskin": "s0e800f65a7e4757b6054711ce7b9898",
    "hexpand": true,
    "id": "tbxAccountName",
    "ide_onDone": "p2kwiet2012247644098_tbxAccountName_onDone_seq0",
    "info": null,
    "isvisible": true,
    "keyboardstyle": "A",
    "keyboardtype": "A",
    "kiosk": {
        "@class": "com.kony.gen.viz.model.component.property.textbox2.KioskTextBox2Property",
        "render": true
    },
    "kuid": "p2kwiet2012247644050",
    "margininpixel": false,
    "maxtextlength": 40,
    "mode": "A",
    "name": "kony.ui.TextBox2",
    "paddinginpixel": false,
    "parent": "hbxAccountName",
    "pf": "frmIBMyAccnts",
    "securetextentry": false,
    "spa": {
        "@class": "com.kony.gen.viz.model.component.property.textbox2.SPATextBox2Property",
        "autoCorrect": false,
        "containerHeightMode": 3
    },
    "textinputmode": "A",
    "vexpand": false,
    "viewtype": "default",
    "wType": "TextField",
    "widgetalignment": 5
}