{
    "DNDConfig": null,
    "__parentReadjusting__": false,
    "_enabled_": false,
    "_height_": {
        "type": "ref",
        "value": "preferred"
    },
    "_left_": {
        "type": "string",
        "value": "0dp"
    },
    "_margin_": [
        0,
        0,
        0,
        0
    ],
    "_padding_": [
        0,
        0,
        0,
        0
    ],
    "_render_": true,
    "_skin_": "s92b0a23a43e435489f406e695c12af9",
    "_text_": "",
    "_top_": {
        "type": "string",
        "value": "0dp"
    },
    "_width_": {
        "type": "string",
        "value": "92%"
    },
    "_wrapping_": 2,
    "android": {
        "@class": "com.kony.gen.viz.model.component.property.richtext.AndroidRichTextProperty",
        "render": true
    },
    "canUpdateUI": true,
    "centerx": {
        "type": "string",
        "value": "51%"
    },
    "containerweight": 0,
    "contentalignment": 4,
    "hexpand": true,
    "id": "richtextnonSpecifyDis",
    "info": null,
    "iphone": {
        "@class": "com.kony.gen.viz.model.component.property.richtext.IPhoneRichTextProperty",
        "_margin_": [
            0,
            0,
            0,
            0
        ],
        "_wrapping_": 2,
        "margin": [
            0,
            0,
            0,
            0
        ],
        "marginInPixel": false,
        "render": true,
        "wrapping": 2
    },
    "isvisible": true,
    "kuid": "p2kwiet2012247632699",
    "margininpixel": false,
    "minheight": {
        "type": "string",
        "value": "45%"
    },
    "name": "kony.ui.RichText",
    "paddinginpixel": false,
    "parent": "flexBodyScroll",
    "pf": "frmMBSavingsCareComplete",
    "spa": {
        "@class": "com.kony.gen.viz.model.component.property.richtext.SPARichTextProperty"
    },
    "spaan": {
        "@class": "com.kony.gen.viz.model.component.property.richtext.SPAAndroidRichTextProperty",
        "render": true
    },
    "spabb": {
        "@class": "com.kony.gen.viz.model.component.property.richtext.SPABBRichTextProperty",
        "render": false
    },
    "spaip": {
        "@class": "com.kony.gen.viz.model.component.property.richtext.SPAIPhoneRichTextProperty",
        "render": true
    },
    "spawinphone8": {
        "@class": "com.kony.gen.viz.model.component.property.richtext.SPAWinPhone8RichTextProperty",
        "render": true
    },
    "texti18n": "benefinotSpecifyDesc",
    "vexpand": false,
    "wType": "RichText",
    "widgetalignment": 5,
    "winphone8": {
        "@class": "com.kony.gen.viz.model.component.property.richtext.WinPhone8RichTextProperty",
        "_margin_": [
            0,
            0,
            0,
            0
        ],
        "margin": [
            0,
            0,
            0,
            0
        ],
        "marginInPixel": false,
        "psp": {
            "enableCache": false
        },
        "render": true
    },
    "zindex": 1
}