{
    "DNDConfig": null,
    "__parentReadjusting__": false,
    "_height_": {
        "type": "string",
        "value": "65dp"
    },
    "_margin_": [
        0,
        0,
        0,
        0
    ],
    "_orientation_": 6,
    "_padding_": [
        0,
        0,
        0,
        0
    ],
    "_percent_": true,
    "_skin_": "s31d396bfbfa4b3b9607bbbe6b1c5c21",
    "_top_": {
        "type": "string",
        "value": "22%"
    },
    "_width_": {
        "type": "string",
        "value": "65dp"
    },
    "allboxes": [],
    "autogrowmode": 0,
    "canUpdateUI": true,
    "centerx": {
        "type": "string",
        "value": "50%"
    },
    "children": [
        "imgProfile"
    ],
    "clipbounds": true,
    "containerweight": 100,
    "enablescrolling": true,
    "id": "flxProilePic",
    "info": null,
    "iscustomlayout": false,
    "isvisible": true,
    "kuid": "bb4ec7f45af244df8bc5dbac8d175fa2",
    "layouttype": 2,
    "name": "kony.ui.FlexContainer",
    "parent": "flxBlockProfile",
    "pf": "frmMyProfiles",
    "retaincontentalignment": false,
    "retainflexpositionproperties": false,
    "snapgridsize": 10,
    "snaptogrid": true,
    "wType": "FlexContainer",
    "widgetalignment": 1,
    "zindex": 2
}