{
    "@class": "com.kony.gen.viz.model.container.KVizHBox",
    "DNDConfig": null,
    "__markedForDelete__": true,
    "_margin_": [
        0,
        5,
        0,
        0
    ],
    "_orientation_": 1,
    "_padding_": [
        0,
        0,
        0,
        0
    ],
    "_percent_": true,
    "_position_": 3,
    "_skin_": "s3240d32b9a74cc78d1e0768cd2cdf1b",
    "allboxes": [],
    "canUpdateUI": true,
    "children": [
        "vbxTick3",
        "lblAnswer3"
    ],
    "containerweight": 100,
    "contextmenu": null,
    "id": "hbxAnswer3",
    "ide_onClick": "AS_HBox_acf4a4d86a64400c826ff6e368e7b3a1",
    "info": null,
    "isvisible": true,
    "kuid": "b7a9b526e1c64d14a144e8b6c8756356",
    "layouttype": 0,
    "margininpixel": false,
    "name": "kony.ui.Box",
    "parent": "vbxContents",
    "pf": "frmIBMFSuitTest",
    "wType": "HBox",
    "widgetalignment": 1
}