{
    "@class": "com.kony.gen.viz.model.component.KVizImage2",
    "DNDConfig": null,
    "_base64_": null,
    "_margin_": [
        0,
        0,
        0,
        0
    ],
    "_padding_": [
        0,
        0,
        0,
        0
    ],
    "_skin_": "s55d8a5125e74bb0b2eaca75c423dae1",
    "_src_": "android_unsel.png",
    "canUpdateUI": true,
    "containerweight": 100,
    "context": {
        "channel": "desktop",
        "ispercent": true,
        "platform": "desktopweb",
        "templateType": "forms",
        "topLevelBox": false
    },
    "id": "imgTick1",
    "imagescalemode": 0,
    "info": null,
    "invokedProperty": "src",
    "ispercent": true,
    "isvisible": true,
    "kuid": "i4c73509539e4dd4b71e79759d87d923",
    "margininpixel": false,
    "name": "kony.ui.Image2",
    "parent": "vbxTick1",
    "pf": "frmIBMFSuitTest",
    "referenceheight": 25,
    "referencewidth": 25,
    "srcType": 1,
    "wType": "Image",
    "widgetalignment": 5
}