{
    "@class": "com.kony.gen.viz.model.component.KVizLink",
    "DNDConfig": null,
    "_margin_": [
        0,
        0,
        0,
        0
    ],
    "_padding_": [
        0,
        0,
        0,
        0
    ],
    "_skin_": "s4827b9a014c4c64aef88304ed4f0a0b",
    "_text_": "",
    "canUpdateUI": true,
    "containerweight": 25,
    "contentalignment": 5,
    "desktopweb": {
        "psp": {
            "hoverSkin": "s878b21070784d2492b60c278b244c14"
        }
    },
    "id": "lblPortfolio",
    "ide_onClick": "AS_Link_c6fd336b12bd40eb867074990424f578",
    "info": null,
    "isvisible": true,
    "kuid": "b8e707f303314f8789ee28876b81259b",
    "name": "kony.ui.Link",
    "paddInPixel": [
        0,
        0,
        0,
        0
    ],
    "parent": "hbxLinks",
    "pf": "frmIBMFSuitTest",
    "texti18n": "MU_ACC_InvestVal",
    "wType": "Link",
    "widgetalignment": 5
}