{
    "@class": "com.kony.gen.viz.model.component.KVizLabel",
    "DNDConfig": null,
    "__parentReadjusting__": false,
    "_height_": {
        "type": "ref",
        "value": "preferred"
    },
    "_margin_": [
        1,
        1,
        1,
        1
    ],
    "_padding_": [
        0,
        0,
        0,
        0
    ],
    "_skin_": "s518c813e89747f3891eb3cb848f91c8",
    "_text_": "TMB all free Accounts",
    "_width_": {
        "type": "string",
        "value": "73%"
    },
    "_wrapping_": 2,
    "android": {
        "textStyle": {
            "letterSpacing": 0,
            "strikeThrough": false
        }
    },
    "canUpdateUI": true,
    "centerx": {
        "type": "string",
        "value": "50%"
    },
    "centery": {
        "type": "string",
        "value": "50%"
    },
    "containerId": true,
    "containerweight": 100,
    "contentalignment": 5,
    "id": "lblAllFree",
    "info": null,
    "ipad": {
        "psp": {
            "wrapping": 2
        }
    },
    "iphone": {
        "psp": {
            "wrapping": 2
        }
    },
    "iscustomlayout": false,
    "isvisible": true,
    "kuid": "d68baea37d124129a608b6d275b81243",
    "name": "kony.ui.Label",
    "parent": "flxAllFreeAccount",
    "pf": "segASRowRemp",
    "retaincontentalignment": false,
    "retainflexpositionproperties": false,
    "texti18n": "MB_AFBanner",
    "textstyle": {},
    "tooltip": "",
    "wType": "Label",
    "zindex": 1
}