{
    "@class": "com.kony.gen.viz.model.component.KVizButton",
    "DNDConfig": null,
    "__parentReadjusting__": false,
    "_bottom_": {
        "type": "string",
        "value": "0%"
    },
    "_height_": {
        "type": "string",
        "value": "30dp"
    },
    "_margin_": [
        6,
        6,
        6,
        6
    ],
    "_padding_": [
        0,
        0,
        0,
        0
    ],
    "_right_": {
        "type": "string",
        "value": "5%"
    },
    "_skin_": "s09c5fce81d24976aba25be42495b24c",
    "_text_": "",
    "_top_": {
        "type": "string",
        "value": "3%"
    },
    "_width_": {
        "type": "string",
        "value": "30dp"
    },
    "canUpdateUI": true,
    "containerweight": 100,
    "contentalignment": 5,
    "displaytext": true,
    "focusskin": "s09c5fce81d24976aba25be42495b24c",
    "id": "BtnPopUpClosePopUp",
    "info": null,
    "isvisible": true,
    "kuid": "c81476463d1f4c8c874365775a3beaca",
    "name": "kony.ui.Button",
    "parent": "flxBankPopUp",
    "pf": "frmLoanIncomeInfo",
    "wType": "Button",
    "zindex": 1
}