{
    "@class": "com.kony.gen.viz.model.component.KVizButton",
    "DNDConfig": null,
    "__parentReadjusting__": false,
    "_height_": {
        "type": "string",
        "value": "100%"
    },
    "_left_": {
        "type": "string",
        "value": "50%"
    },
    "_margin_": [
        6,
        6,
        6,
        6
    ],
    "_padding_": [
        0,
        0,
        0,
        0
    ],
    "_skin_": "sab1356c27b946168956b899be3aa246",
    "_text_": "",
    "_top_": {
        "type": "string",
        "value": "0%"
    },
    "_width_": {
        "type": "string",
        "value": "50%"
    },
    "canUpdateUI": true,
    "containerweight": 100,
    "contentalignment": 5,
    "displaytext": true,
    "focusskin": "sa812e9ddb7b43dda860fba234b7f80c",
    "id": "btnSelfEmployeeSelect",
    "info": null,
    "isvisible": false,
    "kuid": "c1e96276dbc54c64a60b52cabe272d04",
    "name": "kony.ui.Button",
    "parent": "flxButtonsSelf",
    "pf": "frmLoanIncomeInfo",
    "texti18n": "Self_Employed_label",
    "wType": "Button",
    "zindex": 1
}