{
    "DNDConfig": null,
    "__parentReadjusting__": false,
    "_height_": {
        "type": "string",
        "value": "100%"
    },
    "_left_": {
        "type": "string",
        "value": "0%"
    },
    "_margin_": [
        0,
        0,
        0,
        0
    ],
    "_orientation_": 6,
    "_padding_": [
        0,
        0,
        0,
        0
    ],
    "_percent_": true,
    "_skin_": "sf16386922154a1ea965e4cdf033ea5e",
    "_top_": {
        "type": "string",
        "value": "0%"
    },
    "_width_": {
        "type": "string",
        "value": "100%"
    },
    "allboxes": [],
    "autogrowmode": 0,
    "canUpdateUI": true,
    "children": [
        "BtnPopUpClosePopUp",
        "lblBankPopup",
        "fxbankPopupseg"
    ],
    "clipbounds": true,
    "containerweight": 100,
    "disabledSkins": {
        "focusSkin": "sf16386922154a1ea965e4cdf033ea5e"
    },
    "enablescrolling": true,
    "id": "flxBankPopUp",
    "info": null,
    "isvisible": false,
    "kuid": "i5e56e3bd1c545bea1ff824fb3e72a3d",
    "layouttype": 4,
    "name": "kony.ui.FlexContainer",
    "parent": "frmLoanIncomeInfo",
    "pf": "frmLoanIncomeInfo",
    "snapgridsize": "0",
    "snaptogrid": true,
    "wType": "FlexContainer",
    "widgetalignment": 1,
    "zindex": 5
}