{
    "@class": "com.kony.gen.viz.model.component.KVizRichText",
    "DNDConfig": null,
    "__parentReadjusting__": false,
    "_height_": {
        "type": "ref",
        "value": "preferred"
    },
    "_left_": {
        "type": "string",
        "value": "5%"
    },
    "_margin_": [
        0,
        0,
        0,
        0
    ],
    "_padding_": [
        0,
        0,
        0,
        0
    ],
    "_skin_": "sc7d3b0c0b7f4d94bc03f0fba6e060ff",
    "_text_": "RichText",
    "_top_": {
        "type": "string",
        "value": "10%"
    },
    "_width_": {
        "type": "string",
        "value": "90%"
    },
    "_wrapping_": 2,
    "canUpdateUI": true,
    "containerweight": 100,
    "contentalignment": 4,
    "id": "LabelErrorNotMatch",
    "info": null,
    "isvisible": true,
    "kuid": "c47d2197c6624ee786531094c025e970",
    "name": "kony.ui.RichText",
    "parent": "FlexErrorNoUnitHolderNo",
    "pf": "frmMFSelectPurchaseFundMB",
    "wType": "RichText",
    "widgetalignment": 5,
    "zindex": 1
}