{
    "DNDConfig": null,
    "__parentReadjusting__": false,
    "_bottom_": {
        "type": "number",
        "value": "5"
    },
    "_height_": {
        "type": "string",
        "value": "81%"
    },
    "_left_": "0dp",
    "_margin_": [
        0,
        0,
        0,
        0
    ],
    "_orientation_": 6,
    "_padding_": [
        0,
        0,
        0,
        0
    ],
    "_percent_": true,
    "_skin_": "s35553cbdcd64d06b81e2dc5d27f1b06",
    "_top_": {
        "type": "string",
        "value": "8%"
    },
    "_width_": {
        "type": "string",
        "value": "100%"
    },
    "allboxes": [],
    "allowhorizontalbounce": false,
    "allowverticalbounce": false,
    "bounces": false,
    "canUpdateUI": true,
    "children": [
        "FlexSubHeader",
        "FlexTab",
        "FlexOrderToProcess",
        "FlexOrderToProcesssegBg",
        "FlexMonthTab",
        "LineMonthTab",
        "FlexdetailHeader",
        "segFullSatementData",
        "FlexLoadingFullSatement",
        "flexLoading",
        "FlexFSDate",
        "flexFundDetails"
    ],
    "clipbounds": true,
    "containerweight": 100,
    "decelerat": false,
    "dragg": false,
    "enablescrolling": true,
    "horizontalscrollindicator": true,
    "id": "FlexScroll",
    "info": null,
    "isvisible": true,
    "kuid": "b8ecddd19a4b476f996fe75e43a77be2",
    "layouttype": 4,
    "name": "kony.ui.FlexScrollContainer",
    "pagingenabled": false,
    "parent": "flxFullBody",
    "pf": "frmMFFullStatementNFundSummary",
    "scrolldirection": 2,
    "snapgridsize": 10,
    "snaptogrid": true,
    "track": false,
    "verticalscrollindicator": false,
    "wType": "FlexScrollContainer",
    "widgetalignment": 1,
    "zindex": 1
}