{
    "DNDConfig": null,
    "__parentReadjusting__": false,
    "_height_": {
        "type": "ref",
        "value": "preferred"
    },
    "_left_": {
        "type": "string",
        "value": "0dp"
    },
    "_margin_": [
        0,
        0,
        0,
        0
    ],
    "_orientation_": 6,
    "_padding_": [
        0,
        0,
        0,
        0
    ],
    "_percent_": true,
    "_skin_": "sec5be3a45cd46b6a3f4be0762a04230",
    "_top_": {
        "type": "string",
        "value": "0dp"
    },
    "_width_": {
        "type": "string",
        "value": "100%"
    },
    "allboxes": [],
    "autogrowmode": 1,
    "canUpdateUI": true,
    "children": [
        "FlexFSAmount",
        "FlexFSNavUnit",
        "FlexFSCost",
        "FlexFSTaxDoc"
    ],
    "clipbounds": true,
    "containerweight": 100,
    "enablescrolling": true,
    "id": "flexFundDetails",
    "info": null,
    "isvisible": true,
    "kuid": "fb9e210d2e7a4b8b8eb0a74518975689",
    "layouttype": 4,
    "name": "kony.ui.FlexContainer",
    "parent": "FlexScroll",
    "pf": "frmMFFullStatementNFundSummary",
    "snapgridsize": 10,
    "snaptogrid": true,
    "wType": "FlexContainer",
    "widgetalignment": 1,
    "zindex": 1
}