{
    "@class": "com.kony.gen.viz.model.component.KVizLabel",
    "DNDConfig": null,
    "__parentReadjusting__": false,
    "_height_": {
        "type": "ref",
        "value": "preferred"
    },
    "_left_": {
        "type": "string",
        "value": "0.08%"
    },
    "_margin_": [
        1,
        1,
        1,
        1
    ],
    "_padding_": [
        0,
        0,
        0,
        0
    ],
    "_skin_": "s8be4d7fbb114206ae8a5ed8f34d1d36",
    "_text_": "Label",
    "_top_": {
        "type": "string",
        "value": "2dp"
    },
    "_width_": {
        "type": "string",
        "value": "97%"
    },
    "_wrapping_": 2,
    "android": {
        "textStyle": {
            "letterSpacing": 0,
            "strikeThrough": false
        }
    },
    "canUpdateUI": true,
    "containerweight": 100,
    "contentalignment": 4,
    "id": "lblCnfmToRefTitle1",
    "info": null,
    "ipad": {
        "psp": {
            "wrapping": 2
        }
    },
    "iphone": {
        "psp": {
            "wrapping": 2
        }
    },
    "isvisible": true,
    "kuid": "f5fca7ecbf8c4f7fbe8a098cfbed2c59",
    "name": "kony.ui.Label",
    "parent": "CopyFlexContainer0ad27b961c91548",
    "pf": "frmQRPaymentSuccess",
    "texti18n": "TRConfirm_RefNo",
    "textstyle": {},
    "tooltip": "",
    "wType": "Label",
    "zindex": 1
}