{
    "DNDConfig": null,
    "_enabled_": false,
    "_margin_": [
        0,
        0,
        0,
        0
    ],
    "_orientation_": 1,
    "_padding_": [
        1,
        1,
        1,
        1
    ],
    "_percent_": true,
    "_position_": 3,
    "_resize_": true,
    "_skin_": "sbbde3cb57404f16878217ba549614c0",
    "allboxes": [],
    "android": {
        "@class": "com.kony.gen.viz.model.container.property.hbox.AndroidHBoxProperty",
        "_position_": 3,
        "position": 3,
        "render": true
    },
    "borderCollapse": false,
    "canUpdateUI": true,
    "children": [
        "imgOpnActSavingCareAdd"
    ],
    "containerweight": 100,
    "focusskin": "sbbde3cb57404f16878217ba549614c0",
    "id": "hbxAdv",
    "ide_onClick": "p2kwiet2012247636133_hbxAdv_onClick_seq0",
    "info": null,
    "iphone": {
        "@class": "com.kony.gen.viz.model.container.property.hbox.IPhoneHBoxProperty",
        "_margin_": [
            3,
            1,
            1,
            1
        ],
        "_position_": 3,
        "margin": [
            3,
            1,
            1,
            1
        ],
        "marginInPixel": false,
        "position": 3,
        "render": true
    },
    "isvisible": false,
    "kuid": "p2kwiet2012247636119",
    "layoutalignment": 3,
    "margininpixel": false,
    "name": "kony.ui.Box",
    "paddinginpixel": false,
    "parent": "sboxRight",
    "pf": "frmOpenActSavingCareCnfNAck",
    "spa": {
        "@class": "com.kony.gen.viz.model.container.property.hbox.SPAHBoxProperty"
    },
    "spaan": {
        "@class": "com.kony.gen.viz.model.container.property.hbox.SPAAndroidHBoxProperty",
        "_margin_": [
            3,
            0,
            3,
            0
        ],
        "margin": [
            3,
            0,
            3,
            0
        ],
        "marginInPixel": false,
        "render": true
    },
    "spabb": {
        "@class": "com.kony.gen.viz.model.container.property.hbox.SPABBHBoxProperty",
        "render": true
    },
    "spaip": {
        "@class": "com.kony.gen.viz.model.container.property.hbox.SPAIPhoneHBoxProperty",
        "_margin_": [
            3,
            0,
            3,
            0
        ],
        "margin": [
            3,
            0,
            3,
            0
        ],
        "marginInPixel": false,
        "render": true
    },
    "spawinphone8": {
        "@class": "com.kony.gen.viz.model.container.property.hbox.SPAWinPhone8HBoxProperty",
        "render": true
    },
    "templateType": "forms",
    "wType": "HBox",
    "widgetalignment": 1,
    "winphone8": {
        "@class": "com.kony.gen.viz.model.container.property.hbox.WinPhone8HBoxProperty",
        "_margin_": [
            1,
            1,
            1,
            1
        ],
        "_position_": 3,
        "margin": [
            1,
            1,
            1,
            1
        ],
        "marginInPixel": true,
        "position": 3,
        "psp": {
            "enableCache": false
        },
        "render": true
    }
}