{
    "@class": "com.kony.gen.viz.model.container.KVizHBox",
    "DNDConfig": null,
    "_margin_": [
        0,
        0,
        0,
        0
    ],
    "_orientation_": 1,
    "_padding_": [
        0,
        0,
        0,
        0
    ],
    "_percent_": true,
    "_position_": 3,
    "_skin_": "s3240d32b9a74cc78d1e0768cd2cdf1b",
    "allboxes": [],
    "canUpdateUI": true,
    "children": [
        "vbxLine"
    ],
    "containerweight": 100,
    "contextmenu": null,
    "id": "hbxLine",
    "info": null,
    "isvisible": true,
    "kuid": "c16744167462491ebf44f47552b8d7ea",
    "layouttype": 0,
    "name": "kony.ui.Box",
    "parent": "vbxContents",
    "pf": "frmIBMFSuitReview",
    "wType": "HBox",
    "widgetalignment": 2
}