{
    "@class": "com.kony.gen.viz.model.container.KVizHBox",
    "DNDConfig": null,
    "_margin_": [
        8,
        5,
        8,
        0
    ],
    "_orientation_": 1,
    "_padding_": [
        0,
        0,
        0,
        0
    ],
    "_percent_": true,
    "_position_": 3,
    "_skin_": "s70aad17b6d344bf9a9cc6ca7b433fed",
    "allboxes": [],
    "canUpdateUI": true,
    "children": [
        "btnCancelOrder"
    ],
    "containerweight": 100,
    "contextmenu": null,
    "id": "HBoxCancelOrder",
    "info": null,
    "isvisible": true,
    "kuid": "bfe9e579497a48cab6d5220fa8400cdf",
    "layouttype": 0,
    "margininpixel": false,
    "name": "kony.ui.Box",
    "paddinginpixel": false,
    "parent": "popUpCancelorder",
    "pf": "popUpCancelorder",
    "wType": "HBox",
    "widgetalignment": 1
}