{
    "@class": "com.kony.gen.viz.model.component.KVizLabel",
    "DNDConfig": null,
    "_margin_": [
        1,
        1,
        0,
        1
    ],
    "_padding_": [
        0,
        0,
        0,
        0
    ],
    "_skin_": "s1576c487d154b718a2012ba3ba0c50c",
    "_text_": "Label",
    "_wrapping_": 2,
    "android": {
        "textStyle": {
            "letterSpacing": 0,
            "strikeThrough": false
        }
    },
    "canUpdateUI": true,
    "containerweight": 60,
    "contentalignment": 6,
    "donotUpdateContainerWeight": false,
    "id": "lblValue3",
    "info": null,
    "ipad": {
        "psp": {
            "wrapping": 2
        }
    },
    "iphone": {
        "psp": {
            "wrapping": 2
        }
    },
    "isvisible": true,
    "kuid": "a382126d179e47098f0ef1f45e6720dc",
    "margininpixel": false,
    "name": "kony.ui.Label",
    "parent": "CopyHBox0cfbde3fa39a74f",
    "pf": "popUpCancelorder",
    "tooltip": "",
    "wType": "Label"
}