{
    "DNDConfig": null,
    "_enabled_": false,
    "_padding_": [
        0,
        0,
        0,
        0
    ],
    "_skin_": "s43771e8418c4314b62e75f58c67409b",
    "_text_": "Forgot Password?",
    "canUpdateUI": true,
    "containerweight": 93,
    "contentalignment": 4,
    "desktopweb": {
        "@class": "com.kony.gen.viz.model.component.property.link.DesktopWebLinkProperty",
        "_margin_": [
            0,
            0,
            0,
            0
        ],
        "_padding_": [
            0,
            0,
            0,
            0
        ],
        "margin": [
            0,
            0,
            0,
            0
        ],
        "marginInPixel": false,
        "padding": [
            0,
            0,
            0,
            0
        ],
        "paddingInPixel": false,
        "render": true
    },
    "focusskin": "s52b212331d9490da6292a9d4e217a43",
    "hexpand": true,
    "id": "link502735421204405",
    "ide_onClick": "p2kwiet2012247648059_link502735421204405_onClick_seq0",
    "info": null,
    "isvisible": true,
    "kiosk": {
        "@class": "com.kony.gen.viz.model.component.property.link.KioskLinkProperty",
        "render": true
    },
    "kuid": "p2kwiet2012247648025",
    "name": "kony.ui.Link",
    "paddinginpixel": false,
    "parent": "hbox502735421204402",
    "pf": "frmIBTemplateLogin",
    "spa": {
        "@class": "com.kony.gen.viz.model.component.property.link.SPALinkProperty"
    },
    "texti18n": "forPass",
    "vexpand": false,
    "wType": "Link",
    "widgetalignment": 5
}