{
    "DNDConfig": null,
    "_enabled_": false,
    "_margin_": [
        0,
        0,
        0,
        0
    ],
    "_padding_": [
        0,
        3,
        0,
        3
    ],
    "_skin_": "s4f6c2d263c34896a7a70e9d93a3ccca",
    "_text_": "",
    "canUpdateUI": true,
    "containerweight": 23,
    "contentalignment": 5,
    "desktopweb": {
        "@class": "com.kony.gen.viz.model.component.property.button.DesktopWebButtonProperty",
        "displayText": true,
        "render": true
    },
    "displaytext": true,
    "focusskin": "s1820bca17164c40a5000b2d6f74fa66",
    "hexpand": true,
    "id": "btnFB",
    "ide_onClick": "p2kwiet2012247648253_btnFB_onClick_seq0",
    "info": null,
    "isvisible": true,
    "kiosk": {
        "@class": "com.kony.gen.viz.model.component.property.button.KioskButtonProperty",
        "render": true
    },
    "kuid": "p2kwiet2012247648223",
    "margininpixel": false,
    "name": "kony.ui.Button",
    "paddinginpixel": false,
    "parent": "hboxPdfPrintEmail",
    "pf": "frmIBTOASavingsCareExecutedTxn",
    "spa": {
        "@class": "com.kony.gen.viz.model.component.property.button.SPAButtonProperty",
        "displayText": true
    },
    "vexpand": false,
    "wType": "Button",
    "widgetalignment": 5
}