{
    "@class": "com.kony.gen.viz.model.component.KVizTextBox2",
    "DNDConfig": null,
    "__parentReadjusting__": false,
    "_height_": {
        "type": "string",
        "value": "100%"
    },
    "_left_": {
        "type": "string",
        "value": "24%"
    },
    "_margin_": [
        0,
        0,
        0,
        0
    ],
    "_padding_": [
        3,
        0,
        3,
        0
    ],
    "_placeholder_": "",
    "_skin_": "sb241da97f8f4cb3ab233b3fa6646f2a",
    "_text_": "Nick Name",
    "_top_": {
        "type": "number",
        "value": "0"
    },
    "_width_": {
        "type": "string",
        "value": "76%"
    },
    "android": {},
    "autocapitalize": "none",
    "autocomplete": false,
    "autocorrect": false,
    "autofilter": false,
    "canUpdateUI": true,
    "containerheight": "",
    "containerheightmode": 1,
    "containerweight": 100,
    "contentalignment": 4,
    "focusskin": "sb241da97f8f4cb3ab233b3fa6646f2a",
    "id": "txtNickName",
    "ide_onDone": "AS_TextField_eca98d29d4754dc3a5e7821a0ae37a75",
    "info": null,
    "isvisible": true,
    "keyboardtype": "A",
    "kuid": "bc328d419e6f4aaf95a5ea4b94981d12",
    "maxtextlength": 20,
    "mode": "A",
    "name": "kony.ui.TextBox2",
    "paddinginpixel": false,
    "parent": "flxTxtNickName",
    "pf": "frmMBRTPApplyBiller",
    "placeholderi18n": "keylblNickname",
    "placeholderskin": "sb241da97f8f4cb3ab233b3fa6646f2a",
    "securetextentry": false,
    "textinputmode": "A",
    "viewtype": "default",
    "wType": "TextField",
    "zindex": 1
}